 interval_start | avg_transactions | num_transactions | sum_latency | sum_latency_2 | min_latency | max_latency 
----------------+------------------+------------------+-------------+---------------+-------------+-------------
              0 |           139626 |          8377544 |  3834057616 | 8662990495240 |         267 |       24695
              1 |           155496 |          9329788 |  3839949240 | 2849545789352 |         258 |       24803
              2 |           153737 |          9224248 |  3840052944 | 2883893615544 |         265 |       24859
              3 |           153328 |          9199700 |  3839997860 | 2910399113620 |         268 |       24704
              4 |           152264 |          9135836 |  3840000364 | 2927094174612 |         269 |       24787
              5 |           152919 |          9175112 |  3840004948 | 2956415283388 |         258 |       25223
              6 |           153026 |          9181564 |  3839995536 | 2992431178376 |         264 |       26438
              7 |           152681 |          9160840 |  3840002392 | 2965200729920 |         269 |       24894
              8 |           153686 |          9221156 |  3839999296 | 2859834565048 |         266 |       28099
              9 |           151306 |          9078340 |  3840000676 | 2963843861260 |         265 |       29225
             10 |           151955 |          9117280 |  3840003112 | 2854039778160 |         271 |       24656
             11 |           151785 |          9107112 |  3839997032 | 2901503216840 |         263 |       24489
             12 |           151974 |          9118464 |  3839994916 | 2843203601124 |         265 |       24640
             13 |           151618 |          9097092 |  3840005328 | 2945728071856 |         269 |       24675
             14 |           150108 |          9006472 |  3840058396 | 3315279026780 |         274 |       25474
             15 |           145386 |          8723136 |  3840003164 | 8145389303812 |         271 |       25965
             16 |           151859 |          9111528 |  3840001832 | 3009047411440 |         266 |       24952
             17 |           151567 |          9094004 |  3840001812 | 2935526500316 |         264 |       25112
             18 |           152096 |          9125748 |  3839993672 | 2828402322720 |         262 |       24925
             19 |           153875 |          9232472 |  3840009356 | 2907696803084 |         267 |       25856
             20 |           153226 |          9193552 |  3839996364 | 2886059547012 |         263 |       24838
             21 |           151822 |          9109340 |  3839997932 | 2824149537140 |         271 |       26842
             22 |           152518 |          9151084 |  3840001384 | 2951496077776 |         263 |       24395
             23 |           153056 |          9183344 |  3839998476 | 2918591766644 |         264 |       25207
             24 |           153518 |          9211104 |  3840000876 | 2877896011692 |         264 |       24743
             25 |           152759 |          9165512 |  3839998144 | 2927680202648 |         264 |       24651
             26 |           152366 |          9141980 |  3840003364 | 2936322468268 |         258 |       25900
             27 |           151547 |          9092808 |  3839997568 | 2878406399720 |         267 |       25456
             28 |           151797 |          9107800 |  3840002072 | 2875610625224 |         270 |       26573
             29 |           150712 |          9042708 |  3839992712 | 3397394243984 |         263 |       25531
             30 |           140947 |          8456848 |  3840006892 | 8407247217764 |         261 |       26302
             31 |           152415 |          9144896 |  3839997408 | 2880948588840 |         263 |       29503
             32 |           151660 |          9099576 |  3839999524 | 2912200367220 |         264 |       24900
             33 |           154077 |          9244608 |  3840002224 | 2968886229728 |         269 |       24794
             34 |           150853 |          9051208 |  3840001224 | 2887720645320 |         268 |       25102
             35 |           151845 |          9110692 |  3839999000 | 2946543469560 |         255 |       25288
             36 |           152030 |          9121816 |  3840001276 | 2881156581364 |         271 |       25340
             37 |           150939 |          9056364 |  3839998284 | 2896194373020 |         259 |       25127
             38 |           151480 |          9088784 |  3839999832 | 3012489148216 |         263 |       25971
             39 |           150980 |          9058824 |  3840001004 | 2942642496548 |         268 |       25713
             40 |           166409 |          9984564 |  3839998232 | 2881026234888 |         262 |       25056
             41 |           152325 |          9139488 |  3840004492 | 2920131346084 |         272 |       25474
             42 |           151548 |          9092864 |  3839995596 | 2946796326924 |         260 |       25705
             43 |           152054 |          9123232 |  3839999548 | 2989503070868 |         271 |       25558
             44 |           150894 |          9053644 |  3840012168 | 3410769800240 |         242 |       27475
             45 |           140709 |          8442556 |  3839990484 | 7693488688364 |         266 |       25406
             46 |           153278 |          9196684 |  3840000864 | 2924258838912 |         267 |       24994
             47 |           151956 |          9117368 |  3839995288 | 2914834489448 |         271 |       25307
             48 |           149354 |          8961236 |  3840000760 | 3568971003288 |         269 |       25338
             49 |           153205 |          9192296 |  3840004188 | 2902733803140 |         263 |       25708
             50 |           155102 |          9306124 |  3839997416 | 2923667765136 |         263 |       26319
             51 |           150749 |          9044964 |  3839997664 | 2917388800656 |         272 |       25243
             52 |           151881 |          9112888 |  3840004960 | 2886624122760 |         263 |       25089
             53 |           150454 |          9027232 |  3839998388 | 2930995141348 |         248 |       25000
             54 |           151024 |          9061436 |  3839998096 | 2994244469240 |         262 |       25210
             55 |           150233 |          9013972 |  3839999564 | 2896491317940 |         270 |       24960
             56 |           152097 |          9125848 |  3840000796 | 2888897040332 |         271 |       25289
             57 |           151312 |          9078736 |  3840001316 | 2941104717884 |         275 |       25133
             58 |           153049 |          9182952 |  3840001272 | 2932861813672 |         264 |       25910
             59 |           149855 |          8991328 |  3840004776 | 3394249701136 |         261 |       25340
             60 |           141814 |          8508828 |  3839993884 | 7929918639196 |         266 |       24971
             61 |           149891 |          8993488 |  3840002032 | 3698402282376 |         259 |       25875
             62 |           152049 |          9122920 |  3839997212 | 2936446598452 |         264 |       25586
             63 |           151611 |          9096688 |  3840000288 | 2914030700400 |         270 |       25648
             64 |           150938 |          9056292 |  3839999368 | 2874451043408 |         265 |       25773
             65 |           151324 |          9079448 |  3840000384 | 2900607940960 |         268 |       25084
             66 |           151407 |          9084392 |  3839997748 | 2894401070116 |         266 |       25127
             67 |           152692 |          9161512 |  3840004428 | 2937551838148 |         264 |       25089
             68 |           151683 |          9100988 |  3839999028 | 2925431834380 |         267 |       25491
             69 |           151752 |          9105100 |  3840001272 | 2885534424968 |         268 |       25464
             70 |           151222 |          9073316 |  3839999532 | 2919820458100 |         264 |       24986
             71 |           150663 |          9039752 |  3839995280 | 2892138843208 |         267 |       24913
             72 |           153133 |          9187980 |  3840003392 | 2869276949368 |         271 |       24797
             73 |           154805 |          9288284 |  3840003884 | 2918314480396 |         264 |       26508
             74 |           149798 |          8987904 |  3838761912 | 3447897403192 |         267 |       27594
             75 |           150635 |          9038084 |  3841232648 | 9052942211632 |         255 |       27276
             76 |           151015 |          9060880 |  3840001396 | 2954394837772 |         264 |       27078
             77 |           151959 |          9117548 |  3840000760 | 2918852686608 |         269 |       25408
             78 |           151062 |          9063708 |  3840001240 | 2924928117368 |         259 |       25406
             79 |           151356 |          9081372 |  3839995720 | 2959748671280 |         269 |       25852
             80 |           152890 |          9173388 |  3840003580 | 2915058918332 |         263 |       25974
             81 |           153222 |          9193300 |  3840002772 | 2984837595900 |         261 |       26046
             82 |           153518 |          9211096 |  3839995412 | 2855549174772 |         260 |       24789
             83 |           157480 |          9448800 |  3840006676 | 2900918686900 |         263 |       24947
             84 |           153387 |          9203228 |  3839993492 | 2958540336980 |         254 |       24664
             85 |           152017 |          9121016 |  3840002304 | 2894700929928 |         274 |       25301
             86 |           151587 |          9095236 |  3839998900 | 2863517488988 |         272 |       24844
             87 |           151943 |          9116584 |  3839999504 | 2911929738224 |         253 |       24706
             88 |           149407 |          8964424 |  3840003920 | 3666473904224 |         270 |       25439
             89 |           148464 |          8907840 |  3839475840 | 4123339781320 |         266 |       26161
             90 |           138698 |          8321872 |  3840522336 | 9272672609512 |         272 |       49558
             91 |           149665 |          8979904 |  3839996532 | 3825220676236 |         263 |       35570
             92 |           149430 |          8965820 |  3840005180 | 3868062688236 |         269 |       45922
             93 |           149103 |          8946176 |  3839997240 | 3833045085160 |         270 |       32242
             94 |           148638 |          8918292 |  3840000296 | 3781879976952 |         265 |       33330
             95 |           147774 |          8866448 |  3839999392 | 3923668236720 |         271 |       59228
             96 |           148795 |          8927696 |  3840000388 | 3693799443116 |         267 |       24792
             97 |           148256 |          8895380 |  3840000376 | 3727209730496 |         256 |       24931
             98 |           149093 |          8945580 |  3839996956 | 4043138399892 |         267 |       53212
             99 |           149001 |          8940076 |  3840000452 | 3663608870244 |         267 |       25323
            100 |           149162 |          8949716 |  3839999168 | 3722549171800 |         266 |       25407
            101 |           149060 |          8943604 |  3840001716 | 3780019779148 |         266 |       34859
            102 |           149844 |          8990632 |  3840002220 | 4043389303924 |         267 |       56625
            103 |           148746 |          8924780 |  3839998060 | 3829801903612 |         271 |       33118
            104 |           148475 |          8908484 |  3839997556 | 3789264340548 |         268 |       26502
            105 |           136489 |          8189344 |  3840004000 | 9469884525944 |         270 |       25544
            106 |           148523 |          8911376 |  3839966048 | 4056862860360 |         269 |       58080
            107 |           148665 |          8919908 |  3839151176 | 3711936195016 |         267 |       24995
            108 |           149241 |          8954480 |  3840879544 | 3738920798384 |         260 |       25102
            109 |           150942 |          9056508 |  3840000300 | 2892582947884 |         271 |       26194
            110 |           149523 |          8971396 |  3840003092 | 3140535758396 |         268 |       53666
            111 |           150629 |          9037716 |  3839997152 | 2890671853984 |         273 |       24762
            112 |           150460 |          9027576 |  3839999660 | 2920119820356 |         250 |       25019
            113 |           150446 |          9026736 |  3840004584 | 3130751367368 |         259 |       57125
            114 |           151184 |          9071056 |  3839995704 | 3108735427232 |         263 |       42479
            115 |           150132 |          9007900 |  3840001048 | 3253446022824 |         261 |       24538
            116 |           152058 |          9123500 |  3840004724 | 3173380493316 |         270 |       25331
            117 |           151991 |          9119480 |  3839998564 | 2940358466028 |         262 |       25106
            118 |           160439 |          9626348 |  3839996840 | 2942358255704 |         264 |       30906
            119 |           150637 |          9038220 |  3839997472 | 3023530521312 |         268 |       26631
            120 |           141779 |          8506768 |  3839999784 | 9032373356864 |         268 |       28288
            121 |           151342 |          9080544 |  3839997400 | 3008783751064 |         266 |       25930
            122 |           150912 |          9054712 |  3840000632 | 2950769670040 |         264 |       25720
            123 |           150971 |          9058252 |  3840002528 | 2954814627936 |         267 |       25417
            124 |           152246 |          9134776 |  3839997988 | 2928053630628 |         263 |       25734
            125 |           150425 |          9025488 |  3839999852 | 3000262499292 |         270 |       26485
            126 |           152771 |          9166264 |  3840004252 | 2927146052124 |         270 |       26790
            127 |           150239 |          9014344 |  3839996216 | 2890176692760 |         273 |       24795
            128 |           150700 |          9042000 |  3840001924 | 3394440038036 |         264 |       25249
            129 |           151550 |          9093028 |  3840001312 | 2958381223912 |         267 |       25408
            130 |           152150 |          9129028 |  3840001400 | 2902299721672 |         246 |       24637
            131 |           151153 |          9069176 |  3839995780 | 2940530478028 |         255 |       25076
            132 |           152541 |          9152480 |  3840001224 | 2895716278688 |         271 |       25574
            133 |           152086 |          9125172 |  3839999360 | 2925448090792 |         268 |       25421
            134 |           151405 |          9084272 |  3840001740 | 2978904816700 |         266 |       25612
            135 |           144897 |          8693828 |  3839998060 | 8472623279764 |         259 |       27162
            136 |           151616 |          9096980 |  3840004328 | 2962864220016 |         223 |       25540
            137 |           153376 |          9202572 |  3839998092 | 2959026897548 |         261 |       25951
            138 |           151603 |          9096204 |  3840001424 | 2956820051896 |         268 |       26508
            139 |           152703 |          9162180 |  3839995756 | 2968201884364 |         268 |       26133
            140 |           152452 |          9147112 |  3840002424 | 2956029858888 |         260 |       28037
            141 |           152396 |          9143732 |  3839998128 | 3558069654824 |         269 |       25814
            142 |           152690 |          9161392 |  3840001052 | 2981597665236 |         266 |       25234
            143 |           150280 |          9016788 |  3840001156 | 2865114242948 |         264 |       24944
            144 |           152193 |          9131604 |  3840001252 | 2915460357996 |         271 |       25997
            145 |           151523 |          9091352 |  3839996944 | 2894268489248 |         266 |       25596
            146 |           152212 |          9132696 |  3840002416 | 2862139826504 |         266 |       25348
            147 |           151517 |          9091048 |  3839998004 | 2885973022796 |         265 |       24862
            148 |           152452 |          9147108 |  3840002492 | 2971867405980 |         243 |       27726
            149 |           151517 |          9091016 |  3839998560 | 2973239076304 |         268 |       26092
            150 |           145608 |          8736492 |  3839998720 | 8079061012160 |         262 |       25746
            151 |           152457 |          9147448 |  3840004688 | 2914160438088 |         270 |       25136
            152 |           152579 |          9154736 |  3839995876 | 2873570414948 |         268 |       25363
            153 |           151435 |          9086128 |  3839999728 | 2919201300248 |         273 |       25173
            154 |           151189 |          9071356 |  3840002524 | 2936576160876 |         267 |       25160
            155 |           148852 |          8931100 |  3840000408 | 3658728607840 |         268 |       25970
            156 |           148575 |          8914476 |  3838651296 | 4069247033816 |         266 |       58258
            157 |           148924 |          8935412 |  3841347256 | 3816505213792 |         248 |       27403
            158 |           148250 |          8895004 |  3839998968 | 3959960357888 |         272 |       47346
            159 |           148787 |          8927224 |  3839999956 | 3695901002012 |         261 |       26962
            160 |           148153 |          8889152 |  3840001016 | 3712938297480 |         270 |       25281
            161 |           151311 |          9078636 |  3839998068 | 3827733111964 |         260 |       31986
            162 |           148637 |          8918196 |  3839999388 | 3715400060732 |         270 |       28299
            163 |           149280 |          8956788 |  3840005344 | 3870847550984 |         262 |       35791
            164 |           148078 |          8884652 |  3839996180 | 4063657123420 |         257 |       52049
            165 |           137642 |          8258524 |  3840000044 | 9557815968756 |         263 |       26481
            166 |           148988 |          8939292 |  3840002320 | 4012412552680 |         246 |       53907
            167 |           148506 |          8910344 |  3839998464 | 3677662287704 |         268 |       25248
            168 |           148417 |          8905044 |  3840002644 | 3741307928492 |         270 |       31167
            169 |           148086 |          8885156 |  3839998028 | 3896550726668 |         266 |       48058
            170 |           148104 |          8886224 |  3839998560 | 3770120506240 |         268 |       25593
            171 |           147881 |          8872884 |  3840006396 | 3926515840356 |         260 |       50140
            172 |           148383 |          8902952 |  3839993648 | 3698192453384 |         266 |       25445
            173 |           148694 |          8921620 |  3840002264 | 3906999893248 |         263 |       50407
            174 |           149936 |          8996132 |  3839999420 | 3810312519604 |         264 |       31174
            175 |           148844 |          8930612 |  3839999816 | 4242763746944 |         268 |       60900
            176 |           151558 |          9093508 |  3839996704 | 3160307324336 |         262 |       25796
            177 |           151032 |          9061908 |  3840006136 | 2978798083992 |         269 |       35886
            178 |           150360 |          9021596 |  3839994592 | 2969372601128 |         268 |       26837
            179 |           149221 |          8953256 |  3840004316 | 3100403370772 |         274 |       35835
            180 |           138110 |          8286620 |  3839999720 | 8729680065848 |         272 |       26250
            181 |           149875 |          8992516 |  3839998128 | 2952833585704 |         268 |       26122
            182 |           149483 |          8968996 |  3840000700 | 3105378850180 |         265 |       55794
            183 |           150769 |          9046120 |  3839999136 | 3525761587584 |         261 |       42280
            184 |           152094 |          9125636 |  3839999136 | 2889375827960 |         259 |       24622
            185 |           152018 |          9121076 |  3840002192 | 2862849753360 |         259 |       24869
            186 |           150690 |          9041376 |  3839998340 | 2921316413052 |         271 |       26038
            187 |           152421 |          9145276 |  3839998728 | 2923281083488 |         263 |       26145
            188 |           152249 |          9134916 |  3840005684 | 3009995314012 |         266 |       26475
            189 |           151149 |          9068960 |  3839993484 | 2861092565372 |         275 |       25402
            190 |           153924 |          9235436 |  3840003940 | 2894045712828 |         261 |       24655
            191 |           157370 |          9442176 |  3839996588 | 2863396303396 |         251 |       25489
            192 |           151697 |          9101796 |  3840006908 | 2943577198732 |         271 |       27281
            193 |           152071 |          9124272 |  3839996584 | 2897974151888 |         263 |       30419
            194 |           151417 |          9085012 |  3839996244 | 2932830127076 |         265 |       25718
            195 |           140649 |          8438952 |  3840002904 | 8583542425776 |         262 |       25961
            196 |           151833 |          9109984 |  3840000908 | 2868657195252 |         273 |       24827
            197 |           153124 |          9187440 |  3840000400 | 2901920556984 |         267 |       25079
            198 |           151867 |          9112024 |  3839992836 | 2860531322244 |         261 |       24566
            199 |           151897 |          9113804 |  3840005200 | 2939660666072 |         257 |       25156
            200 |           151278 |          9076708 |  3839998664 | 2905488240200 |         264 |       26210
            201 |           151582 |          9094924 |  3840005552 | 2951620286144 |         258 |       26007
            202 |           149816 |          8988932 |  3839993668 | 3668031789868 |         270 |       25217
            203 |           151390 |          9083412 |  3840003740 | 2927780351748 |         265 |       25100
            204 |           151422 |          9085328 |  3840001448 | 2925604919864 |         276 |       26329
            205 |           152517 |          9151000 |  3839998716 | 3020918169484 |         264 |       29763
            206 |           152878 |          9172696 |  3839998868 | 2917020981948 |         262 |       25606
            207 |           154657 |          9279404 |  3839998228 | 2971693322124 |         262 |       26140
            208 |           153007 |          9180392 |  3840002420 | 2922872654356 |         265 |       25902
            209 |           150635 |          9038100 |  3839999568 | 2978396630088 |         270 |       25637
            210 |           140350 |          8421004 |  3839994756 | 8395630590084 |         264 |       25900
            211 |           152192 |          9131508 |  3840002120 | 2890787440968 |         269 |       26727
            212 |           150967 |          9058032 |  3840004824 | 2874880654688 |         268 |       24888
            213 |           151753 |          9105176 |  3839997072 | 2910036613248 |         270 |       25196
            214 |           152230 |          9133816 |  3839996808 | 2852625201672 |         256 |       24667
            215 |           154039 |          9242324 |  3840003140 | 2858802137220 |         268 |       24352
            216 |           150717 |          9042996 |  3839997680 | 2866534343064 |         265 |       25666
            217 |           150963 |          9057776 |  3840003276 | 2980147696004 |         267 |       25379
            218 |           151377 |          9082612 |  3840002916 | 2957904754948 |         267 |       27094
            219 |           151383 |          9082972 |  3839991892 | 2886828711772 |         265 |       24974
            220 |           151929 |          9115716 |  3840003744 | 2906767491816 |         262 |       25332
            221 |           151648 |          9098852 |  3840002872 | 2938118798504 |         265 |       25962
            222 |           148642 |          8918532 |  3839995128 | 3762371768768 |         273 |       26727
            223 |           148205 |          8892280 |  3840005492 | 3925789536764 |         236 |       38735
            224 |           148580 |          8914780 |  3839999724 | 3963742916540 |         260 |       46258
            225 |           136971 |          8218264 |  3839998440 | 9772945974296 |         273 |       49620
            226 |           148337 |          8900216 |  3839997836 | 3858605353900 |         267 |       50635
            227 |           148712 |          8922744 |  3839998612 | 4011868781492 |         247 |       49985
            228 |           148507 |          8910432 |  3840002180 | 3924938303524 |         267 |       42841
            229 |           148930 |          8935816 |  3840002620 | 3841711842988 |         269 |       53410
            230 |           148046 |          8882740 |  3840000152 | 3707055812200 |         256 |       25176
            231 |           149489 |          8969352 |  3839997724 | 3763252570412 |         265 |       26363
            232 |           148145 |          8888672 |  3840001684 | 3760091161436 |         252 |       25649
            233 |           148237 |          8894236 |  3839993572 | 3948508937620 |         274 |       31472
            234 |           148510 |          8910572 |  3840001996 | 4133090260892 |         271 |       60973
            235 |           148388 |          8903272 |  3840004184 | 3930842341208 |         255 |       27178
            236 |           148673 |          8920396 |  3839995680 | 3922492185976 |         267 |       28733
            237 |           147916 |          8874972 |  3840002352 | 3956655203064 |         269 |       28196
            238 |           148176 |          8890532 |  3840000768 | 3790852174008 |         250 |       26448
            239 |           148845 |          8930688 |  3839995748 | 3768495059764 |         257 |       25728
            240 |           135720 |          8143188 |  3840000928 | 9627070605376 |         268 |       33582
            241 |           148505 |          8910280 |  3840002624 | 3861447405264 |         268 |       49622
            242 |           149496 |          8969772 |  3839998424 | 3833379284088 |         268 |       45009
            243 |           150130 |          9007804 |  3839999536 | 3100152713016 |         256 |       39150
            244 |           149963 |          8997796 |  3840007596 | 3136995659268 |         271 |       55202
            245 |           149983 |          8999004 |  3839995812 | 3013548496940 |         262 |       33468
            246 |           151517 |          9091048 |  3839998316 | 3034917323132 |         266 |       49871
            247 |           150655 |          9039328 |  3840002152 | 2970933889880 |         260 |       27116
            248 |           149357 |          8961436 |  3839995544 | 2965518236400 |         269 |       26971
            249 |           149252 |          8955136 |  3840000884 | 3132787061972 |         270 |       27957
            250 |           151191 |          9071468 |  3840003684 | 3507110290612 |         270 |       26260
            251 |           151534 |          9092032 |  3839995160 | 2989075450440 |         262 |       30156
            252 |           151071 |          9064276 |  3840000876 | 2894039123940 |         271 |       25664
            253 |           152156 |          9129376 |  3840002212 | 2894384737148 |         261 |       30160
            254 |           151812 |          9108716 |  3840002664 | 2924872512800 |         264 |       25452
            255 |           139759 |          8385552 |  3840000992 | 8874804931112 |         269 |       26904
            256 |           153389 |          9203344 |  3839996704 | 2990815487192 |         263 |       27688
            257 |           150899 |          9053956 |  3840000772 | 2952369131452 |         266 |       26160
            258 |           151733 |          9103960 |  3840000764 | 2983331458196 |         272 |       25969
            259 |           151316 |          9078956 |  3839997620 | 2951550675140 |         269 |       25595
            260 |           150680 |          9040800 |  3839996896 | 2939974116584 |         266 |       25841
            261 |           150898 |          9053892 |  3840002396 | 2955084121172 |         270 |       25538
            262 |           150770 |          9046188 |  3840000880 | 2902523279848 |         266 |       25340
            263 |           151998 |          9119892 |  3840003288 | 2882085590304 |         269 |       24954
            264 |           153325 |          9199484 |  3839995032 | 2909020526592 |         270 |       24815
            265 |           151393 |          9083584 |  3840004716 | 2912353503460 |         260 |       25974
            266 |           151325 |          9079500 |  3839998616 | 2953873867776 |         266 |       25523
            267 |           152982 |          9178892 |  3840000728 | 3011315209248 |         264 |       27173
            268 |           154113 |          9246792 |  3839998504 | 3016493605928 |         264 |       27431
            269 |           151561 |          9093648 |  3839997132 | 2975561663724 |         265 |       26421
            270 |           139993 |          8399592 |  3840003712 | 8380924469952 |         237 |       26679
            271 |           151921 |          9115232 |  3840002924 | 3022625225980 |         269 |       26814
            272 |           151522 |          9091324 |  3839995120 | 3035317210344 |         268 |       27045
            273 |           151978 |          9118672 |  3840002160 | 2919484223456 |         274 |       25421
            274 |           150666 |          9039980 |  3839997656 | 2962091099704 |         270 |       25712
            275 |           151753 |          9105172 |  3839998860 | 3346332179212 |         264 |       25593
            276 |           150683 |          9040972 |  3840003660 | 3070218445460 |         260 |       25850
            277 |           152272 |          9136308 |  3839999244 | 2942728249244 |         259 |       25757
            278 |           150806 |          9048344 |  3840000556 | 2979533845132 |         271 |       26042
            279 |           150702 |          9042092 |  3839997216 | 2969754847816 |         267 |       26846
            280 |           151690 |          9101408 |  3840002316 | 2954559535860 |         265 |       27173
            281 |           151938 |          9116280 |  3840000420 | 2912689361980 |         270 |       25747
            282 |           152022 |          9121308 |  3839997756 | 2916729732660 |         264 |       26352
            283 |           151335 |          9080104 |  3840003612 | 2927902872852 |         273 |       26383
            284 |           151492 |          9089540 |  3840001836 | 2954921395628 |         223 |       26660
            285 |           145276 |          8716540 |  3839995832 | 8361049009144 |         256 |       27018
            286 |           151623 |          9097360 |  3839998576 | 2972054147160 |         266 |       28131
            287 |           151747 |          9104828 |  3840005332 | 2938558529164 |         263 |       26786
            288 |           151600 |          9096024 |  3839998720 | 2937243182976 |         265 |       25072
            289 |           150322 |          9019336 |  3839994804 | 3694755244572 |         260 |       40038
            290 |           148578 |          8914668 |  3840004264 | 3814930947608 |         272 |       31162
            291 |           148783 |          8926972 |  3839997984 | 3761230113768 |         271 |       25978
            292 |           148768 |          8926076 |  3839996924 | 3773354922388 |         249 |       26445
            293 |           149707 |          8982408 |  3840004520 | 3919221451424 |         264 |       26889
            294 |           148693 |          8921560 |  3839999864 | 3993765734288 |         268 |       27996
            295 |           149226 |          8953556 |  3839998916 | 4144504955468 |         265 |       63473
            296 |           147967 |          8878028 |  3840004700 | 3966168783628 |         237 |       41023
            297 |           151467 |          9088016 |  3839991504 | 3915948465376 |         258 |       42709
            298 |           148325 |          8899472 |  3840004992 | 3804263448080 |         268 |       27300
            299 |           148383 |          8903008 |  3839996788 | 3804518567756 |         266 |       25712
            300 |           135959 |          8157568 |  3840000244 | 9760364831044 |         269 |       28182
            301 |           149624 |          8977460 |  3840005592 | 4035731223024 |         262 |       49824
            302 |           148046 |          8882788 |  3839993488 | 3800691694640 |         259 |       25749
            303 |           148429 |          8905768 |  3840005644 | 3841425735364 |         272 |       40098
            304 |           148830 |          8929780 |  3840000300 | 3740536271140 |         270 |       25772
            305 |           148542 |          8912496 |  3839991028 | 3824013226788 |         258 |       25481
            306 |           148517 |          8911048 |  3840005900 | 3726355261668 |         269 |       25912
            307 |           149402 |          8964140 |  3840002176 | 3827367232088 |         265 |       30523
            308 |           148061 |          8883688 |  3839996572 | 3914668990884 |         258 |       39687
            309 |           147998 |          8879884 |  3840001072 | 3890447921488 |         270 |       31977
            310 |           149868 |          8992096 |  3840000128 | 3264037862136 |         260 |       35480
            311 |           150123 |          9007364 |  3840000096 | 3070920516176 |         261 |       35258
            312 |           153256 |          9195376 |  3839997600 | 3183183118944 |         247 |       53422
            313 |           150578 |          9034700 |  3840001848 | 3061418658856 |         270 |       35912
            314 |           151080 |          9064784 |  3839999080 | 3158896307864 |         230 |       41452
            315 |           137950 |          8276996 |  3839998304 | 8753930053672 |         265 |       37230
            316 |           149793 |          8987600 |  3840004332 | 2921401320036 |         273 |       25532
            317 |           150729 |          9043732 |  3839998272 | 3685397190184 |         262 |       25010
            318 |           154040 |          9242396 |  3840001080 | 2940796723320 |         260 |       26403
            319 |           150856 |          9051368 |  3839998120 | 2894224406336 |         272 |       25065
            320 |           151385 |          9083120 |  3839999016 | 2843446602920 |         267 |       25791
            321 |           151782 |          9106928 |  3840006040 | 2896791120480 |         267 |       26531
            322 |           151723 |          9103364 |  3839996480 | 2931122773560 |         266 |       25637
            323 |           151945 |          9116684 |  3839997604 | 2895000205772 |         266 |       27187
            324 |           151850 |          9111000 |  3840002348 | 2913956258820 |         270 |       25667
            325 |           151963 |          9117780 |  3839766188 | 2911727985564 |         265 |       26079
            326 |           153186 |          9191188 |  3840236352 | 2946030260504 |         264 |       26163
            327 |           154097 |          9245844 |  3839998072 | 3003476374440 |         267 |       27510
            328 |           152054 |          9123264 |  3839998524 | 2989005561388 |         267 |       29396
            329 |           151349 |          9080932 |  3840004604 | 2948602238932 |         269 |       25377
            330 |           143180 |          8590824 |  3839991872 | 8645134778136 |         264 |       26316
            331 |           151307 |          9078424 |  3840003724 | 3023202097932 |         269 |       26385
            332 |           151152 |          9069128 |  3839994840 | 2901189215048 |         264 |       25321
            333 |           151406 |          9084388 |  3839999856 | 2960847814808 |         267 |       26662
            334 |           151278 |          9076660 |  3840003776 | 2924088455416 |         268 |       26136
            335 |           152099 |          9125968 |  3840003984 | 2986624639800 |         271 |       25806
            336 |           150836 |          9050160 |  3839993004 | 2942624099204 |         269 |       25434
            337 |           152485 |          9149104 |  3840003056 | 2959730688080 |         263 |       26202
            338 |           152624 |          9157440 |  3840003856 | 3004749221960 |         263 |       27050
            339 |           150934 |          9056044 |  3839995780 | 2955652300852 |         268 |       25769
            340 |           150564 |          9033868 |  3840005884 | 2971166953804 |         255 |       27948
            341 |           151653 |          9099180 |  3839997864 | 2936855649592 |         258 |       25642
            342 |           150904 |          9054212 |  3839997252 | 2976350442212 |         270 |       26723
            343 |           152168 |          9130104 |  3840000016 | 2951947201504 |         264 |       25959
            344 |           152922 |          9175312 |  3840000536 | 3004695426136 |         269 |       26212
            345 |           138958 |          8337464 |  3839995464 | 8308820819664 |         276 |       24998
            346 |           153461 |          9207664 |  3840006296 | 2977981886376 |         263 |       25878
            347 |           153051 |          9183068 |  3839999976 | 2899080456080 |         254 |       25083
            348 |           152391 |          9143468 |  3839998764 | 2932239050892 |         261 |       25024
            349 |           151829 |          9109736 |  3839998776 | 2873563522392 |         265 |       25459
            350 |           151082 |          9064924 |  3839999072 | 3377638334568 |         263 |       24857
            351 |           150907 |          9054412 |  3840004876 | 2897007104108 |         269 |       25032
            352 |           153456 |          9207360 |  3839994984 | 2898422291736 |         266 |       25472
            353 |           150256 |          9015380 |  3840001148 | 2881896902708 |         275 |       25863
            354 |           151997 |          9119804 |  3839998872 | 2892647774560 |         263 |       25140
            355 |           154471 |          9268276 |  3840006608 | 3004509552208 |         260 |       25474
            356 |           148963 |          8937800 |  3839995016 | 4032630644000 |         233 |       52101
            357 |           148559 |          8913552 |  3839999892 | 3996576996052 |         233 |       27992
            358 |           149225 |          8953496 |  3839999488 | 4104081952736 |         263 |       55471
            359 |           148339 |          8900348 |  3839998580 | 3832796169276 |         267 |       25821
(360 rows)

