 interval_start | avg_transactions | num_transactions | sum_latency |   sum_latency_2   | min_latency | max_latency 
----------------+------------------+------------------+-------------+-------------------+-------------+-------------
              0 |             3412 |           204744 |  3836466032 |   175400263579144 |        8996 |      593037
              1 |             3405 |           204292 |  3839789680 |   150955803996184 |        9085 |      645198
              2 |             3380 |           202812 |  3842008280 |   154177989015824 |        9253 |      600199
              3 |             3286 |           197188 |  3839039600 |   228655851525488 |       10867 |      705089
              4 |             3265 |           195904 |  3810390252 |   198997974790612 |       10904 |      628867
              5 |             3044 |           182660 |  3631297244 |   354346488933932 |           0 |     1105369
              6 |               40 |             2428 |  4056570084 | 11824003132660716 |           0 |     5151540
              7 |               27 |             1604 |  3776197976 | 14751989235675672 |           0 |     9111375
              8 |               38 |             2288 |  3868419176 | 11590169114678432 |           0 |     5573905
              9 |               30 |             1792 |  3622445020 | 14498892341931868 |           0 |     9651045
             10 |               47 |             2816 |  4094516952 |  9684293491235832 |           0 |     5522190
             11 |               43 |             2600 |  3821782576 |  9115081762087992 |           0 |     5571607
             12 |               26 |             1560 |  3706263760 | 15027171568624488 |           0 |     9039918
             13 |               41 |             2432 |  3902092480 | 10044382948805136 |           0 |     5132252
             14 |               43 |             2560 |  3926965920 | 12112383275851488 |           0 |     5075594
             15 |              240 |            14400 |  3853875392 |  1296064213039112 |       17356 |      867036
             16 |              462 |            27744 |  3847110856 |   769956245487960 |       16950 |      651596
             17 |              461 |            27648 |  3839376128 |   744028728414848 |       14060 |      441627
             18 |              467 |            28000 |  3841080804 |   744720233365780 |       16686 |      729845
             19 |              497 |            29824 |  3841529468 |   715049529225300 |       14343 |      691272
             20 |              546 |            32768 |  3840996960 |   659389779512512 |       11697 |      622646
             21 |              565 |            33924 |  3833400564 |   647214889152308 |       12792 |      636442
             22 |              589 |            35332 |  3840596084 |   623305919085036 |       11884 |      872392
             23 |              644 |            38652 |  3845275640 |   631389143281968 |       11553 |      759856
             24 |              673 |            40388 |  3838777804 |   582331034133268 |       11740 |      752938
             25 |              680 |            40828 |  3841790176 |   595664381269104 |       11423 |      901547
             26 |              706 |            42376 |  3835703464 |   621888488644296 |       11009 |      774766
             27 |              684 |            41028 |  3839493860 |   673536954010428 |       11267 |      747131
             28 |              994 |            59648 |  3844755160 |   418767646697304 |       11241 |      660310
             29 |             3192 |           191512 |  3835311000 |   204100282719864 |        8938 |      623775
             30 |              353 |            21184 |  3837092944 |   845043028471360 |       37474 |      883452
             31 |              351 |            21056 |  3841503660 |   890747367393900 |       19458 |      866348
             32 |              371 |            22268 |  3845581024 |   759740382566128 |       41967 |      777170
             33 |              369 |            22148 |  3833035172 |   758882852867668 |       31196 |      797920
             34 |              380 |            22780 |  3847382256 |   727505443924456 |       17807 |      385942
             35 |              379 |            22724 |  3836221220 |   725815232993692 |       34227 |      350792
             36 |              382 |            22908 |  3841023036 |   739321075033220 |       21624 |      762696
             37 |              565 |            33920 |  3840265376 |   640843907766440 |        9969 |      778112
             38 |              509 |            30536 |  3834439888 |   655966687344960 |       15516 |      782619
             39 |              498 |            29888 |  3842766176 |   771705999521808 |       13764 |      881156
             40 |              488 |            29308 |  3842616076 |   693418640846948 |       13612 |      754533
             41 |              466 |            27968 |  3837637404 |   816887437498596 |       14508 |      834294
             42 |              477 |            28604 |  3843794824 |   807810015745984 |       15854 |      859900
             43 |             1446 |            86788 |  3841840220 |   558228308389564 |       11235 |     1187381
             44 |              965 |            57920 |  3834192316 |  5867742285559980 |           0 |     6287534
             45 |              319 |            19140 |  3838745152 |  1204413490290576 |       13091 |     1191402
             46 |              349 |            20928 |  3835101820 |  1069790328874380 |       13137 |      888982
             47 |              381 |            22852 |  3849456424 |  1010120606696472 |       16962 |     1147630
             48 |              389 |            23360 |  3832322992 |   975004196392600 |       16552 |      911043
             49 |              429 |            25728 |  3842690212 |   823552622818452 |       14534 |      878993
             50 |              444 |            26620 |  3843776712 |   836139037294960 |       14307 |      841348
             51 |              491 |            29440 |  3840938820 |   737670139848108 |       13984 |     1015977
             52 |              715 |            42884 |  3836610984 |   642388131276392 |       11258 |      959443
             53 |              539 |            32320 |  3841137840 |   723977716311392 |       14436 |      774325
             54 |              501 |            30056 |  3842966808 |   825335296912072 |       12937 |      865202
             55 |              545 |            32704 |  3830393312 |   728955973507048 |       11624 |      795560
             56 |              572 |            34304 |  3843253668 |   719556796517284 |       10893 |      812452
             57 |              604 |            36224 |  3837328604 |   614123228468932 |       11050 |      756724
             58 |             1691 |           101440 |  3850412600 |   387922808303408 |       11044 |      752355
             59 |             2989 |           179348 |  3831352524 |   303637262708484 |        8935 |     1107196
             60 |              321 |            19248 |  3841295872 |  1104134729523248 |       20663 |     1401608
             61 |              322 |            19344 |  3845201892 |  1092410539919780 |       18479 |     1230448
             62 |              339 |            20356 |  3833735412 |  1004016647638836 |       29642 |     1269164
             63 |              350 |            20992 |  3837490496 |   946995953004104 |       23531 |      899649
             64 |              361 |            21632 |  3842773184 |   890186300618976 |       22086 |      821898
             65 |              330 |            19796 |  3845458000 |  1045857202823392 |       38869 |      968193
             66 |              356 |            21336 |  3840950768 |  1027082173033560 |           0 |     1493495
             67 |              485 |            29080 |  3835822948 |   813205637051940 |       10142 |     1100787
             68 |              451 |            27052 |  3844129600 |   824098977245464 |       15819 |     1184738
             69 |              515 |            30916 |  3835440832 |   640227023934624 |       12101 |      755707
             70 |              500 |            30016 |  3842090608 |   697197880877760 |       14105 |      755644
             71 |              516 |            30976 |  3836315728 |   654802094928224 |       15769 |      715013
             72 |              501 |            30080 |  3846264276 |   613629067127740 |       13107 |      713527
             73 |             1302 |            78140 |  3842457336 |   519599788892288 |       10771 |      934931
             74 |             2889 |           173312 |  3839266480 |   337069010503920 |        8913 |      751614
             75 |              286 |            17156 |  3823718416 |  1214413133813632 |       21669 |      934706
             76 |              288 |            17276 |  3855113596 |  1380268420091964 |       14653 |     1190183
             77 |              313 |            18752 |  3837856232 |  1214309639278208 |       17890 |     1146014
             78 |              344 |            20612 |  3831120700 |  1017947640782428 |       14900 |     1007907
             79 |              350 |            20992 |  3850276032 |  1064427277450888 |       17614 |     1024603
             80 |              403 |            24188 |  3839684556 |   841742752598076 |       14967 |      988696
             81 |              443 |            26560 |  3842740396 |   781574319622996 |       12741 |      961831
             82 |              553 |            33156 |  3836102204 |   573621622581980 |       11088 |      387112
             83 |              485 |            29120 |  3836683688 |   746391872437928 |       16068 |      899023
             84 |              500 |            30024 |  3844947848 |   683312874746728 |       12799 |      788005
             85 |              524 |            31424 |  3833933260 |   719596000561452 |       12629 |      754827
             86 |              516 |            30972 |  3846522616 |   729177795133736 |       11895 |      815961
             87 |              446 |            26756 |  3841938092 |  1085282844341388 |           0 |     1133800
             88 |             1531 |            91840 |  3839651952 |   459239985593072 |       10732 |      674027
             89 |             2787 |           167240 |  3834382484 |   349751918283388 |       10438 |      668537
             90 |              329 |            19716 |  3836003324 |  1319749727180220 |       17300 |     1130066
             91 |              331 |            19832 |  3846988656 |  1210862616502112 |       17417 |     1044473
             92 |              294 |            17664 |  3829951712 |  1500203522275624 |       19040 |     1302175
             93 |              316 |            18948 |  3847439640 |  1330007204270856 |       15355 |     1274955
             94 |              276 |            16584 |  3831919172 |  1638403558675628 |       15301 |     1590989
             95 |              321 |            19260 |  3849214836 |  1344387102689220 |       19568 |     1312722
             96 |              309 |            18564 |  3834464340 |  1408172514471692 |       17534 |     1287120
             97 |              311 |            18684 |  3848232848 |  1543098924752656 |       15768 |     1341086
             98 |              602 |            36104 |  3830088360 |   676987370021912 |       11097 |      762348
             99 |              477 |            28608 |  3847476064 |   806009523368552 |       11983 |     1318284
            100 |              491 |            29440 |  3837349268 |   815381751226708 |       14270 |     1096057
            101 |              461 |            27648 |  3840782156 |   913302672279956 |       11667 |      907194
            102 |              508 |            30456 |  3844121684 |   739157819410100 |       13472 |      892278
            103 |             1418 |            85056 |  3814215448 |   594513647111280 |        9610 |      866982
            104 |             2849 |           170952 |  3805607048 |   357503052609256 |           0 |      679732
            105 |              244 |            14656 |  3899908292 |  2077023229539308 |       16827 |     1420524
            106 |              289 |            17344 |  3828260364 |  1702296984110052 |           0 |     1553274
            107 |              285 |            17084 |  3832697844 |  1608349143147452 |       12032 |     1414342
            108 |              196 |            11784 |  3855294360 |  2211060195927464 |           0 |     1395896
            109 |              244 |            14656 |  3806634988 |  1942630708274636 |           0 |     1316091
            110 |              253 |            15160 |  3851434952 |  2044310735828864 |           0 |     1743901
            111 |              248 |            14856 |  3854216560 |  1915050317841632 |       18485 |     1619509
            112 |              297 |            17792 |  3851615284 |  1745312796223172 |           0 |     1454305
            113 |              630 |            37816 |  3838660748 |   705141010617100 |       12304 |      833077
            114 |              462 |            27712 |  3842101552 |   926638543277800 |       13913 |      875327
            115 |              487 |            29192 |  3819621200 |   858570916673368 |       11514 |      850910
            116 |              524 |            31416 |  3856643064 |   684165828848272 |       13058 |      789523
            117 |              534 |            32064 |  3839929076 |   693833958017500 |       12805 |      850692
            118 |             1775 |           106508 |  3844488860 |   455854406838364 |        8990 |      874635
            119 |             2796 |           167748 |  3834704060 |   359809978070020 |        9001 |      837411
            120 |              384 |            23036 |  3844867684 |   972615865775580 |       15189 |     1115858
            121 |              407 |            24448 |  3832322712 |   869212860946384 |       10783 |      941332
            122 |              379 |            22720 |  3847846040 |  1018860427937616 |       13923 |     1094114
            123 |              390 |            23424 |  3837579164 |   961400565723100 |       11291 |      914578
            124 |              395 |            23680 |  3840813112 |   983623586450704 |       12032 |     1014373
            125 |              324 |            19456 |  3840410616 |  1458447445749752 |           0 |     1594692
            126 |              385 |            23108 |  3835210500 |   995561065027756 |       12662 |     1053904
            127 |              406 |            24384 |  3843449744 |   964840991942512 |       14103 |     1185888
            128 |              619 |            37120 |  3836399024 |   744980506694464 |       11259 |     1324489
            129 |              545 |            32704 |  3840376012 |   668243597883492 |       12639 |      891383
            130 |              532 |            31932 |  3840865176 |   632439728085760 |       10918 |      783069
            131 |              534 |            32068 |  3841653692 |   665118710388716 |       12468 |      764303
            132 |              551 |            33084 |  3842815988 |   617672377534836 |       11536 |      771885
            133 |             1713 |           102788 |  3840719792 |   553201932455640 |       10640 |      909183
            134 |             2573 |           154368 |  3836093308 |   441271048533028 |       10177 |      637049
            135 |              388 |            23304 |  3841288808 |   808414476043576 |       10693 |      838559
            136 |              408 |            24508 |  3838713964 |   768254577738092 |       12887 |      879005
            137 |              383 |            22976 |  3842232492 |   872825355308788 |       16579 |      858018
            138 |              329 |            19716 |  3834284640 |  1094548100376792 |       13764 |      855522
            139 |              371 |            22272 |  3845354156 |  1037977984347900 |       13359 |      976434
            140 |              371 |            22272 |  3831572024 |   952514111543264 |       11832 |      991296
            141 |              395 |            23680 |  3842586956 |   923662360472588 |        9929 |      968513
            142 |              406 |            24388 |  3847808740 |  1014136649668404 |       15109 |     1335409
            143 |              615 |            36928 |  3840214384 |   642440873162312 |       11238 |      772827
            144 |              488 |            29252 |  3836146676 |   779867773286676 |       15910 |      980299
            145 |              506 |            30332 |  3839540320 |   694274614847072 |       11546 |      936318
            146 |              491 |            29440 |  3843227192 |   816120062828784 |       12041 |      842749
            147 |              447 |            26820 |  3801626756 |   920279108803020 |       11206 |      905696
            148 |             1695 |           101692 |  3879836152 |   516124009056504 |        9091 |      722107
            149 |             2641 |           158464 |  3839387392 |   374961009958208 |       10641 |      772012
            150 |              414 |            24836 |  3829985908 |   760417822299316 |       13311 |      924614
            151 |              416 |            24960 |  3844860032 |   800216091288464 |       11441 |      849751
            152 |              416 |            24964 |  3839678952 |   776987028404576 |       13057 |      873435
            153 |              349 |            20928 |  3833887824 |   989535253758928 |       25302 |      929660
            154 |              333 |            19968 |  3847618964 |  1151227509675628 |       12729 |     1418568
            155 |              358 |            21504 |  3840197276 |  1021673044613100 |       21055 |     1002181
            156 |              411 |            24640 |  3832746276 |   899765245310324 |       14584 |      902978
            157 |              470 |            28220 |  3850757152 |   686937308999672 |       16564 |      848137
            158 |              601 |            36032 |  3826383068 |   729614032979276 |       11071 |      993332
            159 |              514 |            30852 |  3845119404 |   717976819356940 |       12128 |      868645
            160 |              509 |            30524 |  3844622524 |   857652161549356 |       11484 |     1174242
            161 |              504 |            30212 |  3842869548 |   776844413635580 |       12145 |      783129
            162 |              502 |            30144 |  3840415768 |   828989123351640 |       12639 |      765541
            163 |             1621 |            97276 |  3836667064 |   548308656665344 |        9034 |      738133
            164 |             2930 |           175808 |  3842863188 |   347545354830780 |        8994 |      956017
            165 |              382 |            22920 |  3834545764 |   875160702436716 |       14467 |     1007153
            166 |              391 |            23480 |  3845202572 |   868473704913940 |       15970 |      936405
            167 |              377 |            22604 |  3840247836 |  1026351119461676 |       11220 |      906533
            168 |              391 |            23432 |  3832963032 |   857122346120160 |       23274 |      884771
            169 |              367 |            22020 |  3847091748 |   921706463181172 |       16503 |      979520
            170 |              347 |            20796 |  3839318680 |  1081456510867128 |       12847 |      911881
            171 |              382 |            22912 |  3839711176 |  1023309095681864 |       15513 |     1002275
            172 |              411 |            24640 |  3842253336 |   873699987242440 |       16014 |      934397
            173 |              575 |            34496 |  3837394596 |   688870396502652 |       11924 |      925888
            174 |              478 |            28680 |  3841310448 |   908934007073880 |       15174 |      912016
            175 |              434 |            26064 |  3833058448 |   959920422274888 |       12662 |      903315
            176 |              474 |            28416 |  3842398848 |   766125844268320 |       12831 |      839310
            177 |              537 |            32196 |  3846144228 |   569777442056404 |       10772 |      690884
            178 |             1662 |            99720 |  3840056068 |   432424444189364 |       10192 |      747497
            179 |             2788 |           167304 |  3836550992 |   366678770838696 |        8641 |      651683
            180 |              371 |            22272 |  3840995924 |  1093704037862140 |       12788 |      982666
            181 |              385 |            23104 |  3840304720 |   971012343635688 |       17014 |      875942
            182 |              383 |            22980 |  3830484276 |   987913784338268 |       14366 |     1128959
            183 |              363 |            21760 |  3846327148 |   994465515385204 |       17206 |     1214003
            184 |              336 |            20160 |  3840700152 |  1236747518369112 |       14903 |     1121409
            185 |              373 |            22396 |  3843307880 |   969451732718368 |       17318 |      998475
            186 |              362 |            21700 |  3829943800 |  1101357253754640 |       18924 |     1081542
            187 |              441 |            26432 |  3836709980 |   856908562096540 |       13910 |      944997
            188 |              593 |            35580 |  3850248472 |   655355650363296 |       10801 |      837100
            189 |              496 |            29764 |  3844233928 |   775355750782792 |       12144 |      808021
            190 |              523 |            31360 |  3834247492 |   692212297805828 |       11428 |      787622
            191 |              487 |            29248 |  3842490912 |   786694823598384 |       12564 |      812316
            192 |              515 |            30908 |  3840598236 |   766311661135268 |       11182 |      973898
            193 |             1453 |            87156 |  3807971252 |   665327147957244 |        8848 |      902042
            194 |             2583 |           155008 |  3873720752 |   486203305401048 |       10764 |      711431
            195 |              400 |            24020 |  3836716556 |   872806231674308 |       14189 |      912271
            196 |              405 |            24316 |  3812551136 |   940669939564304 |       14428 |      912731
            197 |              385 |            23108 |  3862257912 |  1159390289481288 |           0 |     1324449
            198 |              439 |            26364 |  3847097312 |   746367125686904 |       14140 |      901333
            199 |              415 |            24904 |  3838056332 |   841552256165396 |       17389 |     1108420
            200 |              348 |            20856 |  3840241444 |  1058862767581444 |           0 |     1193770
            201 |              337 |            20224 |  3841826564 |  1082913755669932 |       17238 |      987125
            202 |              394 |            23624 |  3836798052 |   884913508135932 |       15611 |     1017328
            203 |              450 |            27008 |  3843268268 |   878592554643484 |       13578 |      919999
            204 |              455 |            27320 |  3838968700 |   803110121500580 |       14297 |      907014
            205 |              441 |            26440 |  3832385108 |   831454559054980 |       12363 |      931138
            206 |              441 |            26488 |  3847912360 |   875277911216648 |       11188 |      960882
            207 |              433 |            25984 |  3842740396 |   959761734871836 |       13807 |      916240
            208 |             1160 |            69576 |  3835548552 |   762917605764552 |       10931 |      904360
            209 |             1675 |           100480 |  3837086856 |  1036314112680488 |           0 |     2071799
            210 |              363 |            21760 |  3842307332 |  1154746791415604 |       12886 |     1176747
            211 |              356 |            21380 |  3836864808 |  1131407746736304 |       16716 |      987537
            212 |              411 |            24644 |  3817152000 |   904496380039336 |       11718 |      824670
            213 |              396 |            23740 |  3852970492 |   958818958486556 |       16335 |     1357018
            214 |              381 |            22852 |  3853987892 |  1003626753235556 |       16716 |     1190204
            215 |              369 |            22144 |  3838182268 |  1162462512921196 |       14009 |     1129935
            216 |              372 |            22332 |  3843654456 |  1042610294115680 |       15018 |      957535
            217 |              371 |            22272 |  3839137800 |  1061933335343088 |       12348 |     1196779
            218 |              317 |            19008 |  3840711732 |  1484387424890660 |           0 |     1703904
            219 |              550 |            33028 |  3842061648 |   856467681162416 |       10373 |     1078732
            220 |              478 |            28672 |  3812146632 |   775688250247464 |       11410 |      842701
            221 |              401 |            24076 |  3859739192 |  1078454594137352 |       16355 |      869246
            222 |              433 |            25984 |  3845836488 |   923259657253904 |       16995 |      774811
            223 |              865 |            51904 |  3842997292 |   817250469990068 |       11118 |     1013013
            224 |             1785 |           107072 |  3834178620 |   690440732952644 |        9063 |      947843
            225 |              397 |            23808 |  3839833468 |   985114329634564 |       16267 |     1427420
            226 |              391 |            23480 |  3833427628 |  1083466112445636 |       16562 |     1433901
            227 |              319 |            19140 |  3847757956 |  1610462960197500 |       13747 |     1458505
            228 |              320 |            19200 |  3834621688 |  1544917021023760 |       13232 |     1827479
            229 |              350 |            20988 |  3847954556 |  1334195185560820 |       17506 |     1397978
            230 |              326 |            19588 |  3830886140 |  1451158696097964 |       17375 |     1247044
            231 |              306 |            18364 |  3820917020 |  1561210128190916 |           0 |     1566472
            232 |              292 |            17540 |  3864444872 |  1615295614035200 |           0 |     1427769
            233 |              313 |            18752 |  3842836136 |  1461091867548960 |           0 |     1297304
            234 |              483 |            28992 |  3840844576 |   932572962781992 |       12813 |      958602
            235 |              410 |            24576 |  3842054884 |  1036617229994556 |       13466 |      928090
            236 |              443 |            26556 |  3839988192 |   898486549711688 |       12709 |      809320
            237 |              459 |            27524 |  3834235444 |   826123711357820 |       13877 |      937028
            238 |              942 |            56512 |  3827309164 |   732660322265124 |       10451 |     1095874
            239 |             1730 |           103804 |  3856347256 |   728569841202296 |       10709 |     1271110
            240 |              396 |            23744 |  3838185340 |   951776900707948 |       15535 |      866730
            241 |              459 |            27520 |  3843412604 |   756731117596756 |       13217 |      822227
            242 |              364 |            21824 |  3840129696 |  1124944061813176 |       14288 |     1188438
            243 |              393 |            23560 |  3832237000 |  1037241729233632 |       12194 |      991767
            244 |              322 |            19324 |  3840200552 |  1517286855359776 |           0 |     1375010
            245 |              384 |            23048 |  3840219476 |  1131185629712580 |           0 |     1486839
            246 |              369 |            22140 |  3833392668 |  1181678228418796 |       12000 |     1283697
            247 |              341 |            20484 |  3852330012 |  1420863076340148 |       16827 |     1372745
            248 |              413 |            24764 |  3831381192 |   968097861317656 |       12193 |     1252766
            249 |              571 |            34244 |  3839393496 |   839959915833808 |       12198 |     1296170
            250 |              463 |            27776 |  3840495164 |   881188698253220 |       12441 |      862967
            251 |              479 |            28732 |  3849831876 |   766723244967860 |       12912 |      838029
            252 |              495 |            29704 |  3834286372 |   727784651861972 |       14479 |      899654
            253 |              912 |            54720 |  3840225868 |   771336490128548 |       11499 |     1247176
            254 |             1795 |           107708 |  3843559656 |   746285297099048 |           0 |     1486173
            255 |              391 |            23488 |  3839660692 |   893731285565244 |       16092 |      857554
            256 |              377 |            22592 |  3838892108 |  1016620973616988 |       17130 |      825317
            257 |              450 |            27008 |  3839321496 |   757353155376496 |       11493 |      807459
            258 |              363 |            21768 |  3837406176 |  1081000119505968 |       16878 |     1118974
            259 |              387 |            23236 |  3832614524 |   988103073918572 |       15753 |     1099320
            260 |              369 |            22144 |  3849604412 |  1063728710001388 |       12631 |      874687
            261 |              385 |            23104 |  3836104176 |  1021784429098664 |       17279 |      950093
            262 |              398 |            23876 |  3844343068 |   948321679294260 |       10971 |      842935
            263 |              415 |            24892 |  3844686104 |   869706477185968 |       17230 |     1163185
            264 |              508 |            30464 |  3826923240 |   895594229897944 |       12495 |     1078855
            265 |              454 |            27268 |  3831340168 |   825733461308832 |       12061 |      818665
            266 |              446 |            26752 |  3862326944 |   889718938223288 |       15492 |      852788
            267 |              461 |            27652 |  3839980984 |   829688120587408 |       13023 |     1011828
            268 |              819 |            49156 |  3833168760 |   876518128751128 |       11096 |      869461
            269 |             1724 |           103420 |  3845450084 |   632209167105692 |       10861 |      758622
            270 |              378 |            22660 |  3829410992 |   967652135267104 |       13194 |      899549
            271 |              400 |            24000 |  3844889828 |   906068182246252 |       15558 |     1000693
            272 |              407 |            24448 |  3789330544 |   857918318935184 |       14560 |      866335
            273 |              445 |            26688 |  3895529468 |   958944772152276 |       14989 |     1090489
            274 |              411 |            24640 |  3840111584 |   905993129285112 |       13999 |      886609
            275 |              394 |            23616 |  3836824576 |   929336744756704 |       14033 |     1166200
            276 |              396 |            23740 |  3844716400 |   915934850596008 |       17427 |      883806
            277 |              399 |            23940 |  3837119452 |   876283408070116 |       17206 |      839570
            278 |              427 |            25600 |  3840191484 |   782375808461372 |           0 |     1244691
            279 |              528 |            31684 |  3826042868 |   825085283468396 |       12299 |      796415
            280 |              455 |            27328 |  3846519072 |   820861651942784 |       13089 |      857510
            281 |              460 |            27584 |  3846659896 |   850703552958856 |       12604 |      806255
            282 |              421 |            25280 |  3838073216 |  1123369153185808 |           0 |     1102033
            283 |              990 |            59396 |  3834886480 |   683912736972984 |       11381 |      938748
            284 |             1756 |           105348 |  3807652324 |   704558369957676 |        9219 |     1438286
            285 |              386 |            23168 |  3879501252 |   957422778732636 |       18214 |      807943
            286 |              387 |            23232 |  3840444180 |   991712379072236 |       16651 |      916252
            287 |              373 |            22400 |  3825515524 |   951475637223940 |       13639 |      828532
            288 |              444 |            26624 |  3844478244 |   831288684848116 |        9239 |      843239
            289 |              445 |            26688 |  3847867744 |   811063308706696 |       13013 |      933217
            290 |              403 |            24188 |  3837711440 |   864264908537832 |       17925 |      931551
            291 |              425 |            25472 |  3844501260 |   850889294659116 |       14198 |      874635
            292 |              414 |            24832 |  3842663548 |   804755143262668 |       14311 |      906712
            293 |              403 |            24192 |  3836810672 |   890496969515768 |       14168 |      831225
            294 |              512 |            30720 |  3843535728 |   762656701145856 |       11236 |      860226
            295 |              451 |            27080 |  3836220456 |   820846433639328 |       17087 |      924669
            296 |              425 |            25528 |  3844109232 |   975153301351720 |       15333 |      983249
            297 |              444 |            26632 |  3836166344 |   912812337697272 |       11719 |      799915
            298 |              847 |            50840 |  3841142308 |   858507304649500 |       11515 |      824851
            299 |             1697 |           101824 |  3832208044 |   851767529627428 |       10909 |     1608357
            300 |              382 |            22892 |  3845758712 |  1023892119928992 |       16951 |      890262
            301 |              371 |            22232 |  3837545724 |  1037377119214244 |       17561 |      875186
            302 |              377 |            22632 |  3836726756 |  1087425583304932 |       17133 |     1033304
            303 |              398 |            23872 |  3845052192 |   911464499963336 |       14749 |      836786
            304 |              463 |            27776 |  3844368296 |   857668968751512 |       14899 |      991314
            305 |              408 |            24472 |  3831872848 |   915118852378024 |       15827 |     1066261
            306 |              396 |            23744 |  3845805412 |  1018080163955124 |       17416 |     1364226
            307 |              428 |            25664 |  3838429380 |   760345053385220 |       16980 |      802328
            308 |              415 |            24896 |  3844652900 |   846422898057268 |       15454 |      898518
            309 |              515 |            30892 |  3805468456 |   784853915073648 |       13394 |      956672
            310 |              428 |            25664 |  3865805540 |  1089461495831036 |       14389 |     1119200
            311 |              433 |            25980 |  3845277320 |  1004589215084096 |       12808 |     1116267
            312 |              461 |            27648 |  3841292520 |   749842928827888 |       13265 |      779244
            313 |              919 |            55112 |  3840302704 |   751305243573616 |       11353 |     1025145
            314 |             1783 |           107004 |  3837020336 |   688958539622320 |        8946 |      845731
            315 |              316 |            18940 |  3844666408 |  1391963809951664 |       11902 |     1091698
            316 |              334 |            20036 |  3807299608 |  1309084844971792 |       11933 |     1200169
            317 |              348 |            20864 |  3855546400 |  1288353172510080 |       12494 |     1536073
            318 |              325 |            19516 |  3855107676 |  1368538619428356 |       16409 |     1114142
            319 |              379 |            22720 |  3839792120 |  1110759891939624 |       14690 |     1071072
            320 |              430 |            25792 |  3839978148 |   989591947507092 |       14297 |     1253291
            321 |              371 |            22276 |  3833532000 |  1035555536383280 |       14211 |     1005287
            322 |              431 |            25856 |  3814108404 |   805940379552924 |       11697 |      851947
            323 |              411 |            24640 |  3868687632 |   958513254751176 |       13992 |     1107868
            324 |              643 |            38588 |  3842907296 |   604730216630272 |       11465 |      715058
            325 |              434 |            26052 |  3840792236 |   956934550738364 |           0 |     1166219
            326 |              462 |            27708 |  3837910116 |   869916580058276 |       14421 |      891979
            327 |              476 |            28544 |  3831974344 |   771451742644720 |       11371 |      890430
            328 |              990 |            59396 |  3852307452 |   695684090587900 |        9901 |      785591
            329 |             1903 |           114172 |  3836026736 |   634001417391824 |        8925 |      877968
            330 |              353 |            21188 |  3839043680 |  1111771519754416 |       14080 |      986310
            331 |              362 |            21696 |  3840127052 |  1184451061358436 |       12982 |     1109487
            332 |              390 |            23420 |  3843055860 |   985194005556356 |       16762 |      915957
            333 |              364 |            21832 |  3837206880 |  1167475039850136 |       12836 |     1446705
            334 |              365 |            21884 |  3842061260 |  1208186136926108 |       17252 |     1301452
            335 |              371 |            22272 |  3842094680 |  1274314911762760 |       13626 |     1493259
            336 |              437 |            26244 |  3835342532 |  1011022318211420 |       11318 |      941392
            337 |              430 |            25788 |  3845597224 |   903364729703624 |       12604 |     1030873
            338 |              426 |            25536 |  3838045724 |   928069333005580 |       14080 |     1260504
            339 |              499 |            29952 |  3835186480 |   935308071850944 |       10538 |     1062558
            340 |              476 |            28552 |  3837723936 |   859588993737504 |       12776 |     1199285
            341 |              455 |            27324 |  3847765816 |   840408073497784 |       10826 |      910084
            342 |              465 |            27904 |  3840192868 |   770528355778684 |       13707 |      946088
            343 |              953 |            57152 |  3836451248 |   816342911418640 |       11066 |     1245247
            344 |             1794 |           107656 |  3824093976 |   748254056655096 |       10894 |      829581
            345 |              375 |            22520 |  3813743248 |  1055422067623008 |       12366 |      922045
            346 |              401 |            24064 |  3885422876 |  1009198350691836 |       15256 |     1033947
            347 |              369 |            22152 |  3837725072 |  1039770189419904 |       17073 |      992517
            348 |              364 |            21816 |  3823875676 |  1184598896908836 |       15994 |     1027515
            349 |              383 |            22984 |  3844578704 |  1086345806216192 |           0 |     1331407
            350 |              392 |            23544 |  3854060804 |  1008211994956412 |       17107 |     1163080
            351 |              467 |            28040 |  3824154480 |   963364002121320 |       11459 |     1136321
            352 |              401 |            24064 |  3842152020 |  1115096137451972 |       14871 |     1340091
            353 |              428 |            25660 |  3852010088 |   865220544324768 |       15432 |      877938
            354 |              520 |            31228 |  3840212912 |  1115278608047400 |       11092 |     1204391
            355 |              499 |            29956 |  3834413836 |   812369403664804 |        9218 |     1496898
            356 |              449 |            26940 |  3828294920 |   885602054461376 |       14973 |      889902
            357 |              406 |            24384 |  3854966460 |  1133403519549444 |       14914 |     1207621
            358 |              824 |            49412 |  3844721308 |   908524979179692 |        8955 |     1007929
            359 |             1823 |           109376 |  3829745976 |   691746802591536 |        8985 |      806869
(360 rows)

