 interval_start | avg_transactions | num_transactions | sum_latency | sum_latency_2  | min_latency | max_latency 
----------------+------------------+------------------+-------------+----------------+-------------+-------------
              0 |           108945 |          6536672 |  3800937980 |  2650663420860 |         257 |       34304
              1 |           126555 |          7593324 |  3840000924 |  2897198600748 |         284 |       19159
              2 |           134378 |          8062672 |  3840001964 |  2585985759636 |         275 |       26184
              3 |           135194 |          8111640 |  3839999940 |  2588266701452 |         240 |       34873
              4 |           134823 |          8089404 |  3840004364 |  5512180885740 |         276 |       57419
              5 |           135401 |          8124084 |  3839995788 |  5349410865156 |         278 |       50117
              6 |           135694 |          8141636 |  3839997556 |  4662451955780 |         267 |       53573
              7 |           137034 |          8222016 |  3840004904 |  4772966899648 |         273 |       81097
              8 |           138468 |          8308096 |  3839994048 |  4162402731696 |         270 |       76575
              9 |           138364 |          8301836 |  3840005512 |  4169278608688 |         275 |      107580
             10 |           138298 |          8297888 |  3839998680 |  3870682233320 |         271 |       51714
             11 |           138465 |          8307900 |  3840001364 |  3854610462364 |         265 |       59683
             12 |           137265 |          8235892 |  3839999604 |  4113329697004 |         273 |       78563
             13 |           137330 |          8239784 |  3839997908 |  3669820003828 |         276 |       52123
             14 |           134813 |          8088768 |  3839984004 |  5721568668484 |         277 |      128136
             15 |            94986 |          5699160 |  3840016872 | 25695507621856 |         282 |       60642
             16 |           114264 |          6855820 |  3839999480 | 19029992673232 |         263 |       67974
             17 |           123417 |          7405028 |  3839995328 | 12789142486808 |         275 |       33731
             18 |           126375 |          7582516 |  3840003864 | 10622985425432 |         270 |       68234
             19 |           131235 |          7874120 |  3838480388 |  7052477260548 |         277 |       70245
             20 |           135095 |          8105696 |  3841518532 |  5113954575644 |         273 |       28083
             21 |           133196 |          7991736 |  3840000228 |  6116373009868 |         276 |       46107
             22 |           137314 |          8238820 |  3840003732 |  4530646150132 |         274 |       86382
             23 |           137013 |          8220756 |  3839999388 |  4871524223988 |         265 |       93904
             24 |           135469 |          8128144 |  3839997664 |  4777460092008 |         272 |       49928
             25 |           141028 |          8461656 |  3840000296 |  3992184718336 |         275 |       85318
             26 |           137153 |          8229180 |  3839999144 |  3768861131056 |         263 |       49000
             27 |           136223 |          8173404 |  3840002096 |  4702689651176 |         268 |       71394
             28 |           137922 |          8275292 |  3839994140 |  2880077256660 |         277 |       34686
             29 |           138728 |          8323684 |  3840000532 |  2188488346868 |         267 |       34689
             30 |           117882 |          7072940 |  3840004280 |  2779677122416 |         282 |       54149
             31 |           135187 |          8111224 |  3840005800 |  2140060229792 |         272 |       45404
             32 |           133610 |          8016576 |  3839997044 |  2663824490596 |         284 |       60902
             33 |           139194 |          8351612 |  3839995612 |  2048330791420 |         273 |       39292
             34 |           138516 |          8310952 |  3840008252 |  2747558036972 |         273 |      142713
             35 |           135731 |          8143852 |  3839988768 |  2710171978632 |         252 |       58150
             36 |           134959 |          8097568 |  3840001496 |  2956479127784 |         275 |       65138
             37 |           136442 |          8186504 |  3840001324 |  2691150590108 |         280 |       36194
             38 |           139654 |          8379264 |  3839994816 |  2339339374280 |         282 |       50561
             39 |           136460 |          8187596 |  3839996016 |  2713703703144 |         271 |       58354
             40 |           140197 |          8411804 |  3840007340 |  2082286522820 |         282 |       21927
             41 |           146101 |          8766032 |  3840004436 |  2232387636140 |         274 |       22884
             42 |           139209 |          8352512 |  3839999524 |  2264815847940 |         281 |       32441
             43 |           137815 |          8268884 |  3840002384 |  2497232039624 |         283 |       48887
             44 |           136996 |          8219748 |  3839985868 |  2637609796556 |         275 |       69942
             45 |           116279 |          6976768 |  3840005620 |  2975240761124 |         289 |       68767
             46 |           132321 |          7939288 |  3840004788 |  2497770892484 |         288 |       76004
             47 |           131983 |          7919008 |  3840003068 |  2523434192836 |         284 |       23137
             48 |           134930 |          8095816 |  3839997852 |  2722133447404 |         265 |       84445
             49 |           136793 |          8207584 |  3840007184 |  2383933939984 |         284 |       58235
             50 |           137203 |          8232152 |  3839993144 |  2148298145040 |         278 |       15369
             51 |           136430 |          8185772 |  3839996308 |  2877825518988 |         274 |       98093
             52 |           139084 |          8345020 |  3840002616 |  2579101728336 |         277 |       87456
             53 |           137362 |          8241724 |  3839998792 |  2541917115272 |         282 |       67592
             54 |           136763 |          8205772 |  3839999596 |  2454524632796 |         279 |       56918
             55 |           138933 |          8335956 |  3840001908 |  2843169372268 |         277 |       54232
             56 |           136822 |          8209348 |  3840001240 |  3021728921960 |         279 |      102257
             57 |           134340 |          8060396 |  3840001464 |  5035454338744 |         284 |       83786
             58 |           137230 |          8233812 |  3839997536 |  3493518732200 |         272 |       69182
             59 |           137489 |          8249340 |  3839983148 |  2572269538348 |         281 |       90082
             60 |           115135 |          6908088 |  3840022808 |  3474870654464 |         282 |       87880
             61 |           129780 |          7786824 |  3839999000 |  2629504170552 |         289 |       59544
             62 |           131269 |          7876132 |  3839997748 |  2524734317932 |         281 |       29664
             63 |           133008 |          7980488 |  3839993720 |  2852854148416 |         242 |       77350
             64 |           136459 |          8187564 |  3840004100 |  2519548311924 |         280 |       71736
             65 |           135963 |          8157764 |  3839999156 |  2636708234388 |         277 |       59988
             66 |           136283 |          8176952 |  3839996548 |  2341872990020 |         264 |       56067
             67 |           136638 |          8198288 |  3840005728 |  2688965437056 |         278 |       86927
             68 |           137012 |          8220716 |  3840002468 |  2917903656732 |         253 |       99475
             69 |           138660 |          8319608 |  3839998708 |  2507828229980 |         273 |       70333
             70 |           137204 |          8232264 |  3839998760 |  2297479602672 |         271 |       37011
             71 |           137019 |          8221124 |  3839998216 |  2778646882120 |         283 |       68806
             72 |           136644 |          8198640 |  3839999932 |  2125930342932 |         279 |       13040
             73 |           135451 |          8127040 |  3840000764 |  2139343898916 |         276 |       17797
             74 |           135533 |          8131952 |  3839984096 |  2834345988736 |         277 |      103730
             75 |           111701 |          6702088 |  3840021440 |  3022336635552 |         293 |       56568
             76 |           124466 |          7467936 |  3839992492 |  3110074764964 |         287 |       56660
             77 |           131635 |          7898100 |  3839996380 |  2305432565324 |         289 |       49533
             78 |           130689 |          7841324 |  3840000484 |  2617431439428 |         289 |       58060
             79 |           134123 |          8047352 |  3840009296 |  2315465677744 |         281 |       46616
             80 |           134695 |          8081672 |  3839996996 |  2645534255676 |         280 |       78644
             81 |           135609 |          8136560 |  3839998316 |  3049178249548 |         282 |       82090
             82 |           135734 |          8144040 |  3840004568 |  2628491383120 |         277 |       84862
             83 |           135496 |          8129732 |  3839995160 |  2641287326784 |         274 |       82682
             84 |           136271 |          8176280 |  3840000708 |  2788864003100 |         274 |       94677
             85 |           134184 |          8051016 |  3839998724 |  3681304459932 |         274 |       94237
             86 |           135015 |          8100896 |  3839999140 |  4054746914788 |         282 |       67173
             87 |           135094 |          8105652 |  3840001608 |  4337479795184 |         275 |       59492
             88 |           136739 |          8204352 |  3839988608 |  2860479680128 |         283 |       28699
             89 |           135358 |          8121464 |  3840020928 |  2761119584608 |         278 |       64312
             90 |           115415 |          6924872 |  3839989484 |  3912951651452 |         288 |      115037
             91 |           126671 |          7600260 |  3840002524 |  2395490396500 |         286 |       13181
             92 |           133853 |          8031156 |  3839919452 |  2755829227572 |         279 |      102073
             93 |           133716 |          8022956 |  3840078440 |  2537881059608 |         283 |       55211
             94 |           133478 |          8008664 |  3839999928 |  2766616465448 |         272 |       74064
             95 |           134852 |          8091144 |  3839999192 |  2406490280784 |         283 |       29381
             96 |           136818 |          8209072 |  3839994928 |  2177731864200 |         278 |       25127
             97 |           134865 |          8091892 |  3839999012 |  2302967188836 |         281 |       52771
             98 |           138484 |          8309052 |  3840007052 |  2042009796844 |         285 |       25359
             99 |           136168 |          8170108 |  3839999728 |  2918429310936 |         283 |       98664
            100 |           136176 |          8170540 |  3839998148 |  2305207445684 |         274 |       27703
            101 |           135335 |          8120120 |  3840002592 |  2291644977616 |         278 |       34545
            102 |           134222 |          8053336 |  3840001044 |  2519482632956 |         278 |       43928
            103 |           133930 |          8035776 |  3839997024 |  2628014270080 |         279 |       49005
            104 |           135805 |          8148308 |  3839981748 |  2626895929580 |         276 |       49305
            105 |           117546 |          7052764 |  3840007992 |  2778322639720 |         273 |       47080
            106 |           126956 |          7617364 |  3840009704 |  2736692071512 |         264 |       43553
            107 |           131000 |          7860008 |  3839980836 |  2459128365332 |         270 |       50813
            108 |           133934 |          8036060 |  3840019100 |  2505551803292 |         275 |       50054
            109 |           130862 |          7851736 |  3840003692 |  3111486221772 |         289 |       71651
            110 |           136132 |          8167944 |  3839993244 |  2720761364796 |         281 |       69808
            111 |           134083 |          8045000 |  3840003532 |  2794348690180 |         287 |       63680
            112 |           133713 |          8022804 |  3839998308 |  2480670473596 |         288 |       45344
            113 |           133987 |          8039228 |  3840002072 |  3052609051336 |         279 |       67677
            114 |           135203 |          8112152 |  3840000420 |  2606066339916 |         279 |       63161
            115 |           137621 |          8257284 |  3839998780 |  2354203461884 |         284 |       51534
            116 |           135088 |          8105256 |  3840001412 |  2428376454564 |         279 |       39162
            117 |           132214 |          7932836 |  3840000192 |  4523490885440 |         269 |       46485
            118 |           132904 |          7974216 |  3839998672 |  3982537633712 |         261 |       49701
            119 |           135041 |          8102432 |  3839990156 |  2255444884172 |         281 |       47877
            120 |           116802 |          7008104 |  3840013304 |  2510855044976 |         303 |      108101
            121 |           126768 |          7606100 |  3839996640 |  2533655697184 |         284 |       48410
            122 |           131099 |          7865964 |  3840001436 |  2600442593644 |         277 |       66073
            123 |           132595 |          7955716 |  3840001468 |  2796921928252 |         291 |       68996
            124 |           133411 |          8004672 |  3839997160 |  2516972083576 |         286 |       70637
            125 |           136485 |          8189088 |  3840001244 |  2242713467740 |         284 |       45346
            126 |           134190 |          8051408 |  3840002308 |  2890638895012 |         280 |       67597
            127 |           134964 |          8097868 |  3839993868 |  2391119671884 |         282 |       73705
            128 |           133553 |          8013172 |  3840006636 |  2793852911476 |         284 |       51863
            129 |           136363 |          8181808 |  3840000228 |  2297687852036 |         275 |       48045
            130 |           136223 |          8173388 |  3839996332 |  2196200168828 |         282 |       37675
            131 |           137474 |          8248460 |  3840001868 |  3446083963124 |         284 |      106758
            132 |           135144 |          8108632 |  3839997236 |  4071637698044 |         279 |      104218
            133 |           137424 |          8245416 |  3840003844 |  2725971221644 |         269 |       56993
            134 |           135682 |          8140924 |  3839950716 |  2246567866732 |         285 |       66944
            135 |           116997 |          7019820 |  3840035540 |  2584127228484 |         275 |       42070
            136 |           128832 |          7729948 |  3840014048 |  2584824502752 |         262 |       51147
            137 |           131863 |          7911792 |  3840000940 |  2509118975508 |         278 |      126659
            138 |           133929 |          8035752 |  3839990892 |  2746694167996 |         278 |       45999
            139 |           135894 |          8153652 |  3838658364 |  2922124286332 |         285 |       84206
            140 |           137015 |          8220884 |  3841347284 |  2706393461980 |         286 |       64522
            141 |           135974 |          8158420 |  3839997316 |  2185541917868 |         288 |       49919
            142 |           136664 |          8199868 |  3840004972 |  2185406204908 |         283 |       58769
            143 |           136928 |          8215704 |  3840002368 |  2277089456120 |         286 |       49191
            144 |           138874 |          8332452 |  3839980696 |  2399192452960 |         287 |       61610
            145 |           137589 |          8255312 |  3840018756 |  2606359406388 |         284 |       67616
            146 |           137331 |          8239888 |  3839998100 |  2883371927324 |         280 |       68436
            147 |           137653 |          8259204 |  3840005052 |  2302820296740 |         277 |      122600
            148 |           138441 |          8306472 |  3839995988 |  3504952433892 |         286 |       74611
            149 |           136471 |          8188232 |  3840004736 |  2560119659352 |         282 |       62373
            150 |           115022 |          6901304 |  3839991340 |  2966105788076 |         294 |       60998
            151 |           128423 |          7705376 |  3839999364 |  2748451957460 |         291 |       57215
            152 |           135995 |          8159704 |  3840000876 |  2190353382948 |         274 |       56469
            153 |           133600 |          8016008 |  3840000176 |  2742047831672 |         281 |       72318
            154 |           134212 |          8052716 |  3840000692 |  2885109472596 |         277 |       62106
            155 |           136387 |          8183244 |  3839999008 |  2696238121880 |         284 |       76556
            156 |           138015 |          8280896 |  3840003744 |  2176075121344 |         282 |       72439
            157 |           136684 |          8201052 |  3840000052 |  2389563898900 |         265 |       71816
            158 |           136556 |          8193376 |  3839996908 |  2421788031764 |         282 |       42704
            159 |           136312 |          8178732 |  3840003672 |  2399978272656 |         272 |      196257
            160 |           135481 |          8128872 |  3839999616 |  2882534604512 |         286 |       80059
            161 |           137589 |          8255328 |  3839999324 |  2636621126460 |         281 |       64402
            162 |           136640 |          8198376 |  3839987688 |  2325186497960 |         278 |       42948
            163 |           136571 |          8194240 |  3840011276 |  2241513833444 |         276 |       38586
            164 |           136342 |          8180540 |  3839993224 |  2190593531200 |         283 |       21285
            165 |           114729 |          6883724 |  3840002636 |  2898708479636 |         290 |       40585
            166 |           129534 |          7772032 |  3840005848 |  2862579216128 |         283 |       83467
            167 |           130278 |          7816696 |  3839996076 |  2573107307020 |         289 |       50694
            168 |           133036 |          7982140 |  3839999272 |  2846467518680 |         287 |       65226
            169 |           133128 |          7987672 |  3840002556 |  2411735796452 |         288 |       32797
            170 |           137872 |          8272324 |  3840003476 |  2065968518908 |         278 |       32244
            171 |           135658 |          8139452 |  3839993480 |  3153272802096 |         284 |       98349
            172 |           135263 |          8115764 |  3839998448 |  2451386245232 |         272 |       76291
            173 |           135172 |          8110312 |  3840000516 |  2149322951900 |         281 |       22333
            174 |           135695 |          8141720 |  3839996032 |  2304284038648 |         281 |       36580
            175 |           135468 |          8128100 |  3840007544 |  2686839780504 |         289 |       71854
            176 |           134031 |          8041876 |  3839995828 |  2625513365612 |         278 |       58695
            177 |           135668 |          8140100 |  3840003564 |  2842858109276 |         280 |       55584
            178 |           136519 |          8191144 |  3840001736 |  3495633650928 |         279 |       74848
            179 |           134491 |          8069484 |  3839993716 |  2686386513764 |         272 |       54400
            180 |           112835 |          6770084 |  3839997900 |  3567510424764 |         303 |       54948
            181 |           124864 |          7491844 |  3840006600 |  3293219324048 |         298 |       61803
            182 |           129175 |          7750488 |  3839989444 |  2917187949140 |         294 |       60717
            183 |           133964 |          8037856 |  3840009408 |  2148257149328 |         270 |       15440
            184 |           132080 |          7924804 |  3840005096 |  2712303691720 |         279 |       49836
            185 |           132705 |          7962296 |  3839986260 |  2812770860084 |         279 |       50395
            186 |           133762 |          8025704 |  3840011056 |  2284835693000 |         293 |       37126
            187 |           134629 |          8077760 |  3839976320 |  2558635229936 |         289 |       40765
            188 |           136319 |          8179168 |  3840021096 |  2443007096616 |         276 |       46972
            189 |           133730 |          8023816 |  3839999292 |  2457362946228 |         285 |       45598
            190 |           133972 |          8038308 |  3840002528 |  2582760043952 |         287 |       51057
            191 |           133447 |          8006820 |  3839996508 |  2379996104780 |         289 |       35309
            192 |           136497 |          8189792 |  3840000016 |  2683017879008 |         284 |       55581
            193 |           134626 |          8077572 |  3840003748 |  3512390430396 |         286 |       54887
            194 |           134511 |          8070660 |  3840006268 |  2613017897380 |         288 |       49644
            195 |           113081 |          6784864 |  3839989800 |  3305614533680 |         292 |       53667
            196 |           124960 |          7497620 |  3839999632 |  2651299662000 |         295 |       40153
            197 |           131293 |          7877552 |  3839992820 |  2446072983356 |         279 |       53457
            198 |           133212 |          7992704 |  3840012200 |  2549436671416 |         280 |       51519
            199 |           133246 |          7994776 |  3839996272 |  2638591291720 |         273 |       41976
            200 |           133883 |          8032988 |  3840000092 |  2256654543268 |         287 |       16501
            201 |           135475 |          8128492 |  3840000236 |  2306438715548 |         287 |       49652
            202 |           134049 |          8042964 |  3840001908 |  2496735331724 |         284 |       44437
            203 |           138737 |          8324216 |  3839998768 |  2216194736120 |         269 |       61170
            204 |           134363 |          8061764 |  3839996848 |  2518571454192 |         280 |       44305
            205 |           141926 |          8515580 |  3840001612 |  2099535860308 |         277 |       55460
            206 |           136094 |          8165644 |  3840001400 |  2873205812672 |         283 |      100811
            207 |           134565 |          8073920 |  3839999832 |  2507116821152 |         288 |       45931
            208 |           135422 |          8125304 |  3840000916 |  2116170084980 |         285 |       22433
            209 |           135441 |          8126464 |  3840003064 |  2194108728384 |         250 |       33561
            210 |           116671 |          7000276 |  3839991424 |  2541627374968 |         280 |       56595
            211 |           127024 |          7621464 |  3840003324 |  2901615190268 |         286 |       89383
            212 |           130443 |          7826556 |  3840003412 |  2483026385620 |         288 |       56227
            213 |           132268 |          7936072 |  3840002304 |  2880804207104 |         287 |       90685
            214 |           136822 |          8209292 |  3840000456 |  2806792863608 |         284 |      101432
            215 |           134640 |          8078392 |  3839996328 |  3146830472696 |         282 |       90294
            216 |           135104 |          8106216 |  3840004196 |  2568686159628 |         289 |       44299
            217 |           136314 |          8178868 |  3839992660 |  2230011208300 |         280 |       37163
            218 |           134913 |          8094808 |  3840004844 |  2529651227636 |         272 |       23952
            219 |           135090 |          8105400 |  3839998592 |  2306118578464 |         278 |       16127
            220 |           136559 |          8193524 |  3840000556 |  2233666756252 |         291 |       15968
            221 |           136691 |          8201484 |  3840002200 |  2298885893776 |         282 |       15742
            222 |           136135 |          8168116 |  3839992848 |  2280330361952 |         290 |       20991
            223 |           137971 |          8278244 |  3840007444 |  2791143290692 |         287 |       34458
            224 |           135647 |          8138848 |  3839988284 |  2465936923044 |         272 |       15342
            225 |           114123 |          6847368 |  3839999256 |  2746929312496 |         284 |       18055
            226 |           127188 |          7631260 |  3840012900 |  2519369817932 |         293 |       31202
            227 |           135200 |          8111980 |  3839994920 |  2004841189568 |         282 |       13718
            228 |           132649 |          7958928 |  3839997660 |  2316517544884 |         290 |       24966
            229 |           136978 |          8218676 |  3840004908 |  2115152421180 |         281 |       18134
            230 |           135110 |          8106628 |  3840000440 |  2762335954000 |         281 |       94509
            231 |           135408 |          8124456 |  3839980124 |  2805496372340 |         281 |       87814
            232 |           137768 |          8266096 |  3840019108 |  2513377900700 |         287 |       85899
            233 |           136118 |          8167076 |  3840003248 |  2208234112616 |         278 |       41692
            234 |           134272 |          8056292 |  3839995548 |  2410431099588 |         278 |       32468
            235 |           135186 |          8111152 |  3840001776 |  2351606202056 |         280 |       51571
            236 |           138128 |          8287680 |  3840000100 |  2147904397996 |         288 |       33553
            237 |           135328 |          8119668 |  3839997316 |  2599690069204 |         278 |       62430
            238 |           135823 |          8149360 |  3840003740 |  2378493085916 |         278 |       52507
            239 |           134862 |          8091744 |  3839988832 |  2382474129040 |         277 |       35703
            240 |           116827 |          7009640 |  3840000588 |  3051780563548 |         296 |      100598
            241 |           126652 |          7599096 |  3840009584 |  2549881225640 |         298 |       42149
            242 |           131884 |          7913012 |  3839994968 |  2842552593608 |         285 |       78468
            243 |           131492 |          7889520 |  3840003860 |  3172199436980 |         285 |       95149
            244 |           136534 |          8192012 |  3839996736 |  2217420532440 |         285 |       39617
            245 |           135834 |          8150036 |  3840001972 |  2154188589812 |         286 |       14571
            246 |           134593 |          8075564 |  3840001264 |  2605494807440 |         285 |       68257
            247 |           134671 |          8080280 |  3840000936 |  2575205503600 |         274 |       73654
            248 |           135616 |          8136960 |  3839996476 |  2366134101468 |         279 |       45463
            249 |           137657 |          8259448 |  3840003516 |  2112236641212 |         285 |       27225
            250 |           135256 |          8115380 |  3839999200 |  2200998911648 |         282 |       15865
            251 |           134617 |          8077040 |  3839997464 |  2543371870288 |         286 |       40428
            252 |           135324 |          8119432 |  3840006468 |  2523977608676 |         274 |       52504
            253 |           134544 |          8072620 |  3839997548 |  2194265216436 |         286 |       19832
            254 |           135541 |          8132464 |  3839998500 |  2366099765308 |         283 |       44352
            255 |           117208 |          7032504 |  3839993112 |  2689737289648 |         293 |       57795
            256 |           126088 |          7565304 |  3840004136 |  2579517576480 |         284 |       16752
            257 |           129048 |          7742896 |  3840002748 |  2514050835660 |         290 |       29373
            258 |           130958 |          7857504 |  3839997144 |  3006304817448 |         273 |       55027
            259 |           134958 |          8097504 |  3840001640 |  2575890233048 |         286 |       56703
            260 |           132076 |          7924544 |  3840001336 |  2612535207568 |         293 |       48921
            261 |           132298 |          7937852 |  3839998396 |  2609776185556 |         282 |       38299
            262 |           132997 |          7979832 |  3839998604 |  3166706887620 |         291 |       98523
            263 |           134181 |          8050872 |  3839999928 |  2414097990032 |         279 |       30200
            264 |           136449 |          8186964 |  3840003168 |  2344325786880 |         287 |       45442
            265 |           134346 |          8060772 |  3840003528 |  2693437173216 |         285 |       55350
            266 |           133836 |          8030164 |  3839999016 |  2826555977496 |         284 |       54581
            267 |           133999 |          8039924 |  3839996476 |  2430683051340 |         285 |       27952
            268 |           134359 |          8061548 |  3840004936 |  2509200802704 |         279 |       52442
            269 |           136917 |          8215000 |  3839989988 |  2110785488164 |         280 |       25753
            270 |           113200 |          6792028 |  3840011484 |  3116248396980 |         269 |       55689
            271 |           125860 |          7551584 |  3839995184 |  3083568489088 |         290 |       69543
            272 |           129317 |          7759004 |  3839999432 |  2845896192784 |         290 |       50329
            273 |           134259 |          8055540 |  3839993080 |  2691617509104 |         286 |       63321
            274 |           135048 |          8102876 |  3840008664 |  2475957916208 |         279 |       65282
            275 |           133764 |          8025860 |  3839999272 |  2565650271608 |         283 |       42581
            276 |           134446 |          8066740 |  3839995876 |  2589375941740 |         288 |       63346
            277 |           133772 |          8026312 |  3839999108 |  2390262614012 |         281 |       18259
            278 |           137987 |          8279220 |  3840004660 |  2195848676276 |         283 |       46996
            279 |           133919 |          8035136 |  3840001200 |  2529244671760 |         276 |       34684
            280 |           135762 |          8145732 |  3839998492 |  2893773395796 |         283 |       80651
            281 |           135256 |          8115352 |  3839996588 |  3325288239844 |         288 |       98307
            282 |           135321 |          8119256 |  3840003564 |  3323908912036 |         258 |       98071
            283 |           136872 |          8212324 |  3839997536 |  2123413904376 |         282 |       32362
            284 |           135344 |          8120648 |  3839975468 |  2526837690468 |         282 |       35106
            285 |           116872 |          7012300 |  3840021872 |  2503793267272 |         290 |       22429
            286 |           127805 |          7668308 |  3840001392 |  2500857329920 |         296 |       15899
            287 |           131422 |          7885296 |  3840004172 |  2397137708276 |         286 |       13883
            288 |           135823 |          8149400 |  3840002644 |  2104011360124 |         282 |       16318
            289 |           135304 |          8118232 |  3839995212 |  2153849997892 |         279 |       16041
            290 |           135399 |          8123968 |  3840000516 |  2261203917860 |         267 |       14173
            291 |           134618 |          8077076 |  3839999776 |  2599340456576 |         282 |       55925
            292 |           134532 |          8071936 |  3839998972 |  2592396029996 |         275 |       79306
            293 |           138416 |          8304968 |  3839999208 |  2623517921624 |         284 |       96945
            294 |           135017 |          8100992 |  3840001124 |  2471265932284 |         285 |       65630
            295 |           134912 |          8094736 |  3840001728 |  2468581647336 |         292 |       50414
            296 |           135320 |          8119176 |  3840001064 |  2257278826944 |         281 |       29403
            297 |           138160 |          8289592 |  3840004908 |  2080661727276 |         285 |       39748
            298 |           135828 |          8149700 |  3839994612 |  2207797439892 |         279 |       39336
            299 |           134617 |          8077016 |  3839990356 |  2422367742444 |         286 |       53977
            300 |           115617 |          6937040 |  3839986072 |  2862527526488 |         298 |       47472
            301 |           129452 |          7767112 |  3840020988 |  2213363700260 |         287 |       13098
            302 |           130026 |          7801568 |  3839996956 |  3114747147324 |         273 |       79248
            303 |           132741 |          7964464 |  3840004420 |  2816298646564 |         270 |       96394
            304 |           133307 |          7998428 |  3840000872 |  2452543778888 |         288 |       57250
            305 |           136961 |          8217684 |  3840003304 |  2184425000024 |         284 |       37039
            306 |           135126 |          8107588 |  3839994816 |  2662148260984 |         276 |       79129
            307 |           134020 |          8041184 |  3839997936 |  2662443706232 |         278 |       53453
            308 |           135689 |          8141336 |  3839999436 |  2518927189172 |         274 |       69579
            309 |           135808 |          8148484 |  3839992556 |  2531290622084 |         278 |       80117
            310 |           137112 |          8226724 |  3840012748 |  2597710887804 |         283 |       88512
            311 |           136950 |          8217020 |  3839995536 |  2273613744952 |         278 |       31091
            312 |           135090 |          8105388 |  3839978544 |  2338272433760 |         286 |       27004
            313 |           135559 |          8133540 |  3840024844 |  2487769761844 |         290 |       47852
            314 |           137606 |          8256380 |  3840004888 |  2275773971840 |         281 |       55399
            315 |           115377 |          6922604 |  3839989376 |  2562207880496 |         296 |       27547
            316 |           126590 |          7595392 |  3840006092 |  3002844565700 |         294 |       53346
            317 |           130633 |          7837984 |  3839994552 |  2850503712056 |         286 |       53188
            318 |           134988 |          8099264 |  3840004536 |  2599828704784 |         293 |       82942
            319 |           133674 |          8020468 |  3839999620 |  2772360361652 |         281 |       65038
            320 |           134457 |          8067392 |  3840001416 |  2444604619776 |         287 |       42763
            321 |           134209 |          8052544 |  3840002520 |  2580271912680 |         259 |       70366
            322 |           138027 |          8281636 |  3839996936 |  2080088636064 |         291 |       36656
            323 |           135278 |          8116692 |  3840002116 |  2818485322268 |         285 |       89550
            324 |           134729 |          8083756 |  3839992784 |  2849428467200 |         289 |       88964
            325 |           135840 |          8150380 |  3840006316 |  2578696986220 |         279 |       78785
            326 |           137917 |          8275028 |  3839989516 |  2052758422652 |         281 |       16302
            327 |           135367 |          8122048 |  3840009824 |  2303529574776 |         285 |       41942
            328 |           133658 |          8019464 |  3839993564 |  2459145579340 |         286 |       47627
            329 |           134432 |          8065920 |  3839994368 |  2430427258216 |         285 |       40349
            330 |           113960 |          6837612 |  3840000972 |  2768128303588 |         282 |       42084
            331 |           128160 |          7689624 |  3840003164 |  2729264952036 |         296 |       50616
            332 |           128784 |          7727052 |  3840004000 |  3181693284160 |         293 |       67566
            333 |           131288 |          7877276 |  3840007288 |  2736264475416 |         284 |       50464
            334 |           131703 |          7902192 |  3839998732 |  2522047764652 |         294 |       41257
            335 |           136037 |          8162224 |  3839995988 |  2351949056628 |         284 |       56459
            336 |           133501 |          8010072 |  3839996180 |  2435646151516 |         286 |       38590
            337 |           133205 |          7992292 |  3840005300 |  2860162034996 |         285 |       62096
            338 |           134672 |          8080300 |  3839998244 |  2477440457228 |         279 |       48217
            339 |           134608 |          8076500 |  3840005700 |  2594704103452 |         276 |       43721
            340 |           134910 |          8094608 |  3839995008 |  2241847584464 |         283 |       15211
            341 |           135315 |          8118912 |  3840003776 |  2280680691160 |         291 |       38560
            342 |           136453 |          8187164 |  3840001040 |  2193215030832 |         282 |       35243
            343 |           136055 |          8163284 |  3839998360 |  2151555864424 |         287 |       30510
            344 |           134832 |          8089936 |  3839992084 |  2408651861444 |         284 |       48280
            345 |           113624 |          6817444 |  3839996884 |  3029971577116 |         299 |       56395
            346 |           128343 |          7700596 |  3840006480 |  2368970263256 |         290 |       22444
            347 |           130123 |          7807408 |  3840002000 |  2565268985880 |         280 |       45284
            348 |           131690 |          7901416 |  3839997640 |  2636524965928 |         294 |       41803
            349 |           133432 |          8005944 |  3840003740 |  2448440207708 |         276 |       24879
            350 |           134254 |          8055252 |  3839780660 |  2532398841420 |         288 |       50268
            351 |           137137 |          8228196 |  3840215284 |  2203838235764 |         281 |       35030
            352 |           137888 |          8273292 |  3839999600 |  2547406833280 |         281 |       58168
            353 |           135002 |          8100124 |  3840005616 |  2619245628352 |         284 |       61477
            354 |           134149 |          8048964 |  3839994396 |  2501147778564 |         265 |       52850
            355 |           134692 |          8081500 |  3840002808 |  2908217718576 |         281 |       79224
            356 |           137438 |          8246264 |  3839971496 |  2273060703312 |         284 |       49923
            357 |           136034 |          8162016 |  3840026612 |  2205455495388 |         291 |       14895
            358 |           135483 |          8128996 |  3840005876 |  2398774218788 |         287 |       45621
            359 |           134746 |          8084772 |  3839985168 |  2589967575608 |         278 |       56310
(360 rows)

