 interval_start | avg_transactions | num_transactions | sum_latency |  sum_latency_2   | min_latency | max_latency 
----------------+------------------+------------------+-------------+------------------+-------------+-------------
              0 |              968 |            58056 |  3813199860 |  290042555289860 |       11396 |      240966
              1 |              985 |            59124 |  3839590920 |  295102038877368 |       18690 |      400722
              2 |              997 |            59820 |  3840075316 |  288740877206284 |       18634 |      266598
              3 |             1010 |            60600 |  3839077800 |  290673429331904 |       15253 |      297643
              4 |              860 |            51604 |  3840183656 |  347744677576168 |       20520 |      707157
              5 |              864 |            51832 |  3841717768 |  325145628609736 |       20001 |      329591
              6 |              852 |            51104 |  3838636276 |  334477159334740 |       20270 |      457354
              7 |              870 |            52172 |  3839229988 |  323575355014572 |       14634 |      277810
              8 |              882 |            52920 |  3841720296 |  327334667671344 |       18022 |      431090
              9 |              871 |            52236 |  3839627236 |  324010475468684 |       21975 |      265306
             10 |              854 |            51228 |  3840566916 |  329322759021516 |       15898 |      276963
             11 |             1040 |            62428 |  3839932124 |  286468517693420 |       18178 |      435685
             12 |             1054 |            63252 |  3838611436 |  291197970902940 |       18728 |      604597
             13 |             1067 |            64000 |  3841294976 |  273128930571808 |       18075 |      264894
             14 |             1045 |            62708 |  3837896688 |  280200757472112 |       18597 |      252618
             15 |              918 |            55076 |  3840387720 |  322935626497112 |       17946 |      334424
             16 |              867 |            52000 |  3841086856 |  345233461274104 |       19888 |      355677
             17 |              900 |            53996 |  3838929128 |  336728643504808 |       21878 |      410089
             18 |              891 |            53476 |  3840542052 |  339303918453012 |       24006 |      370422
             19 |              950 |            57004 |  3840100272 |  312078439620592 |       19645 |      329011
             20 |              943 |            56596 |  3842030276 |  335225564759868 |       16497 |      501031
             21 |              753 |            45160 |  3829483184 |  481411913910624 |       15487 |      501501
             22 |              597 |            35832 |  3839615888 |  641424674160752 |       25786 |      482034
             23 |              794 |            47640 |  3849705308 |  447483946799012 |       24908 |      736740
             24 |              837 |            50192 |  3839416472 |  401849815651176 |       20120 |      423196
             25 |              886 |            53132 |  3840392240 |  352164107504392 |       22322 |      408001
             26 |              903 |            54172 |  3839751760 |  334262508596824 |       21498 |      363780
             27 |              891 |            53432 |  3840176776 |  348821141299136 |       16652 |      611368
             28 |              893 |            53608 |  3839128284 |  327882236438956 |       18299 |      345515
             29 |              911 |            54684 |  3840521112 |  317749172904952 |       21354 |      533216
             30 |              846 |            50776 |  3837313224 |  350977016930504 |       19997 |      354433
             31 |              808 |            48476 |  3844011768 |  389473414817416 |       25753 |      438296
             32 |              722 |            43340 |  3838345068 |  456944300353964 |       20336 |      470763
             33 |              737 |            44212 |  3840251560 |  473018016010280 |       20886 |      608773
             34 |              732 |            43900 |  3841178888 |  459049912486560 |       26499 |      496691
             35 |              737 |            44208 |  3839746512 |  452684291325704 |       22148 |      483616
             36 |              806 |            48384 |  3840279172 |  380035197217732 |       25937 |      398147
             37 |              850 |            50996 |  3838010164 |  338954855628412 |       20204 |      303323
             38 |              855 |            51308 |  3840679264 |  333162091964808 |       26318 |      295478
             39 |              841 |            50440 |  3841081164 |  344134906551492 |       24996 |      355192
             40 |              846 |            50764 |  3839579116 |  341206008428156 |       25854 |      307721
             41 |              811 |            48636 |  3837442440 |  391705797704232 |       23741 |      808118
             42 |              827 |            49640 |  3842063816 |  350880084359864 |       26076 |      368186
             43 |              441 |            26472 |  3833611796 | 1053701627590732 |       26505 |      775295
             44 |              522 |            31312 |  3845450144 |  798866802096568 |       16998 |      673896
             45 |              617 |            37008 |  3841191664 |  536651017992152 |       27807 |      671571
             46 |              641 |            38452 |  3836490848 |  505683672117504 |       26520 |      438627
             47 |              668 |            40096 |  3842577476 |  490684359559428 |       29108 |      624429
             48 |              655 |            39280 |  3839212760 |  511896233042264 |       28613 |      714652
             49 |              712 |            42704 |  3839808264 |  428256930347616 |       27249 |      509739
             50 |              715 |            42884 |  3841954328 |  409681847318680 |       28144 |      419366
             51 |              718 |            43080 |  3840510056 |  412549689524664 |       31955 |      470883
             52 |              758 |            45460 |  3835972084 |  390074785176340 |       26690 |      388791
             53 |              738 |            44260 |  3841901288 |  419577448286984 |       27804 |      432892
             54 |              728 |            43704 |  3841634324 |  438604329863484 |       22693 |      620364
             55 |              735 |            44124 |  3839370940 |  398817262649604 |       26048 |      422675
             56 |              742 |            44508 |  3838879056 |  404172483940408 |       28289 |      724205
             57 |              725 |            43524 |  3839641024 |  393016360229800 |       32145 |      341732
             58 |              670 |            40204 |  3841731848 |  412479275725400 |       25305 |      420331
             59 |              689 |            41336 |  3837746924 |  396205997470196 |       30139 |      297903
             60 |              664 |            39844 |  3841954924 |  426985300629372 |       34117 |      373728
             61 |              648 |            38868 |  3841416692 |  440616306714852 |       23466 |      386801
             62 |              642 |            38540 |  3836539712 |  466406739364232 |       33268 |      735912
             63 |              650 |            39000 |  3838890320 |  433882430052960 |       26609 |      452534
             64 |              642 |            38528 |  3843216208 |  446190390686240 |       34124 |      434552
             65 |              638 |            38300 |  3838513932 |  445267492836828 |       33262 |      418836
             66 |              638 |            38284 |  3841799380 |  443892262423324 |       26727 |      407204
             67 |              640 |            38404 |  3838866268 |  463071073285988 |       34570 |      706517
             68 |              660 |            39624 |  3837856220 |  439138488969572 |       31844 |      441383
             69 |              687 |            41212 |  3843426212 |  421380564261044 |       24958 |      417435
             70 |              695 |            41676 |  3834022064 |  416343411475336 |       30865 |      513355
             71 |              680 |            40824 |  3844900900 |  441523378921900 |       28149 |      608316
             72 |              683 |            40984 |  3840844136 |  424134622660456 |       28735 |      441916
             73 |              677 |            40624 |  3838108096 |  419647369266376 |       34018 |      442453
             74 |              576 |            34584 |  3825502228 |  553610503260844 |       30504 |      519384
             75 |              540 |            32408 |  3856176404 |  615050635207180 |       32973 |      703162
             76 |              559 |            33544 |  3839009544 |  603695098825160 |       36826 |     1019230
             77 |              588 |            35276 |  3823082120 |  539701093999824 |       17187 |      664873
             78 |              593 |            35556 |  3857985688 |  567523628370904 |       38519 |      815097
             79 |              609 |            36532 |  3839376036 |  511515394838412 |       33023 |      530415
             80 |              632 |            37904 |  3833818480 |  488050959951776 |       26372 |      617763
             81 |              639 |            38332 |  3846175692 |  459661817523860 |       25981 |      469360
             82 |              639 |            38352 |  3839175052 |  464915097362628 |       30393 |      674951
             83 |              650 |            38992 |  3841468504 |  446665257189504 |       34091 |      487248
             84 |              651 |            39060 |  3836146132 |  429908412152500 |       27903 |      373631
             85 |              635 |            38128 |  3843815916 |  482293576657892 |       25884 |      714146
             86 |              618 |            37108 |  3838980180 |  472410147767044 |       36927 |      463804
             87 |              613 |            36800 |  3841369436 |  471945064509060 |       31568 |      525441
             88 |              625 |            37516 |  3830776768 |  442720982111784 |       27922 |      396916
             89 |              633 |            38004 |  3845744976 |  430428729423592 |       15869 |      278266
             90 |              609 |            36560 |  3843551688 |  471062147683312 |       38523 |      568087
             91 |              598 |            35872 |  3836137496 |  475749084361992 |       34281 |      421015
             92 |              602 |            36144 |  3838640072 |  475114817003744 |       27149 |      578768
             93 |              630 |            37804 |  3843839252 |  453529737952700 |       34307 |      427671
             94 |              623 |            37356 |  3840202488 |  460360063240800 |       34169 |      379887
             95 |              573 |            34400 |  3840218388 |  551509632394476 |       36616 |      706736
             96 |              585 |            35072 |  3841521664 |  531494925312512 |       40548 |      501408
             97 |              595 |            35688 |  3840235048 |  492448715238056 |       38167 |      519943
             98 |              608 |            36500 |  3836578480 |  495920109135344 |       34622 |      768789
             99 |              643 |            38556 |  3843203932 |  437720392826108 |       31240 |      406191
            100 |              637 |            38212 |  3837918272 |  443068572738192 |       29293 |      385575
            101 |              632 |            37912 |  3841187612 |  449260500864372 |       34559 |      390496
            102 |              625 |            37516 |  3829042528 |  456243749969712 |       33551 |      460111
            103 |              639 |            38352 |  3852201916 |  443039238207876 |       37953 |      428207
            104 |              654 |            39260 |  3837168608 |  412957649163488 |       29528 |      285677
            105 |              628 |            37676 |  3830461576 |  454564134870896 |       26373 |      442251
            106 |              571 |            34284 |  3846498968 |  530619968595504 |       30227 |      501520
            107 |              529 |            31716 |  3841965824 |  591076523919424 |       39902 |      518050
            108 |              556 |            33376 |  3839375072 |  550831172503464 |       34835 |      545492
            109 |              569 |            34160 |  3842969840 |  539851706238056 |       34851 |      551167
            110 |              600 |            35992 |  3841229096 |  514317344013944 |       34732 |      749283
            111 |              609 |            36544 |  3826671812 |  474578161083180 |       30964 |      500378
            112 |              654 |            39232 |  3849119284 |  452525707373444 |       33180 |      683322
            113 |              663 |            39752 |  3842930248 |  430351784474872 |       32020 |      396009
            114 |              656 |            39340 |  3839165572 |  430530108095724 |       27781 |      371385
            115 |              655 |            39320 |  3832692436 |  425993131647468 |       25749 |      357188
            116 |              658 |            39456 |  3848243512 |  436735161354304 |       33822 |      489643
            117 |              657 |            39400 |  3837518124 |  429530900281604 |       33187 |      420074
            118 |              652 |            39132 |  3842328716 |  435881694103484 |       29613 |      466462
            119 |              689 |            41348 |  3840298424 |  397262114686256 |       26837 |      276432
            120 |              653 |            39156 |  3838024384 |  431898320788072 |       35863 |      339102
            121 |              647 |            38840 |  3842844368 |  441359453529848 |       22113 |      371507
            122 |              647 |            38824 |  3835544932 |  441926109742884 |       29693 |      397421
            123 |              618 |            37104 |  3842207300 |  495803194070244 |       33965 |      551190
            124 |              572 |            34328 |  3841474708 |  567130034495900 |       31006 |      679763
            125 |              580 |            34804 |  3836512456 |  544763460578472 |       30994 |      588476
            126 |              623 |            37368 |  3843205876 |  483551145561884 |       34702 |      546122
            127 |              621 |            37232 |  3840552908 |  474830721395324 |       33357 |      480066
            128 |              639 |            38320 |  3838168232 |  461535288043088 |       27102 |      437911
            129 |              663 |            39788 |  3840535084 |  429269764086084 |       30865 |      406953
            130 |              652 |            39120 |  3841965156 |  440472337832748 |       30070 |      360713
            131 |              649 |            38912 |  3839391228 |  442392314722292 |       27165 |      396289
            132 |              653 |            39168 |  3837673012 |  445124114848036 |       27770 |      419694
            133 |              615 |            36872 |  3839688944 |  474814933994552 |       27102 |      667379
            134 |              621 |            37236 |  3843315332 |  443667191803996 |       34261 |      365256
            135 |              597 |            35804 |  3837280060 |  482096272499204 |       33286 |      407399
            136 |              591 |            35476 |  3839575460 |  492134527695916 |       34334 |      431696
            137 |              546 |            32732 |  3839695456 |  573963802008960 |       34070 |      619511
            138 |              566 |            33944 |  3842010244 |  563492682458452 |       32943 |      573071
            139 |              578 |            34676 |  3838318076 |  534661417052660 |       30505 |      569756
            140 |              587 |            35208 |  3841616820 |  514910506329076 |       29836 |      517589
            141 |              579 |            34760 |  3838577032 |  522571243864064 |       23136 |      543274
            142 |              560 |            33588 |  3839026852 |  525667332428156 |       32443 |      744454
            143 |              590 |            35376 |  3840977844 |  501983423713116 |       36969 |      696606
            144 |              598 |            35864 |  3839708500 |  471915457162132 |       38436 |      382074
            145 |              589 |            35348 |  3841773256 |  478419253623136 |       34023 |      383882
            146 |              591 |            35488 |  3839430028 |  474174019001740 |       36128 |      367310
            147 |              609 |            36536 |  3835610224 |  470535290113112 |       39742 |      458552
            148 |              600 |            35984 |  3845332104 |  468232587778032 |       31827 |      439463
            149 |              643 |            38552 |  3839808328 |  425598020828672 |       27296 |      289451
            150 |              599 |            35968 |  3836326252 |  478070724361740 |       40693 |      413884
            151 |              588 |            35268 |  3844326012 |  487746664583068 |       31229 |      388868
            152 |              575 |            34524 |  3838611492 |  492326703450388 |       33992 |      374733
            153 |              572 |            34292 |  3840548032 |  495579651412272 |       33221 |      412269
            154 |              575 |            34476 |  3832380708 |  527439759372620 |       34205 |      747332
            155 |              557 |            33440 |  3846280332 |  562287346110972 |       30557 |      586148
            156 |              573 |            34364 |  3842234244 |  512018402276316 |       33955 |      450167
            157 |              564 |            33840 |  3838697700 |  516865661152876 |       39531 |      404805
            158 |              593 |            35556 |  3839077004 |  469941786130060 |       25519 |      391571
            159 |              595 |            35676 |  3842717076 |  489916801550956 |       34398 |      747161
            160 |              592 |            35504 |  3836344268 |  509170245882636 |       38580 |      750799
            161 |              596 |            35736 |  3844140368 |  500814269776296 |       34926 |      702279
            162 |              605 |            36320 |  3836037116 |  463219876701676 |       41356 |      407207
            163 |              616 |            36948 |  3844009796 |  451297251216028 |       32954 |      385313
            164 |              644 |            38640 |  3833230980 |  432727938085540 |       38406 |      416871
            165 |              618 |            37100 |  3846125472 |  459530991858232 |       32858 |      368998
            166 |              616 |            36960 |  3837579632 |  492253540772552 |       32775 |      710182
            167 |              621 |            37256 |  3841522212 |  455756956886220 |       37928 |      412972
            168 |              636 |            38164 |  3837621920 |  461470729047592 |       32448 |      472134
            169 |              614 |            36812 |  3837598468 |  514880791697964 |       35101 |      575773
            170 |              608 |            36504 |  3845651876 |  512145130834036 |       34124 |      529994
            171 |              614 |            36844 |  3838886544 |  502156912582192 |       26647 |      557948
            172 |              624 |            37444 |  3839057196 |  480094729508652 |       35387 |      502508
            173 |              629 |            37728 |  3835122692 |  453026724874900 |       37570 |      452263
            174 |              617 |            37020 |  3844602488 |  456084867195608 |       27784 |      406069
            175 |              617 |            37000 |  3841421332 |  478798853099276 |       35103 |      627751
            176 |              616 |            36952 |  3840300756 |  462307468944236 |       29465 |      369820
            177 |              610 |            36592 |  3841110296 |  472846759349592 |       34698 |      477255
            178 |              611 |            36636 |  3835427428 |  456599445091276 |       27946 |      356289
            179 |              644 |            38616 |  3844374072 |  426072296921336 |       30842 |      331083
            180 |              572 |            34328 |  3832903428 |  523457057450964 |       32791 |      638288
            181 |              585 |            35096 |  3846995076 |  506922048878412 |       44873 |      455568
            182 |              594 |            35644 |  3839611564 |  481212541833156 |       33873 |      461229
            183 |              579 |            34748 |  3838593748 |  506570712754468 |       40574 |      494414
            184 |              537 |            32224 |  3839372848 |  597129584870656 |       35065 |      648352
            185 |              556 |            33348 |  3838621516 |  555026532593268 |       35379 |      545405
            186 |              586 |            35160 |  3834959660 |  511061405377764 |       36140 |      498276
            187 |              588 |            35264 |  3846124524 |  522540882432116 |       32535 |      700854
            188 |              611 |            36688 |  3842736288 |  465974166047960 |       31953 |      408977
            189 |              610 |            36612 |  3838066552 |  470709937006520 |       36080 |      472308
            190 |              620 |            37184 |  3838381564 |  463255837715836 |       19987 |      440911
            191 |              618 |            37060 |  3842635860 |  466946837361812 |       30803 |      421554
            192 |              611 |            36660 |  3837232868 |  483268746467516 |       29966 |      488018
            193 |              630 |            37808 |  3843684372 |  456077088360420 |       35176 |      563210
            194 |              654 |            39264 |  3836916388 |  423401655754468 |       28573 |      335122
            195 |              618 |            37096 |  3842760172 |  481583220296492 |       34498 |      694656
            196 |              612 |            36740 |  3839464592 |  464307304549824 |       33944 |      407792
            197 |              628 |            37692 |  3834919472 |  463068215221800 |       18964 |      438123
            198 |              672 |            40348 |  3843333108 |  436121159315068 |       22727 |      520947
            199 |              622 |            37296 |  3837606568 |  504695007631832 |       28259 |      528405
            200 |              609 |            36544 |  3844524152 |  518545458084936 |       31585 |      555651
            201 |              641 |            38452 |  3839282996 |  474615636958916 |       27839 |      448704
            202 |              697 |            41800 |  3831165444 |  428992157447676 |       24801 |      462122
            203 |              713 |            42764 |  3849297912 |  416240336143768 |       14099 |      477102
            204 |              720 |            43224 |  3838628664 |  398211896863880 |       27061 |      332769
            205 |              731 |            43832 |  3838846368 |  397562942114968 |       23334 |      336510
            206 |              734 |            44036 |  3840494036 |  393726836479772 |       14237 |      361235
            207 |              722 |            43296 |  3842604704 |  429111806962456 |       24688 |      727870
            208 |              564 |            33812 |  3837063008 |  537588924664192 |       32591 |      677742
            209 |              612 |            36748 |  3839359748 |  461261187874572 |       32926 |      356647
            210 |              585 |            35108 |  3842027204 |  510124383287764 |       37214 |      400613
            211 |              574 |            34468 |  3836269964 |  517054638386340 |       31231 |      430306
            212 |              560 |            33620 |  3836640972 |  548267822556556 |       21842 |      508590
            213 |              496 |            29740 |  3847278208 |  673153469511104 |       32557 |      672414
            214 |              492 |            29500 |  3837352016 |  682141053611888 |       32544 |      626452
            215 |              476 |            28536 |  3842640448 |  692354600900760 |       43225 |      566505
            216 |              493 |            29576 |  3834746892 |  677743197687508 |       32359 |      884421
            217 |              512 |            30696 |  3846843648 |  640411386329328 |       37002 |      605595
            218 |              530 |            31772 |  3836814824 |  592045018068472 |       26214 |      643351
            219 |              518 |            31068 |  3839021260 |  620370597772932 |       35550 |      705046
            220 |              526 |            31564 |  3842673004 |  593681293046620 |       25965 |      634308
            221 |              520 |            31172 |  3838835772 |  575361532755892 |       43670 |      517201
            222 |              510 |            30592 |  3841957616 |  587793083407408 |       31085 |      502638
            223 |              527 |            31596 |  3835111772 |  586199728863372 |       43302 |      654235
            224 |              555 |            33308 |  3830165868 |  527303782902132 |       35333 |      434181
            225 |              527 |            31604 |  3851993428 |  583654739597748 |       43506 |      561398
            226 |              530 |            31804 |  3841594384 |  575385558984288 |       25987 |      509415
            227 |              510 |            30608 |  3839439772 |  623871090635100 |       35042 |      860414
            228 |              530 |            31804 |  3841140304 |  599368088470248 |       39744 |      705358
            229 |              525 |            31480 |  3840150212 |  580877941864844 |       43055 |      657158
            230 |              533 |            31964 |  3833094472 |  563597902805408 |       46252 |      610452
            231 |              532 |            31940 |  3844544144 |  576432312766768 |       35673 |      543700
            232 |              521 |            31276 |  3839658364 |  589682868694500 |       43034 |      551394
            233 |              534 |            32016 |  3831246488 |  564021453205616 |       41640 |      562663
            234 |              530 |            31772 |  3852405440 |  599254324690824 |       40696 |      552958
            235 |              525 |            31480 |  3836938112 |  639590427124672 |       35297 |      795074
            236 |              546 |            32772 |  3842168428 |  576667988817260 |       34439 |      605789
            237 |              525 |            31520 |  3825466492 |  621311581808220 |       36771 |      730002
            238 |              526 |            31588 |  3854857456 |  594829055300160 |       43186 |      527681
            239 |              559 |            33552 |  3840890376 |  531524883665112 |       34646 |      507819
            240 |              544 |            32668 |  3834793524 |  568930731036084 |       30810 |      559820
            241 |              539 |            32320 |  3842247156 |  553806831378220 |       43465 |      567679
            242 |              529 |            31764 |  3839275256 |  606655544651056 |       31280 |      735230
            243 |              531 |            31840 |  3841394336 |  565549536987224 |       33136 |      490796
            244 |              532 |            31940 |  3835723040 |  568076608241696 |       29680 |      584696
            245 |              543 |            32608 |  3845979448 |  546220564951184 |       24830 |      489454
            246 |              553 |            33188 |  3838718192 |  545573556418104 |       35231 |      493880
            247 |              544 |            32664 |  3839690324 |  570446174708852 |       17718 |      515132
            248 |              525 |            31516 |  3838262296 |  591953013427888 |       37769 |      671319
            249 |              541 |            32444 |  3841959216 |  598992919240528 |       40201 |      658162
            250 |              547 |            32824 |  3842081740 |  614486984812804 |       27540 |      862031
            251 |              531 |            31844 |  3836506400 |  583999045585784 |       34602 |      627966
            252 |              518 |            31052 |  3836111964 |  588082118932124 |       32798 |      545847
            253 |              497 |            29816 |  3846342464 |  656302168417368 |       39592 |      839055
            254 |              513 |            30804 |  3837481992 |  646130019052960 |       24626 |      812726
            255 |              502 |            30120 |  3841609716 |  661599483602308 |       34769 |      729987
            256 |              519 |            31160 |  3841093564 |  640267824318100 |       44414 |      805663
            257 |              519 |            31152 |  3834825740 |  590602557777436 |       35727 |      840761
            258 |              537 |            32220 |  3844024288 |  574307726688440 |       26922 |      546464
            259 |              525 |            31520 |  3831469820 |  587582619086100 |       35503 |      808773
            260 |              522 |            31296 |  3846564708 |  574627587027500 |       29716 |      500328
            261 |              512 |            30720 |  3839164340 |  627531271133036 |       39293 |      662856
            262 |              506 |            30332 |  3842896448 |  621314150476104 |       41775 |      545678
            263 |              500 |            29972 |  3839856276 |  606222713254700 |       42660 |      701605
            264 |              522 |            31304 |  3839041532 |  583983016011988 |       31608 |      716724
            265 |              517 |            31036 |  3842195996 |  597770178504660 |       35419 |      596443
            266 |              528 |            31700 |  3825147680 |  544241459283200 |       31760 |      451665
            267 |              535 |            32088 |  3852771792 |  556409072285800 |       43013 |      554661
            268 |              507 |            30420 |  3841373760 |  583671706240504 |       28411 |      521330
            269 |              543 |            32592 |  3840128360 |  546968782006632 |       35781 |      438073
            270 |              514 |            30816 |  3840750892 |  614105775018380 |       41989 |      738517
            271 |              515 |            30908 |  3838795100 |  610773677713740 |       26359 |      724221
            272 |              525 |            31512 |  3837138484 |  589139339533372 |       18774 |      589898
            273 |              512 |            30692 |  3840697060 |  596328365434476 |       38405 |      720654
            274 |              531 |            31868 |  3837350440 |  574773281318976 |       35435 |      579494
            275 |              520 |            31220 |  3845178180 |  630880338460732 |       29671 |      789138
            276 |              527 |            31612 |  3839831568 |  592277218312712 |       34410 |      663388
            277 |              518 |            31104 |  3840084444 |  622548130112916 |       33777 |      892099
            278 |              519 |            31116 |  3839425308 |  644300049863852 |       33478 |      938536
            279 |              530 |            31804 |  3840904520 |  588952075826128 |       38063 |      533154
            280 |              532 |            31920 |  3833222452 |  565327781318836 |       34221 |      568751
            281 |              538 |            32260 |  3843414724 |  568023429026716 |       22576 |      575595
            282 |              540 |            32384 |  3842802216 |  560560750695328 |       43702 |      565347
            283 |              526 |            31532 |  3840259652 |  571560032170404 |       40112 |      507088
            284 |              544 |            32668 |  3839944852 |  588605211570780 |       33955 |      727458
            285 |              539 |            32316 |  3833805864 |  570670850303512 |       25650 |      609256
            286 |              539 |            32356 |  3846757348 |  578599916840524 |       24132 |      521278
            287 |              524 |            31444 |  3837771604 |  614653201800268 |       29441 |      755165
            288 |              526 |            31584 |  3839623052 |  584056737166700 |       21783 |      533459
            289 |              524 |            31432 |  3838359800 |  576750800628720 |       29223 |      556003
            290 |              513 |            30804 |  3836410288 |  592816084798872 |       26822 |      512947
            291 |              517 |            31028 |  3845504064 |  604007037006792 |       35398 |      653593
            292 |              501 |            30048 |  3839729684 |  627004675201356 |       35535 |      661946
            293 |              522 |            31300 |  3841125140 |  591291226313868 |       29903 |      599590
            294 |              522 |            31340 |  3840666180 |  589934117414372 |       33049 |      651506
            295 |              518 |            31108 |  3840963036 |  593523247777684 |       31483 |      539578
            296 |              513 |            30756 |  3835744692 |  599288426046012 |       45723 |      579801
            297 |              518 |            31056 |  3841986204 |  585706269534716 |       33683 |      595767
            298 |              499 |            29944 |  3838271840 |  609039794292112 |       44316 |      558094
            299 |              527 |            31632 |  3845215460 |  553599409857148 |       16206 |      489247
            300 |              513 |            30800 |  3832129148 |  593868091153300 |       40560 |      582227
            301 |              506 |            30360 |  3842269864 |  605287787756240 |       43309 |      669528
            302 |              517 |            31048 |  3840535000 |  590714914721816 |       31547 |      509288
            303 |              516 |            30976 |  3843052544 |  607364432904200 |       42545 |      641461
            304 |              501 |            30080 |  3831287092 |  606913541375716 |       25494 |      815905
            305 |              523 |            31396 |  3849177176 |  583318396199696 |       35352 |      525033
            306 |              513 |            30772 |  3839941572 |  595158609278700 |       35151 |      534411
            307 |              509 |            30516 |  3837740380 |  616647268920980 |       35252 |      688070
            308 |              498 |            29888 |  3838288284 |  655604436065308 |       25712 |      773442
            309 |              512 |            30732 |  3841907744 |  614151078534384 |       18154 |      631444
            310 |              507 |            30420 |  3840548064 |  605554822838368 |       27172 |      580820
            311 |              516 |            30936 |  3841173480 |  587616927762016 |       25888 |      499332
            312 |              518 |            31068 |  3837368708 |  594504862003764 |       34310 |      647223
            313 |              502 |            30120 |  3842297696 |  596337014419144 |       27373 |      588483
            314 |              527 |            31648 |  3834795612 |  559488892007076 |       34825 |      479749
            315 |              520 |            31184 |  3845567296 |  609385692161488 |       24438 |      984209
            316 |              537 |            32200 |  3836421108 |  577859202534380 |       28753 |      719201
            317 |              538 |            32284 |  3843584476 |  554998185137124 |       26126 |      542970
            318 |              506 |            30380 |  3837926616 |  636697123410416 |       43089 |     1056290
            319 |              535 |            32088 |  3840441704 |  556228424672440 |       29697 |      531772
            320 |              529 |            31744 |  3841223976 |  554193050055616 |       31578 |      483963
            321 |              539 |            32344 |  3836316820 |  563699967499548 |        9510 |      511980
            322 |              521 |            31248 |  3843432156 |  596959859341516 |       31919 |      562404
            323 |              545 |            32704 |  3836588028 |  574345578560068 |       32251 |      775072
            324 |              544 |            32660 |  3843270956 |  621144361532156 |       30759 |      816434
            325 |              530 |            31828 |  3837813420 |  597406452586588 |       26297 |      606024
            326 |              534 |            32060 |  3836876888 |  588157877724016 |       25706 |      729799
            327 |              544 |            32668 |  3840537824 |  553230348343664 |       21715 |      452238
            328 |              544 |            32616 |  3843562464 |  540484485635400 |       23153 |      511140
            329 |              557 |            33444 |  3839637820 |  536175142537884 |       26943 |      541633
            330 |              523 |            31372 |  3836503084 |  581019983850732 |       18036 |      536479
            331 |              513 |            30776 |  3838268268 |  634628952427508 |       34692 |      792909
            332 |              523 |            31376 |  3845277300 |  564548218202572 |       20858 |      464333
            333 |              529 |            31756 |  3837731492 |  554922233193572 |       34120 |      555777
            334 |              558 |            33508 |  3838065316 |  532682626933748 |       17856 |      447547
            335 |              556 |            33332 |  3846576236 |  544488731785980 |       16371 |      484758
            336 |              549 |            32968 |  3841236548 |  549672853069908 |       19839 |      693646
            337 |              528 |            31692 |  3836987092 |  598398232801124 |       34609 |      748822
            338 |              556 |            33332 |  3842117968 |  525144041813208 |       34222 |      468315
            339 |              560 |            33620 |  3839155804 |  540446260211004 |       24176 |      780226
            340 |              582 |            34912 |  3841341520 |  513545061618816 |       26399 |      480008
            341 |              595 |            35724 |  3839666708 |  492545330660364 |       34162 |      430632
            342 |              594 |            35668 |  3839156188 |  524065784150252 |       17822 |      684338
            343 |              582 |            34936 |  3837701172 |  520687732141540 |       29600 |      511367
            344 |              614 |            36828 |  3843338324 |  479576838814852 |       27354 |      421111
            345 |              593 |            35592 |  3840212152 |  502165621138504 |       31633 |      451167
            346 |              537 |            32208 |  3837232564 |  590712267479340 |       34246 |      768252
            347 |              566 |            33932 |  3836740328 |  550771215804520 |        9473 |      580805
            348 |              593 |            35576 |  3841966684 |  538141940348452 |       32166 |      472041
            349 |              566 |            33988 |  3843941988 |  564280315670060 |       31611 |      682238
            350 |              547 |            32836 |  3835159524 |  568776191819244 |       20686 |      667766
            351 |              541 |            32452 |  3838372852 |  601522062393084 |       18441 |      598618
            352 |              518 |            31096 |  3844694976 |  591003752738408 |       19223 |      536180
            353 |              554 |            33256 |  3841212988 |  543622956514404 |       16298 |      584179
            354 |              570 |            34180 |  3839512776 |  553275097827304 |       27345 |      693774
            355 |              581 |            34888 |  3833881540 |  534081153413276 |       22199 |      573463
            356 |              595 |            35676 |  3842352148 |  548966938951676 |       17765 |      943906
            357 |              606 |            36352 |  3843635732 |  515359788707172 |       20702 |      473662
            358 |              564 |            33812 |  3838498328 |  571478154578784 |       23992 |      718906
            359 |              608 |            36468 |  3841044044 |  490141831333308 |       27206 |      456842
(360 rows)

