 interval_start | avg_transactions | num_transactions | sum_latency |  sum_latency_2   | min_latency | max_latency 
----------------+------------------+------------------+-------------+------------------+-------------+-------------
              0 |              729 |            43728 |  3828503868 |  414488513600700 |       13300 |      465674
              1 |              725 |            43484 |  3839946216 |  461045465727040 |       15878 |      708354
              2 |              738 |            44284 |  3825294008 |  416293252709872 |       19468 |      481537
              3 |              784 |            47012 |  3853950196 |  399346925903404 |       17130 |      469177
              4 |              771 |            46268 |  3841692196 |  411913228201380 |       18539 |      426602
              5 |              789 |            47352 |  3838387852 |  389791496070948 |       13727 |      496830
              6 |              820 |            49220 |  3839264824 |  409060119849536 |       17532 |      706381
              7 |              856 |            51344 |  3843420072 |  375140795076592 |       16385 |      331070
              8 |              822 |            49324 |  3838799560 |  441926510885504 |       18819 |      878877
              9 |              881 |            52856 |  3840811664 |  374256636857320 |       11120 |      486200
             10 |              872 |            52316 |  3840485940 |  372160036531764 |        9106 |      516645
             11 |              873 |            52400 |  3838257236 |  373869586106260 |       14938 |      455817
             12 |              887 |            53240 |  3840954416 |  361776879870072 |       11035 |      430811
             13 |              843 |            50596 |  3838537220 |  373855480533588 |       17531 |      452541
             14 |              862 |            51724 |  3840684908 |  366088703416300 |       15809 |      449229
             15 |              768 |            46100 |  3841043088 |  444345532099904 |       16802 |      724580
             16 |              785 |            47124 |  3838054996 |  418357854907308 |       16689 |      614280
             17 |              799 |            47964 |  3840784136 |  398286218578104 |       17072 |      416773
             18 |              792 |            47544 |  3830374052 |  404481723234284 |       18112 |      457133
             19 |              781 |            46836 |  3849002276 |  425720151771820 |       16382 |      643103
             20 |              800 |            47976 |  3837933948 |  398488860475212 |        9691 |      561226
             21 |              806 |            48340 |  3840847824 |  390009424933448 |       12920 |      307943
             22 |              818 |            49072 |  3839597844 |  390108176979436 |       13364 |      598089
             23 |              829 |            49728 |  3838259388 |  399047699249404 |       15087 |      563051
             24 |              832 |            49920 |  3844733740 |  391180608186340 |       15855 |      518818
             25 |              550 |            32976 |  3840005620 |  915550889980516 |       14842 |     1163613
             26 |              944 |            56640 |  3840675024 |  615183595201040 |       14679 |      779265
             27 |              943 |            56576 |  3836489900 |  475742011520036 |       16462 |      779058
             28 |              955 |            57300 |  3843206396 |  417691135172284 |       17153 |      607983
             29 |             1008 |            60496 |  3839231032 |  345829553076688 |       17105 |      369855
             30 |              952 |            57116 |  3839743728 |  386414249784240 |       17691 |      476859
             31 |              921 |            55272 |  3839753756 |  391379312571588 |       14130 |      431892
             32 |              929 |            55760 |  3841867864 |  453156928707168 |       15313 |      736688
             33 |              766 |            45952 |  3839066392 |  581346013542784 |       17966 |      759449
             34 |              686 |            41180 |  3840426388 |  583142422319068 |       17655 |      829704
             35 |              700 |            41972 |  3833946896 |  644969471550016 |       15870 |      862278
             36 |              697 |            41804 |  3846253040 |  585982563827576 |       17731 |      822701
             37 |              683 |            40968 |  3838908748 |  568239631122492 |       11346 |      867183
             38 |              704 |            42232 |  3840770888 |  483536621238208 |       17581 |      671438
             39 |              731 |            43876 |  3838043452 |  439239016299012 |       13587 |      524961
             40 |              753 |            45164 |  3841748004 |  413288365782428 |       13160 |      371458
             41 |              755 |            45276 |  3839667040 |  434365750400472 |       14989 |      659390
             42 |              773 |            46368 |  3841502548 |  422098968761100 |       18014 |      674886
             43 |              734 |            44048 |  3836583132 |  437508797828516 |       15573 |      464032
             44 |              769 |            46152 |  3843353212 |  408103594399756 |       14682 |      426562
             45 |              699 |            41928 |  3835974160 |  483872891869920 |       10088 |      669549
             46 |              730 |            43808 |  3842142696 |  451420655743856 |       14589 |      473900
             47 |              332 |            19896 |  3829658416 | 1068750038025264 |       34636 |      933583
             48 |              594 |            35656 |  3851804000 |  669812875690480 |       14436 |      662464
             49 |              735 |            44108 |  3839603824 |  559496340706696 |        9978 |      818934
             50 |              771 |            46288 |  3831911528 |  511629890029368 |        9868 |      817718
             51 |              787 |            47244 |  3848078368 |  544690284466048 |       16170 |      768046
             52 |              824 |            49432 |  3836098580 |  454699846658860 |        9675 |      699805
             53 |              783 |            46980 |  3842841176 |  508752367000536 |       10394 |      760999
             54 |              747 |            44840 |  3838280368 |  546325940957072 |        8960 |      718692
             55 |              809 |            48556 |  3843882384 |  525182756904224 |        8340 |      952144
             56 |              696 |            41772 |  3837930188 |  540111333018564 |       15381 |      666323
             57 |              824 |            49436 |  3841124908 |  430864150393660 |        9580 |      587493
             58 |              680 |            40784 |  3838151256 |  590073216759160 |       13334 |      834275
             59 |              646 |            38776 |  3842119376 |  665424650007928 |       13931 |      825596
             60 |              635 |            38116 |  3836350412 |  690342332575804 |           0 |     1151665
             61 |              709 |            42552 |  3842137700 |  545925836504524 |       12688 |     1056516
             62 |              687 |            41232 |  3840200040 |  571938886717656 |       17355 |      944494
             63 |              698 |            41864 |  3836638648 |  542389425949160 |       12303 |      897753
             64 |              726 |            43572 |  3837376468 |  494294213881772 |       10550 |      730140
             65 |              707 |            42428 |  3845897072 |  527288209256792 |       11767 |      753118
             66 |              703 |            42172 |  3840135696 |  516685981800032 |        9777 |      844800
             67 |              718 |            43108 |  3814440404 |  477099932886532 |       17934 |      563689
             68 |              707 |            42444 |  3866087924 |  660473466328940 |       14827 |     1284929
             69 |              678 |            40688 |  3825618600 |  626013846218800 |        8810 |      923105
             70 |              720 |            43192 |  3850411004 |  529763705498684 |       13752 |      685926
             71 |              727 |            43640 |  3843013304 |  523690470463576 |       13740 |      657015
             72 |              762 |            45712 |  3839394960 |  661774986744472 |       12979 |     1073296
             73 |              581 |            34860 |  3840049568 |  668827829568384 |       13704 |      866437
             74 |              670 |            40196 |  3841862888 |  676002263631256 |       14474 |      813616
             75 |              600 |            36016 |  3836929288 |  749916039308424 |       16769 |      836618
             76 |              614 |            36844 |  3842492256 |  786126311210728 |       13405 |     1064503
             77 |              679 |            40752 |  3841126200 |  697290434194016 |        9441 |     1009819
             78 |              697 |            41808 |  3809842556 |  662325288445636 |       12711 |      941382
             79 |              673 |            40372 |  3856470776 |  768372258292848 |        9483 |      905573
             80 |              760 |            45588 |  3851508452 |  632169818359292 |        9621 |      912316
             81 |              773 |            46364 |  3840808676 |  608966030246788 |       13652 |     1046850
             82 |              813 |            48760 |  3840106332 |  568175467569244 |       13322 |     1217803
             83 |              731 |            43872 |  3841270356 |  760858019219332 |       12930 |     1103240
             84 |              796 |            47776 |  3839372200 |  569765459476192 |       14314 |      895506
             85 |              751 |            45060 |  3837425748 |  661217741091636 |        8961 |     1092809
             86 |              705 |            42316 |  3841232404 |  623374036527524 |       11273 |     1144255
             87 |              702 |            42092 |  3828453124 |  598823942152980 |        9404 |      775707
             88 |              709 |            42560 |  3851478700 |  641734504244036 |       14225 |      822437
             89 |              773 |            46352 |  3841079788 |  513956890970188 |       15085 |      738402
             90 |              688 |            41296 |  3837509100 |  564705884691996 |       12544 |      733087
             91 |              710 |            42616 |  3837548260 |  528341512272364 |       11335 |      859946
             92 |              720 |            43204 |  3828840604 |  537366032687612 |        9844 |      813622
             93 |              649 |            38944 |  3853387316 |  648079951707876 |        9610 |      790480
             94 |              591 |            35448 |  3842828200 |  747723914135064 |       16896 |      856774
             95 |              628 |            37652 |  3840168136 |  706274754738168 |       10676 |     1008588
             96 |              694 |            41644 |  3840924724 |  569356153417940 |       14700 |      782779
             97 |              716 |            42936 |  3837526284 |  624245421069188 |           0 |     1266563
             98 |              724 |            43456 |  3838726996 |  629854418337572 |        9777 |      872494
             99 |              855 |            51320 |  3841483940 |  433066235065828 |        9960 |      743472
            100 |              906 |            54388 |  3803533940 |  431145642245612 |        9726 |      711499
            101 |              907 |            54440 |  3875269440 |  447915535344056 |        9681 |      744335
            102 |              915 |            54888 |  3840412984 |  406037235907184 |        9718 |      590436
            103 |              796 |            47732 |  3841477840 |  484554733939352 |        8839 |      533065
            104 |              690 |            41396 |  3837969184 |  610793874350776 |       11177 |      716164
            105 |              679 |            40740 |  3842690220 |  610688454256316 |       15863 |      728188
            106 |              764 |            45848 |  3840731924 |  551065881242692 |        9615 |     1012278
            107 |              808 |            48488 |  3838836016 |  485692745258024 |       10237 |      724597
            108 |              803 |            48152 |  3827645148 |  519420025683524 |        9620 |      750577
            109 |              804 |            48264 |  3852835096 |  508075810342920 |        7425 |     1032569
            110 |              859 |            51548 |  3838697420 |  483109087876204 |       11585 |      782636
            111 |              848 |            50856 |  3840478004 |  539296062501164 |       11960 |      951328
            112 |              782 |            46940 |  3841380664 |  619983277757768 |       15451 |      826591
            113 |              789 |            47336 |  3826311996 |  627788212932476 |        9392 |      986130
            114 |              808 |            48456 |  3853000936 |  654869822185960 |       13102 |     1190151
            115 |              870 |            52192 |  3839710256 |  472934717648192 |       10124 |      874147
            116 |              868 |            52100 |  3840477536 |  444759144185816 |        9309 |      810814
            117 |              900 |            54004 |  3838755348 |  420078766113324 |       10087 |      630499
            118 |              802 |            48120 |  3838921908 |  477518814793892 |       10710 |      596383
            119 |              670 |            40216 |  3824540384 |  689889171420664 |       15353 |      908573
            120 |              593 |            35600 |  3807589416 |  769781766682120 |       11665 |      934425
            121 |              652 |            39112 |  3890729876 |  660536112051644 |       11151 |     1388828
            122 |              666 |            39956 |  3838471848 |  726079842627072 |        9799 |     1006740
            123 |              687 |            41200 |  3840267448 |  659450419066152 |        9764 |     1011743
            124 |              733 |            44004 |  3840565308 |  647305306252316 |       11014 |     1097527
            125 |              704 |            42232 |  3838901452 |  617909361553492 |       14949 |      952284
            126 |              758 |            45480 |  3840661660 |  513637157184532 |        9675 |      760267
            127 |              736 |            44176 |  3838847340 |  540193252788748 |       10222 |      821651
            128 |              773 |            46404 |  3840884740 |  553957544123988 |       10865 |      851812
            129 |              796 |            47788 |  3839603060 |  494705816535372 |       11975 |      773650
            130 |              801 |            48064 |  3828358668 |  465019172177796 |       10440 |      763181
            131 |              827 |            49624 |  3852943144 |  429158688967520 |       10478 |      481715
            132 |              848 |            50896 |  3836034208 |  393455296883768 |       12520 |      477355
            133 |              800 |            48000 |  3843351488 |  431391759426960 |       11910 |      609563
            134 |              856 |            51388 |  3838006752 |  388407852309048 |        9659 |      585999
            135 |              788 |            47292 |  3842588360 |  487173509815352 |       11073 |      740805
            136 |              691 |            41456 |  3840147528 |  527822212202032 |        9583 |      644965
            137 |              651 |            39052 |  3837971564 |  622488144037716 |       12821 |      723067
            138 |              670 |            40192 |  3839056732 |  586197228073308 |        9415 |      799670
            139 |              698 |            41868 |  3841108848 |  600642403032024 |        9318 |     1039600
            140 |              725 |            43480 |  3841661992 |  582538583893312 |       11056 |      795486
            141 |              755 |            45328 |  3838254484 |  539912801266220 |       10319 |      917707
            142 |              819 |            49124 |  3840787780 |  464351218626716 |       12416 |      737802
            143 |              783 |            46992 |  3839383576 |  492396590321712 |        9326 |      850506
            144 |              840 |            50416 |  3840523524 |  495250991911700 |        8430 |      788187
            145 |              949 |            56932 |  3838603752 |  513495925066032 |        9477 |     1497371
            146 |              998 |            59856 |  3840934164 |  359403137695108 |        8345 |      432878
            147 |             1006 |            60368 |  3839081436 |  349145847465756 |       12219 |      416161
            148 |              830 |            49816 |  3839216064 |  477773314347504 |        9676 |      689048
            149 |              755 |            45292 |  3839747152 |  520275472279120 |        9434 |      667848
            150 |              765 |            45896 |  3842406648 |  523151112038200 |        9838 |      664833
            151 |              785 |            47100 |  3841650356 |  561733305701220 |        9239 |      714993
            152 |              838 |            50304 |  3833108520 |  486943880352616 |       14172 |      617004
            153 |              861 |            51632 |  3846328376 |  508272073184288 |       10463 |      739828
            154 |              877 |            52592 |  3839081364 |  477834481234132 |        9633 |      717049
            155 |              862 |            51732 |  3834391368 |  491118046164976 |        9329 |      772628
            156 |              802 |            48104 |  3846994280 |  509689033109776 |        9681 |      736336
            157 |              885 |            53092 |  3837734188 |  511938584880836 |       12859 |      716954
            158 |              950 |            57024 |  3842018980 |  439504082087012 |        9420 |      714122
            159 |              974 |            58460 |  3839786612 |  446628158885084 |        9025 |      708170
            160 |             1002 |            60092 |  3840934116 |  384674790077316 |       11613 |      679934
            161 |              977 |            58592 |  3838251776 |  396277611610328 |        9248 |      819596
            162 |              974 |            58456 |  3839725600 |  359485213127016 |        9692 |      385068
            163 |              701 |            42060 |  3834043224 |  570409260887808 |        9554 |      642338
            164 |              732 |            43896 |  3844022232 |  540082780339480 |       11139 |      620144
            165 |              697 |            41828 |  3822027676 |  534857809548340 |       10289 |      685523
            166 |              719 |            43132 |  3860819032 |  621318043015120 |       12468 |      900562
            167 |              697 |            41820 |  3839084916 |  560098376867236 |       12356 |      710969
            168 |              734 |            44012 |  3831095940 |  577769652338084 |        9944 |      985505
            169 |              769 |            46140 |  3849407520 |  526630046106448 |        9167 |      707185
            170 |              777 |            46648 |  3840648688 |  485860705809072 |        9800 |      725155
            171 |              784 |            47024 |  3839714336 |  561674204303544 |        9481 |      767161
            172 |              791 |            47488 |  3841078344 |  484466261816304 |        8984 |      788234
            173 |              816 |            48948 |  3837721596 |  472940645181428 |        9725 |      787176
            174 |              849 |            50920 |  3840653876 |  475797765185124 |       10208 |      807829
            175 |              856 |            51384 |  3840421464 |  428871782206992 |       11778 |      734321
            176 |              880 |            52816 |  3834307860 |  385188616621860 |       10253 |      361361
            177 |              888 |            53292 |  3846418628 |  367284807210092 |        9879 |      359035
            178 |              856 |            51360 |  3837323344 |  409803242289368 |       10508 |      654187
            179 |              854 |            51256 |  3843080844 |  395724386006964 |        7178 |      432437
            180 |              647 |            38812 |  3836088928 |  638913795060496 |       13213 |      711350
            181 |              589 |            35316 |  3841287836 |  713198820155836 |       14508 |      777822
            182 |              549 |            32928 |  3833211820 |  710871071121252 |       15302 |      704725
            183 |              544 |            32668 |  3847103712 |  711214649048216 |       15177 |      766424
            184 |              538 |            32308 |  3840180444 |  766311465481116 |       13747 |      826219
            185 |              597 |            35804 |  3841456604 |  661522833012340 |       15906 |      853975
            186 |              631 |            37844 |  3839884096 |  671473131607912 |       15322 |      963219
            187 |              659 |            39540 |  3839947008 |  733117240462168 |       14065 |      841744
            188 |              662 |            39704 |  3833921896 |  694174496580752 |       18733 |      806686
            189 |              636 |            38140 |  3845256292 |  698714883535836 |        9195 |      844408
            190 |              660 |            39624 |  3840741212 |  575303589700324 |       16201 |      807909
            191 |              671 |            40240 |  3837585712 |  643750321490240 |        9884 |      774691
            192 |              673 |            40400 |  3841893392 |  621231836915848 |       15441 |      796754
            193 |              666 |            39988 |  3840312088 |  674750579817712 |       17835 |      984510
            194 |              704 |            42248 |  3837867356 |  520048989244628 |       15656 |      692382
            195 |              667 |            40008 |  3840152712 |  579409927732304 |       15383 |      864117
            196 |              672 |            40304 |  3838746772 |  511569200281084 |       10058 |      476835
            197 |              675 |            40516 |  3840572584 |  606052010726392 |       14271 |      756839
            198 |              580 |            34788 |  3842374464 |  688815663893536 |       15595 |      751005
            199 |              594 |            35668 |  3838661776 |  701924814201280 |       15881 |      845444
            200 |              627 |            37648 |  3839375528 |  635546854693872 |       13219 |      727748
            201 |              660 |            39616 |  3834395064 |  672799135103608 |       17159 |      849449
            202 |              676 |            40584 |  3846232636 |  772438125288460 |       15545 |     1055121
            203 |              688 |            41304 |  3842824088 |  760340842824952 |       16089 |      934787
            204 |              715 |            42884 |  3835940900 |  654033000996108 |        9373 |      841129
            205 |              687 |            41216 |  3819410248 |  631692831593488 |       15619 |      854726
            206 |              672 |            40320 |  3860601296 |  683530889415072 |        9595 |      838702
            207 |              675 |            40512 |  3836702908 |  560939734027996 |       13708 |      733051
            208 |              674 |            40416 |  3844624340 |  537331120116700 |       10556 |      686766
            209 |              698 |            41872 |  3839905260 |  553097230568636 |       11922 |      712058
            210 |              667 |            40036 |  3836674140 |  800274570386748 |       10022 |      905910
            211 |              647 |            38804 |  3843893340 |  677582021551948 |       16511 |      820215
            212 |              615 |            36916 |  3834776424 |  640446430280120 |       17849 |      674734
            213 |              571 |            34264 |  3845454248 |  746656907527944 |       17053 |      744180
            214 |              549 |            32916 |  3839896356 |  712904274483684 |       15140 |      756968
            215 |              583 |            34976 |  3837888284 |  648875778835756 |       16237 |      726966
            216 |              633 |            37960 |  3841615352 |  640525747260568 |       13928 |      844213
            217 |              667 |            39996 |  3841120004 |  581296785820508 |       17143 |      704796
            218 |              680 |            40808 |  3834371044 |  659581056546236 |       16085 |      752973
            219 |              698 |            41864 |  3839586408 |  613030480774544 |       15410 |      778925
            220 |              694 |            41656 |  3846388024 |  612313719541192 |       16341 |      739142
            221 |              664 |            39852 |  3840882200 |  501488623012288 |       15362 |      590404
            222 |              651 |            39064 |  3821605256 |  530926979671792 |       12079 |      682257
            223 |              697 |            41816 |  3857213484 |  630936649701996 |       15508 |     1217379
            224 |              749 |            44968 |  3838768564 |  481316991680388 |       18156 |      514859
            225 |              736 |            44156 |  3840560812 |  725902561743108 |       15101 |      847467
            226 |              731 |            43836 |  3839278732 |  782590825795300 |       14644 |      888665
            227 |              665 |            39888 |  3842113676 |  717538021419404 |       15133 |      846246
            228 |              586 |            35188 |  3838678644 |  917103084991676 |       17827 |     1103897
            229 |              631 |            37864 |  3837136984 |  835676930764944 |       10558 |     1007822
            230 |              681 |            40840 |  3842124264 |  724721732338216 |       14912 |      825379
            231 |              696 |            41752 |  3838469632 |  690364505113928 |       14873 |      968632
            232 |              722 |            43328 |  3842581876 |  616217557290236 |        9823 |      818460
            233 |              793 |            47560 |  3840407448 |  755911649230576 |       13353 |     1190356
            234 |              765 |            45908 |  3834155648 |  768138133372664 |       16625 |      910905
            235 |              807 |            48440 |  3838310176 |  710921584862008 |       13260 |      871898
            236 |              761 |            45688 |  3848445340 |  804001484435652 |       12753 |      982959
            237 |              754 |            45216 |  3840439260 |  931854243624892 |       14026 |     1188365
            238 |              719 |            43112 |  3838821432 |  687910695699648 |       12320 |      985321
            239 |              790 |            47384 |  3839556500 |  506352815983388 |       11470 |      639757
            240 |              692 |            41548 |  3840977944 |  705580329371232 |       12837 |     1151629
            241 |              547 |            32792 |  3840888364 |  928226469518780 |       12287 |     1036127
            242 |              551 |            33036 |  3839365032 |  928995173590968 |       20630 |     1050418
            243 |              613 |            36784 |  3819950784 |  991354381925208 |       18207 |     1217427
            244 |              643 |            38604 |  3860116932 |  896135256059052 |       14696 |     1049548
            245 |              640 |            38412 |  3834400196 |  691822744154868 |        9311 |      792933
            246 |              635 |            38084 |  3843140876 |  605471947079892 |       11684 |      841251
            247 |              668 |            40088 |  3840401892 |  569498335283940 |       16002 |      784090
            248 |              689 |            41356 |  3838809824 |  601350420977880 |       16170 |      824553
            249 |              717 |            43004 |  3839945504 |  541809249121696 |        9483 |      766765
            250 |              673 |            40368 |  3842327620 |  531131558360900 |       11452 |      769014
            251 |              649 |            38956 |  3835910016 |  574887232011056 |       13660 |      847957
            252 |              677 |            40644 |  3837130960 |  523004494941592 |       15549 |      711582
            253 |              660 |            39576 |  3846785160 |  532842711950928 |        9570 |      753645
            254 |              685 |            41076 |  3838041976 |  467732753453608 |       17714 |      577558
            255 |              649 |            38956 |  3840870336 |  557063793918344 |       16462 |      671503
            256 |              676 |            40556 |  3831793016 |  484845293916056 |        9448 |      503844
            257 |              666 |            39972 |  3848613800 |  736724524621400 |        9544 |      899449
            258 |              624 |            37464 |  3838725552 |  827871678888104 |       10204 |      912635
            259 |              640 |            38388 |  3841439452 |  748446182869812 |       15168 |      731150
            260 |              686 |            41148 |  3841149276 |  649474927324148 |       17073 |      714291
            261 |              699 |            41960 |  3839026524 |  669590019831700 |       17781 |      791099
            262 |              732 |            43944 |  3833044636 |  643578863717588 |       12275 |      805941
            263 |              794 |            47612 |  3847337816 |  715163292665968 |       10290 |      906730
            264 |              815 |            48896 |  3835963348 |  808632737369964 |       14922 |      992518
            265 |              790 |            47372 |  3843150620 |  795204703491380 |       12817 |     1558437
            266 |              693 |            41604 |  3839058224 |  663299634406968 |       13886 |      918277
            267 |              670 |            40176 |  3840687992 |  629336096411216 |       18967 |      893774
            268 |              647 |            38840 |  3838060512 |  622872737757216 |       17583 |      976629
            269 |              689 |            41316 |  3842208640 |  526626428216896 |       14345 |      679785
            270 |              627 |            37648 |  3839400576 |  737624857130456 |       18005 |      888711
            271 |              611 |            36684 |  3841413416 |  808366576453512 |       12557 |     1147188
            272 |              523 |            31352 |  3838438288 |  860635121364560 |       20799 |     1045979
            273 |              530 |            31772 |  3838597456 | 1079715888338016 |           0 |     1613644
            274 |              572 |            34336 |  3841825856 |  864625269823256 |       17782 |      926542
            275 |              588 |            35272 |  3840569552 |  703302977558624 |       12367 |      784830
            276 |              567 |            34028 |  3840474852 |  800339297493564 |       15541 |      966125
            277 |              619 |            37148 |  3838154676 |  698591362124964 |       10130 |     1035406
            278 |              638 |            38264 |  3836270836 |  628772000119852 |       18260 |      864185
            279 |              665 |            39880 |  3844395496 |  586316861941744 |       10376 |      878044
            280 |              648 |            38908 |  3840243232 |  690410775773992 |       16441 |      984686
            281 |              621 |            37288 |  3839261376 |  670867936123768 |       10929 |      943613
            282 |              621 |            37264 |  3839639400 |  715010198458048 |           0 |     1242514
            283 |              577 |            34604 |  3842314712 |  779598198440408 |        7955 |     1075479
            284 |              632 |            37892 |  3840453688 |  689073605268152 |        9509 |      947488
            285 |              651 |            39076 |  3840024704 |  607048755881912 |       17923 |      828429
            286 |              643 |            38596 |  3839715112 |  685385598893144 |       18200 |      933098
            287 |              635 |            38104 |  3839826824 |  776418901440232 |       17773 |     1072881
            288 |              641 |            38480 |  3838116252 |  737833875047892 |        9467 |      993224
            289 |              564 |            33860 |  3840429228 |  857622021180612 |       17406 |     1054810
            290 |              582 |            34924 |  3835828696 |  751514047273600 |        8611 |      873605
            291 |              555 |            33296 |  3842449652 |  858494751946556 |       15142 |     1461367
            292 |              615 |            36900 |  3844661752 |  697801082669352 |       15617 |      874267
            293 |              644 |            38652 |  3808170952 |  631353592744240 |       15721 |      993116
            294 |              606 |            36336 |  3869156704 |  783211789444240 |       18469 |      945349
            295 |              622 |            37336 |  3841751848 |  747464843545520 |       11946 |      744283
            296 |              625 |            37476 |  3838809584 |  702258797103744 |        9261 |      669872
            297 |              646 |            38768 |  3798489408 |  602818974492552 |       14713 |      605523
            298 |              622 |            37300 |  3880785700 |  700907619481084 |       13174 |      978615
            299 |              635 |            38076 |  3841081356 |  640266180266276 |       17576 |     1064717
            300 |              573 |            34408 |  3821039120 |  903000065322312 |       16276 |     1159204
            301 |              579 |            34756 |  3858486128 |  887117389636184 |       16807 |     1330411
            302 |              587 |            35196 |  3839831716 |  877024083731228 |       15400 |     1230841
            303 |              590 |            35392 |  3838774968 |  821929087875344 |       14201 |      925568
            304 |              582 |            34920 |  3838358300 |  646838143668908 |        9796 |      805811
            305 |              556 |            33336 |  3842300484 |  762780714387276 |       14081 |      859314
            306 |              600 |            36016 |  3812262564 |  682653689355604 |       17834 |      843392
            307 |              609 |            36536 |  3869880492 |  796728421350692 |       11667 |     1334397
            308 |              597 |            35792 |  3830979500 |  775969056577244 |       15234 |      984509
            309 |              603 |            36208 |  3845376280 |  738164812375968 |       17645 |     1082327
            310 |              589 |            35352 |  3842732524 |  784945245901460 |           0 |     1228487
            311 |              620 |            37196 |  3839718984 |  696479138171440 |       17489 |     1113266
            312 |              600 |            36012 |  3839962288 |  741020332103256 |       13374 |     1000280
            313 |              602 |            36128 |  3839934524 |  648733740051652 |       16227 |      981028
            314 |              590 |            35416 |  3836351544 |  757821197161592 |       16450 |     1117541
            315 |              570 |            34220 |  3843805196 |  762199579154516 |       15321 |     1029529
            316 |              588 |            35280 |  3838474304 |  772955532857120 |        9525 |     1045812
            317 |              601 |            36048 |  3830877140 |  620714448640356 |       17039 |      965476
            318 |              550 |            33004 |  3840176012 |  836255893878628 |       17863 |      979402
            319 |              569 |            34164 |  3851179180 |  736760872262604 |        9772 |      948635
            320 |              534 |            32056 |  3837506636 |  825886907417036 |       19414 |     1100361
            321 |              560 |            33608 |  3825436844 |  782389089414740 |       11816 |      878224
            322 |              591 |            35440 |  3851046128 |  740453716149240 |       16469 |      924860
            323 |              618 |            37072 |  3809620204 |  692444378602012 |       16585 |      908563
            324 |              610 |            36572 |  3871259428 |  817156475748604 |       12572 |      992702
            325 |              626 |            37580 |  3842921604 |  667873466695964 |       15383 |      825923
            326 |              588 |            35256 |  3838867752 |  757414085797416 |        9718 |      862309
            327 |              540 |            32404 |  3843473128 |  773186519337880 |       15072 |      899328
            328 |              544 |            32612 |  3839823744 |  878992740605736 |       18083 |     1045984
            329 |              583 |            35000 |  3838314616 |  675943115874736 |       10912 |      867842
            330 |              573 |            34396 |  3842057616 |  792322629285984 |       10896 |     1099143
            331 |              550 |            33008 |  3839927032 |  876129190448472 |       17872 |     1069428
            332 |              595 |            35704 |  3838036352 |  847821331935752 |       15407 |     1233373
            333 |              674 |            40440 |  3840807648 |  701748857379848 |       10689 |     1040961
            334 |              664 |            39860 |  3841680844 |  766994508140772 |        9242 |     1379755
            335 |              580 |            34780 |  3840237672 |  851655613902280 |       15943 |     1331451
            336 |              548 |            32908 |  3838629404 |  890447207285548 |           0 |     1232564
            337 |              593 |            35604 |  3841484796 |  767819426406412 |       15414 |     1080998
            338 |              671 |            40236 |  3838110880 |  653543623742312 |       13802 |     1068630
            339 |              684 |            41056 |  3819623212 |  650763464811676 |        9538 |     1170458
            340 |              753 |            45208 |  3861405792 |  662601667897992 |       12554 |      999906
            341 |              538 |            32268 |  3838158408 |  868796949687528 |        8783 |      988763
            342 |              484 |            29044 |  3841436520 |  896323110622768 |       17786 |      916098
            343 |              463 |            27800 |  3839046400 |  998878652524752 |       17175 |     1294208
            344 |              484 |            29048 |  3836905536 |  859497260809016 |       31145 |     1031672
            345 |              429 |            25728 |  3826360760 | 1120857947257000 |       17574 |     1092866
            346 |              422 |            25304 |  3855037040 | 1182368066295800 |       26232 |     1129096
            347 |              440 |            26416 |  3840332692 | 1194446474797724 |           0 |     1551046
            348 |              422 |            25316 |  3839989972 | 1243192075438836 |       18774 |     1249730
            349 |              400 |            23984 |  3840755024 | 1393724571532840 |           0 |     1767211
            350 |              376 |            22536 |  3840267596 | 1236072591187964 |        9760 |     1195664
            351 |              357 |            21416 |  3830513036 | 1518610592315628 |           0 |     1972985
            352 |              370 |            22220 |  3848303368 | 1235241028496168 |       16585 |     1133059
            353 |              408 |            24508 |  3836548248 | 1204919463312928 |       10635 |     1332363
            354 |              396 |            23780 |  3844058668 | 1352996562551924 |           0 |     1624318
            355 |              422 |            25312 |  3841738724 | 1396130090738780 |           0 |     1701221
            356 |              444 |            26668 |  3839422568 | 1181863172708848 |       18120 |     1234670
            357 |              431 |            25880 |  3827802932 | 1074697372978068 |       22791 |     1197907
            358 |              423 |            25364 |  3848528116 | 1198828323244828 |       22248 |     1323711
            359 |              445 |            26680 |  3841545100 | 1124803083982084 |       25877 |     1178893
(360 rows)

