 interval_start | avg_transactions | num_transactions | sum_latency | sum_latency_2  | min_latency | max_latency 
----------------+------------------+------------------+-------------+----------------+-------------+-------------
              0 |            70556 |          4233372 |  3825560324 | 20540809194244 |         299 |       36966
              1 |            79337 |          4760208 |  3839994812 | 20001178754644 |         279 |       38245
              2 |            85632 |          5137920 |  3839796804 | 17261345940372 |         285 |       35485
              3 |            93522 |          5611348 |  3840211040 | 16830106626448 |         288 |       40361
              4 |            91117 |          5467004 |  3839150680 | 16959475240800 |         273 |       28157
              5 |            75179 |          4510728 |  3840843204 | 21199435690276 |         284 |       39010
              6 |            80949 |          4856916 |  3839203920 | 20328586078920 |         276 |       32526
              7 |            87400 |          5243972 |  3840792900 | 18910213741012 |         290 |       35757
              8 |            94744 |          5684648 |  3839999092 | 18042837455356 |         286 |       39711
              9 |            88444 |          5306656 |  3840008824 | 17986571158368 |         286 |       31093
             10 |            78787 |          4727240 |  3839998376 | 21250819030904 |         278 |       33072
             11 |            84933 |          5095960 |  3840003860 | 19703852608620 |         286 |       42213
             12 |            92972 |          5578308 |  3840002144 | 19063640752752 |         284 |       39646
             13 |            94814 |          5688816 |  3840003796 | 16966997026844 |         274 |       26378
             14 |            93400 |          5603972 |  3840003904 | 17882644633912 |         278 |       50559
             15 |            83619 |          5017152 |  3839227532 | 20345262520636 |         284 |       40785
             16 |            88244 |          5294652 |  3840765024 | 19305171073384 |         280 |       47847
             17 |            94366 |          5661932 |  3839984388 | 17924438995772 |         284 |       51867
             18 |            99108 |          5946456 |  3840004980 | 16717686137580 |         284 |       42533
             19 |            99898 |          5993888 |  3840008280 | 15404458690360 |         290 |       37655
             20 |            85566 |          5133976 |  3839994600 | 18819223319384 |         286 |       64062
             21 |            91218 |          5473104 |  3839993904 | 18374651838688 |         283 |       31249
             22 |            95355 |          5721280 |  3839024200 | 17406534590840 |         278 |       37923
             23 |            98754 |          5925212 |  3840980328 | 16321417642264 |         288 |       46916
             24 |           100619 |          6037164 |  3840003252 | 14792522738740 |         280 |       51216
             25 |           100265 |          6015872 |  3839685396 | 15773180633340 |         284 |       57691
             26 |            89869 |          5392124 |  3840310900 | 18474147140092 |         277 |       41309
             27 |            92886 |          5573188 |  3839035220 | 17306516358404 |         282 |       28499
             28 |            96231 |          5773868 |  3840868792 | 16284212802600 |         296 |       47454
             29 |            99685 |          5981124 |  3840093104 | 15258360246416 |         290 |       42996
             30 |           104369 |          6262112 |  3839772684 | 14230479696340 |         286 |       37316
             31 |            97272 |          5836320 |  3840227328 | 15732224294056 |         294 |       38741
             32 |            90430 |          5425820 |  3839997532 | 17785072260900 |         272 |       32186
             33 |            96606 |          5796384 |  3839998168 | 17121330636904 |         280 |       57645
             34 |            97975 |          5878476 |  3840007520 | 15668394822688 |         293 |       67281
             35 |            99901 |          5994064 |  3840001948 | 14776384089148 |         285 |      119346
             36 |           102661 |          6159640 |  3840000996 | 13867713377580 |         282 |       76005
             37 |            99101 |          5946044 |  3839983836 | 15303826994356 |         278 |       47879
             38 |            92598 |          5555864 |  3840006052 | 17764221874268 |         290 |       81750
             39 |            94893 |          5693568 |  3840005836 | 16635204562804 |         289 |       40151
             40 |            97629 |          5857712 |  3840010108 | 15628742532532 |         291 |       38367
             41 |           101717 |          6103004 |  3838782580 | 14441637359540 |         278 |       39086
             42 |           103419 |          6205148 |  3841213496 | 13639257433464 |         282 |       76078
             43 |           100872 |          6052296 |  3839999296 | 14352453390808 |         290 |       53299
             44 |            92711 |          5562664 |  3839994372 | 17826820703900 |         281 |       29987
             45 |            96207 |          5772428 |  3839991620 | 16899570467892 |         293 |       54232
             46 |            99904 |          5994216 |  3840010612 | 15732213104140 |         288 |      100919
             47 |           104462 |          6267728 |  3839995704 | 14947753742200 |         289 |       33421
             48 |           104033 |          6241980 |  3840006752 | 13939401097784 |         288 |       53398
             49 |           103121 |          6187256 |  3839749312 | 13846431025768 |         282 |       47946
             50 |            92563 |          5553752 |  3840238456 | 18214493177856 |         292 |       38607
             51 |            96164 |          5769856 |  3838913484 | 17101730928564 |         276 |       37777
             52 |            97499 |          5849936 |  3841086864 | 15743296398504 |         285 |       54825
             53 |           100865 |          6051884 |  3840008856 | 14742795643576 |         284 |       40642
             54 |           105324 |          6319464 |  3840005840 | 14034568512032 |         286 |       64768
             55 |           106682 |          6400912 |  3839952108 | 12732482007916 |         290 |       42267
             56 |            90420 |          5425196 |  3840043716 | 17801861920828 |         284 |       45789
             57 |            96423 |          5785376 |  3839719216 | 16800753888376 |         294 |       36066
             58 |            96921 |          5815252 |  3840277456 | 15789511251312 |         296 |      102820
             59 |           103356 |          6201372 |  3840008416 | 15588548714568 |         289 |      169086
             60 |           105797 |          6347816 |  3840006692 | 13741688846108 |         290 |       93369
             61 |           110230 |          6613820 |  3839982008 | 12824631453744 |         282 |       55192
             62 |            92707 |          5562396 |  3840008296 | 17482905011984 |         290 |       33639
             63 |            93994 |          5639664 |  3839990700 | 17112655628348 |         293 |       66423
             64 |            97810 |          5868628 |  3840005904 | 15854622061400 |         287 |       75883
             65 |            99907 |          5994400 |  3839383524 | 14772268821692 |         292 |       89121
             66 |           102228 |          6133676 |  3840369640 | 13761759948784 |         295 |       65417
             67 |           106472 |          6388336 |  3840248760 | 12883834196544 |         273 |       38198
             68 |            96328 |          5779656 |  3839986804 | 16328748125364 |         283 |      114281
             69 |            93759 |          5625560 |  3840002320 | 17307330960504 |         290 |       44556
             70 |            97028 |          5821688 |  3840001104 | 16243485493024 |         289 |       52786
             71 |           100351 |          6021056 |  3840010892 | 15269204497020 |         287 |       48550
             72 |           104791 |          6287456 |  3840000220 | 14943148840900 |         280 |      118427
             73 |           105493 |          6329596 |  3839984204 | 12791951710924 |         286 |       27575
             74 |            98085 |          5885088 |  3838855704 | 15227878211528 |         287 |       73468
             75 |            94278 |          5656708 |  3841160780 | 17345304692092 |         298 |       40197
             76 |            95631 |          5737864 |  3839990472 | 16299256593072 |         292 |       84499
             77 |           100237 |          6014240 |  3840011792 | 15952024736280 |         289 |       93575
             78 |           102310 |          6138580 |  3839979356 | 14449381836652 |         286 |       35874
             79 |           104618 |          6277060 |  3840012644 | 13160706239628 |         285 |       58752
             80 |           103412 |          6204716 |  3840001436 | 13924452283508 |         273 |       45640
             81 |            91195 |          5471692 |  3840011932 | 17548242007940 |         293 |       56905
             82 |            95268 |          5716088 |  3839999980 | 16208735806948 |         300 |       37041
             83 |           101806 |          6108384 |  3839994068 | 15540615785068 |         288 |       38239
             84 |           102247 |          6134796 |  3839994332 | 14500217942164 |         288 |       26899
             85 |           102642 |          6158500 |  3840002764 | 13404132755460 |         290 |       47715
             86 |           105480 |          6328792 |  3839993260 | 13485009809076 |         286 |      159377
             87 |            93780 |          5626784 |  3840009272 | 17799937691824 |         287 |       23856
             88 |            94334 |          5660036 |  3839007924 | 17117034912116 |         298 |       92459
             89 |            97607 |          5856436 |  3840990384 | 15595478168480 |         290 |       45400
             90 |           101797 |          6107840 |  3839995900 | 15379554939884 |         281 |      102029
             91 |           106806 |          6408356 |  3840010616 | 13849773251032 |         276 |       58728
             92 |           108729 |          6523740 |  3839999060 | 12919195558660 |         281 |       44786
             93 |            92790 |          5567420 |  3839983040 | 17687720251280 |         289 |       38704
             94 |            94963 |          5697772 |  3840007484 | 17142250721444 |         292 |       34684
             95 |            96512 |          5790716 |  3839996424 | 16422494079488 |         289 |       97368
             96 |           100505 |          6030280 |  3839998244 | 14967705999996 |         280 |       37817
             97 |           102759 |          6165536 |  3840015640 | 14944614321760 |         280 |      130592
             98 |           106977 |          6418632 |  3839371996 | 13670923181604 |         292 |      118244
             99 |            93344 |          5600620 |  3840233260 | 16357994108420 |         296 |      109449
            100 |            95733 |          5743992 |  3840140208 | 17628301306296 |         290 |       37742
            101 |            97518 |          5851108 |  3840243280 | 16360852443648 |         278 |       53533
            102 |            99287 |          5957224 |  3839991276 | 15158514362116 |         293 |       45300
            103 |           104357 |          6261444 |  3840012224 | 14380702185200 |         288 |       92491
            104 |           103341 |          6200452 |  3839998888 | 13516523727720 |         286 |       54307
            105 |            97024 |          5821412 |  3839964856 | 15264367818960 |         279 |       61578
            106 |            93451 |          5607032 |  3839263592 | 17505197715840 |         293 |       98681
            107 |            95973 |          5758372 |  3840771132 | 16575774679692 |         292 |       68368
            108 |            99246 |          5954764 |  3840002552 | 15361986830536 |         279 |       38983
            109 |           104411 |          6264684 |  3839999628 | 14483887622316 |         282 |       42971
            110 |           104695 |          6281672 |  3839999236 | 13254008348620 |         284 |       57144
            111 |           103537 |          6212240 |  3839999392 | 13821064352040 |         286 |       29668
            112 |            91224 |          5473424 |  3839277376 | 17645658079688 |         293 |      107436
            113 |            94989 |          5699344 |  3840307512 | 16471204627424 |         291 |       30500
            114 |            99251 |          5955080 |  3840414052 | 16119307284852 |         287 |       87197
            115 |           103299 |          6197964 |  3840008492 | 14480381136212 |         291 |       26800
            116 |           105129 |          6307716 |  3838981184 | 13672053780536 |         285 |       51420
            117 |           103896 |          6233760 |  3841011392 | 12826886955248 |         288 |      109666
            118 |            93839 |          5630344 |  3839524652 | 17925459030116 |         281 |       40065
            119 |            96190 |          5771428 |  3840484908 | 16833045865764 |         289 |      107578
            120 |           102017 |          6121004 |  3839988112 | 16297764312192 |         285 |       89618
            121 |           101103 |          6066200 |  3839637044 | 15297050703764 |         291 |       90412
            122 |           103731 |          6223856 |  3840365668 | 13711878977436 |         288 |      107159
            123 |           109152 |          6549124 |  3839988236 | 12436026470724 |         288 |       37609
            124 |            90026 |          5401564 |  3838999480 | 17382079538800 |         286 |       80727
            125 |            93099 |          5585920 |  3841017528 | 17168350736872 |         305 |      137082
            126 |            97240 |          5834416 |  3839996132 | 15954401255820 |         279 |       48529
            127 |           101981 |          6118852 |  3839993728 | 15119617536480 |         290 |       51409
            128 |           105450 |          6327016 |  3840011304 | 13976395931784 |         285 |       67093
            129 |           104443 |          6266576 |  3839993060 | 12662887201180 |         286 |       93034
            130 |            93743 |          5624608 |  3839997924 | 16433471289444 |         289 |       87459
            131 |            94044 |          5642636 |  3839997820 | 17142410505236 |         292 |      106255
            132 |            98062 |          5883724 |  3840002492 | 15981188243844 |         286 |       84203
            133 |            99353 |          5961204 |  3839269644 | 15846092007668 |         291 |      138451
            134 |           103038 |          6182260 |  3840730904 | 14265553240208 |         287 |       59971
            135 |           103848 |          6230868 |  3840009824 | 13003993729080 |         288 |       55611
            136 |           101485 |          6089120 |  3839232708 | 15314977377780 |         277 |       36681
            137 |            90398 |          5423868 |  3840766080 | 19115679405688 |         285 |       94739
            138 |            92597 |          5555808 |  3839476868 | 17191093938044 |         288 |       84598
            139 |            96676 |          5800572 |  3840502076 | 16068647515668 |         286 |       46848
            140 |            99605 |          5976280 |  3840013776 | 15044284919232 |         298 |       53497
            141 |           102483 |          6148976 |  3839998140 | 14003981833636 |         268 |       42368
            142 |            97095 |          5825708 |  3839599820 | 15534902840276 |         281 |       35939
            143 |            89933 |          5395972 |  3840399312 | 18079643676056 |         292 |       78989
            144 |            94454 |          5667252 |  3840002164 | 17166486724204 |         282 |       66905
            145 |            96849 |          5810916 |  3839993440 | 16072541218160 |         290 |       38073
            146 |            98674 |          5920460 |  3840007736 | 15255228124544 |         289 |       42053
            147 |           102998 |          6179856 |  3839996476 | 14302941336196 |         278 |       44398
            148 |            96280 |          5776796 |  3839999892 | 15938695227124 |         287 |      102482
            149 |            91029 |          5461732 |  3838910652 | 18020577482412 |         291 |       30165
            150 |            92230 |          5533828 |  3841062524 | 17752168765668 |         306 |      102057
            151 |            95796 |          5747760 |  3840024192 | 16458290107952 |         295 |       65682
            152 |            98965 |          5937892 |  3840011748 | 15698638840756 |         290 |       70544
            153 |            99113 |          5946796 |  3839996220 | 14956686830356 |         293 |       80441
            154 |            95126 |          5707560 |  3840006612 | 16646376009196 |         286 |       63727
            155 |            89456 |          5367352 |  3839965128 | 18720124746968 |         287 |       46262
            156 |            93705 |          5622280 |  3840024536 | 17994643104584 |         292 |       57520
            157 |            94539 |          5672340 |  3840000432 | 16869955633448 |         293 |       82623
            158 |            98088 |          5885264 |  3840004900 | 15426092458772 |         290 |       75738
            159 |           101136 |          6068168 |  3839996676 | 14348435963444 |         288 |       81109
            160 |            95659 |          5739524 |  3839728664 | 16399019941872 |         285 |       49069
            161 |            89888 |          5393292 |  3840269776 | 18285094921208 |         291 |       59627
            162 |            93250 |          5594972 |  3839621164 | 17310626088196 |         296 |       47826
            163 |            95774 |          5746468 |  3840381488 | 16146046340936 |         299 |       50450
            164 |           100473 |          6028368 |  3839999820 | 15172773368484 |         292 |       91549
            165 |            99184 |          5951032 |  3840000136 | 14296850120728 |         268 |       30666
            166 |            99350 |          5961024 |  3839999360 | 16800129384608 |         290 |       30145
            167 |            93357 |          5601444 |  3839983408 | 18721278720944 |         288 |       38893
            168 |            93013 |          5580792 |  3840016988 | 17811385618348 |         301 |       67285
            169 |            96753 |          5805208 |  3839994900 | 16718420419796 |         292 |      130262
            170 |            99986 |          5999180 |  3839960040 | 15752627053840 |         292 |       81909
            171 |           104089 |          6245320 |  3840033300 | 14751471050180 |         288 |       46926
            172 |            94077 |          5644620 |  3840015912 | 18372158696320 |         287 |       66526
            173 |            92666 |          5559944 |  3839216528 | 18745749343880 |         286 |       32921
            174 |            94163 |          5649768 |  3840779168 | 17572257939104 |         296 |      100600
            175 |            99355 |          5961320 |  3840000560 | 17203887186168 |         284 |       97643
            176 |            99367 |          5962012 |  3839925832 | 15463016795152 |         295 |       63397
            177 |           102538 |          6152260 |  3840074512 | 14530577256056 |         290 |      115025
            178 |            89732 |          5383924 |  3840001720 | 19574523355296 |         302 |       89412
            179 |            92793 |          5567560 |  3839997016 | 18387608804840 |         284 |       52404
            180 |            94295 |          5657704 |  3840003868 | 17468578664660 |         287 |       55057
            181 |            99232 |          5953932 |  3839800616 | 16602736295248 |         289 |       73806
            182 |           102668 |          6160092 |  3840197960 | 15267853609552 |         284 |       33970
            183 |           104632 |          6277896 |  3839842804 | 13940967381820 |         295 |       28893
            184 |            89978 |          5398680 |  3840156164 | 18868920064460 |         292 |       24667
            185 |            95027 |          5701592 |  3840002996 | 17878181018412 |         292 |       32766
            186 |            96123 |          5767368 |  3839779660 | 16407860403956 |         295 |       30990
            187 |           101399 |          6083912 |  3840223524 | 15288756176092 |         285 |       29983
            188 |           102259 |          6135564 |  3839292628 | 13992752335276 |         286 |       45676
            189 |           104015 |          6240916 |  3840702776 | 13230601891816 |         289 |       36445
            190 |            90144 |          5408616 |  3839983324 | 18626606352172 |         288 |       40836
            191 |            96056 |          5763372 |  3840009992 | 17595740415664 |         289 |       37044
            192 |            96539 |          5792356 |  3839998652 | 16326419231940 |         295 |       61786
            193 |           100019 |          6001132 |  3840008176 | 15233815440080 |         284 |       39079
            194 |           101361 |          6081672 |  3839998980 | 14326264602316 |         297 |       44536
            195 |           106038 |          6362264 |  3839985628 | 13470072781348 |         281 |       44272
            196 |            88919 |          5335144 |  3839994764 | 18607604544324 |         302 |       29136
            197 |            94557 |          5673396 |  3840020404 | 17436468799244 |         294 |       25390
            198 |            96646 |          5798744 |  3839999904 | 16144064378176 |         299 |       38514
            199 |           103106 |          6186380 |  3840001336 | 15206408253120 |         294 |       39526
            200 |           101846 |          6110732 |  3839998768 | 13915825414616 |         294 |       53970
            201 |           102750 |          6164980 |  3839970592 | 13409009263584 |         295 |       35837
            202 |            89952 |          5397100 |  3840027980 | 18555845234436 |         301 |       54541
            203 |            95020 |          5701196 |  3839984792 | 17425985341416 |         298 |       26858
            204 |            96588 |          5795264 |  3840005856 | 16689940491840 |         291 |       75162
            205 |           100542 |          6032496 |  3840010040 | 15311214439120 |         285 |       53325
            206 |           101798 |          6107860 |  3839999172 | 13892433598020 |         291 |       35245
            207 |           104690 |          6281388 |  3839998900 | 13279890173556 |         289 |       38411
            208 |            88750 |          5324984 |  3839987152 | 18408567994296 |         304 |       64155
            209 |            94944 |          5696664 |  3840013904 | 17862584956376 |         294 |       42423
            210 |            95891 |          5753452 |  3839894612 | 16268190976692 |         293 |       40962
            211 |           103378 |          6202688 |  3840104368 | 15183814662912 |         287 |       36665
            212 |           102157 |          6129432 |  3840000016 | 13826802868344 |         291 |       69653
            213 |           101423 |          6085392 |  3839986804 | 13257026262684 |         290 |       31233
            214 |            88732 |          5323924 |  3840014920 | 18449638696736 |         290 |       46034
            215 |            94194 |          5651616 |  3839997316 | 17654849751812 |         286 |       58309
            216 |            97502 |          5850140 |  3839985396 | 16260845035092 |         291 |       28954
            217 |           103277 |          6196620 |  3840011604 | 15209391918132 |         291 |       35986
            218 |           102512 |          6150696 |  3840002812 | 14022981018924 |         289 |       93495
            219 |           102847 |          6170812 |  3839993360 | 13834760919024 |         289 |       27108
            220 |            89971 |          5398248 |  3840007812 | 18563497558932 |         290 |       36930
            221 |            95191 |          5711472 |  3838897412 | 17567111892572 |         292 |       24759
            222 |            97194 |          5831664 |  3841106768 | 16584647206208 |         290 |       53538
            223 |           102300 |          6138020 |  3839080704 | 15248060699144 |         283 |       39140
            224 |           102153 |          6129172 |  3840908300 | 14053068975612 |         295 |       60612
            225 |           103089 |          6185312 |  3839999704 | 14039054008616 |         295 |       22578
            226 |            89183 |          5351008 |  3839437500 | 18372947959092 |         297 |       80682
            227 |            93299 |          5597948 |  3840573416 | 17315749947392 |         299 |       92529
            228 |            98593 |          5915592 |  3840000604 | 16390346993620 |         294 |       41744
            229 |            99685 |          5981076 |  3839436964 | 15146528184732 |         291 |      116322
            230 |           105246 |          6314756 |  3840559588 | 14163847926492 |         286 |       71365
            231 |           100157 |          6009400 |  3839998624 | 14333809717552 |         299 |       50719
            232 |            91093 |          5465564 |  3839990128 | 18607624122848 |         305 |       34026
            233 |            94314 |          5658820 |  3839170588 | 17646264657684 |         295 |       36898
            234 |            98796 |          5927752 |  3840844136 | 16041022147376 |         292 |       25379
            235 |           101445 |          6086708 |  3839992620 | 15083073020516 |         288 |       35628
            236 |           100986 |          6059164 |  3840002584 | 13726525009800 |         294 |       52372
            237 |           100328 |          6019684 |  3839996680 | 14507282720592 |         282 |       41293
            238 |            90890 |          5453420 |  3839979496 | 18287955987216 |         291 |       33160
            239 |            94362 |          5661700 |  3840027560 | 17961176686592 |         289 |      106250
            240 |            95125 |          5707484 |  3839185640 | 16349409740488 |         297 |       81015
            241 |            98452 |          5907128 |  3840808336 | 15702814522520 |         299 |       79869
            242 |           100286 |          6017144 |  3840003928 | 14859158795880 |         291 |       45998
            243 |            97934 |          5876024 |  3839984552 | 15547942804600 |         289 |       49049
            244 |            88045 |          5282712 |  3840017812 | 18716705849900 |         305 |       82178
            245 |            91692 |          5501500 |  3839991828 | 17806866330588 |         299 |       60194
            246 |            94156 |          5649364 |  3838776300 | 16480055578356 |         288 |       37966
            247 |            97347 |          5840848 |  3841234288 | 15592435884656 |         298 |       69617
            248 |           102549 |          6152924 |  3839991076 | 14505752891732 |         288 |       41006
            249 |            96494 |          5789640 |  3840002168 | 16261837957040 |         287 |       52624
            250 |            88254 |          5295268 |  3839496604 | 18534911224788 |         306 |       67796
            251 |            91707 |          5502408 |  3840503640 | 18035659423632 |         293 |       70230
            252 |            95713 |          5742772 |  3839994720 | 16534859088528 |         284 |       68944
            253 |           100119 |          6007148 |  3840004500 | 15977281130076 |         294 |       76003
            254 |            99213 |          5952808 |  3838958540 | 14634979369756 |         292 |       77956
            255 |            93860 |          5631572 |  3840861004 | 16847386405796 |         275 |       43200
            256 |            90726 |          5443544 |  3840162164 | 18804463045252 |         298 |       59518
            257 |            91045 |          5462696 |  3839460116 | 17686738492484 |         290 |       60317
            258 |            97746 |          5864736 |  3840558320 | 16539732300672 |         288 |       77005
            259 |            97914 |          5874836 |  3839980336 | 15280422707520 |         291 |       50964
            260 |           100476 |          6028540 |  3840022616 | 14691695643784 |         292 |       89635
            261 |            91456 |          5487376 |  3839530040 | 17011870866816 |         295 |       54017
            262 |            92166 |          5529948 |  3840460932 | 17949908585980 |         299 |       38721
            263 |            93784 |          5627068 |  3840006804 | 16989445232604 |         282 |       58676
            264 |            96817 |          5809012 |  3840004712 | 15773304332912 |         294 |       56436
            265 |            99225 |          5953516 |  3839996216 | 14978239884968 |         292 |       56600
            266 |           101285 |          6077112 |  3839986904 | 13658558878144 |         298 |       63814
            267 |            95486 |          5729176 |  3840000856 | 16272574277696 |         289 |       49457
            268 |            89174 |          5350452 |  3839999224 | 18579491066672 |         291 |       75546
            269 |            92989 |          5579368 |  3840008044 | 17672121035236 |         300 |       38270
            270 |            96664 |          5799844 |  3839992180 | 16364978594740 |         298 |       61956
            271 |           101556 |          6093380 |  3840002188 | 15338570723396 |         280 |      115442
            272 |           102382 |          6142900 |  3839388972 | 13923162955716 |         287 |       44920
            273 |            94932 |          5695916 |  3840627084 | 16628687332692 |         291 |       35376
            274 |            90496 |          5429748 |  3838828200 | 18487589442768 |         296 |      113737
            275 |            96805 |          5808284 |  3841159268 | 17507988995092 |         297 |       45509
            276 |            97808 |          5868508 |  3840001060 | 15964612570204 |         282 |       58009
            277 |           101416 |          6084964 |  3839889760 | 15223535891776 |         290 |       39165
            278 |           103329 |          6199732 |  3840118812 | 13757420748580 |         287 |       30790
            279 |            92427 |          5545632 |  3839996880 | 17570163871600 |         285 |       29348
            280 |            89677 |          5380596 |  3840001816 | 18494607355984 |         292 |       60478
            281 |            93874 |          5632428 |  3839537652 | 17702066952980 |         284 |       88183
            282 |            96525 |          5791504 |  3840459024 | 16098447199344 |         291 |      118331
            283 |           102800 |          6168024 |  3840003400 | 14973311865544 |         293 |       69085
            284 |           102152 |          6129136 |  3839997828 | 13592205284668 |         290 |       57537
            285 |            89808 |          5388496 |  3839996504 | 18132301261280 |         298 |       93594
            286 |            90359 |          5421512 |  3839348832 | 18314731292696 |         296 |       40976
            287 |            95309 |          5718520 |  3840627192 | 17271598239272 |         302 |       54629
            288 |           100319 |          6019140 |  3840027272 | 16247834685856 |         293 |       45612
            289 |           101419 |          6085136 |  3840000612 | 14812824328916 |         290 |       25042
            290 |           103969 |          6238112 |  3840003360 | 14469841981360 |         295 |       73163
            291 |            88620 |          5317184 |  3839571820 | 19107317976884 |         300 |       48960
            292 |            94327 |          5659636 |  3840423932 | 18544972824492 |         297 |       40447
            293 |            97047 |          5822824 |  3839997740 | 17470379192924 |         287 |       45256
            294 |            98970 |          5938228 |  3839999888 | 15965600425024 |         292 |       86511
            295 |           102339 |          6140368 |  3839942332 | 14782803480404 |         290 |       34396
            296 |           100346 |          6020788 |  3840046948 | 14806829177212 |         295 |       33163
            297 |            87717 |          5263044 |  3840008452 | 18776089600756 |         303 |       34977
            298 |            91000 |          5459988 |  3839323296 | 17602475453288 |         298 |       50509
            299 |            95464 |          5727848 |  3839869972 | 16691543016060 |         294 |       31691
            300 |            99943 |          5996552 |  3840092172 | 15459800443724 |         298 |       27164
            301 |           100009 |          6000544 |  3840710768 | 14832030728000 |         294 |       81714
            302 |            98008 |          5880492 |  3839998040 | 15614172841096 |         294 |       38491
            303 |            88157 |          5289432 |  3840006052 | 19362588884684 |         303 |      115160
            304 |            91829 |          5509724 |  3839988944 | 18143982597008 |         299 |       91622
            305 |            98004 |          5880240 |  3840020492 | 16789756602556 |         294 |       41076
            306 |            98656 |          5919384 |  3839649384 | 15454713310424 |         291 |       40076
            307 |           102294 |          6137664 |  3840342940 | 14494563669636 |         288 |       38280
            308 |            97266 |          5835988 |  3839735096 | 16791518847008 |         295 |       39314
            309 |            90941 |          5456432 |  3840265248 | 18726654455856 |         286 |       48150
            310 |            94653 |          5679200 |  3840001412 | 17419811899036 |         285 |       80752
            311 |            97538 |          5852284 |  3840002676 | 16408155005012 |         297 |       59121
            312 |            99389 |          5963324 |  3839991816 | 15377509839808 |         294 |       48166
            313 |           100909 |          6054552 |  3840003668 | 13983317544740 |         292 |       38526
            314 |            91967 |          5518036 |  3839658948 | 17955590439308 |         292 |       43813
            315 |            91295 |          5477712 |  3840337452 | 18860967690604 |         290 |       43595
            316 |            93107 |          5586396 |  3840006736 | 17619052021696 |         294 |       96553
            317 |            96179 |          5770736 |  3839996040 | 16600655407936 |         289 |       62768
            318 |            99412 |          5964728 |  3838925860 | 15104898044636 |         294 |       43025
            319 |           104228 |          6253676 |  3841081048 | 13863319240992 |         297 |       33514
            320 |            86801 |          5208084 |  3838815884 | 19039045476892 |         299 |       63491
            321 |            91576 |          5494564 |  3841178412 | 18412371500580 |         288 |       74471
            322 |            93741 |          5624444 |  3839032932 | 17090925330492 |         298 |       86974
            323 |            98458 |          5907504 |  3840961464 | 16072660506080 |         303 |      115125
            324 |            99962 |          5997716 |  3840010728 | 15338844614824 |         292 |       87309
            325 |            98971 |          5938276 |  3840009332 | 14612789169724 |         296 |       36420
            326 |            88991 |          5339488 |  3839990260 | 19472129767212 |         301 |      128317
            327 |            92098 |          5525896 |  3840002136 | 18240831336496 |         291 |       58367
            328 |            93648 |          5618896 |  3839999316 | 17181617392116 |         298 |      103104
            329 |            98647 |          5918796 |  3839995700 | 16033053149460 |         291 |       36894
            330 |           100661 |          6039680 |  3840001684 | 14933728549228 |         287 |      122162
            331 |            97396 |          5843784 |  3839301584 | 16100436716792 |         297 |       89223
            332 |            87827 |          5269640 |  3839596508 | 19198882658436 |         292 |       87380
            333 |            92004 |          5520264 |  3841097732 | 18455253447676 |         296 |       85003
            334 |            94030 |          5641784 |  3839994524 | 16645215783188 |         306 |       61027
            335 |            98732 |          5923924 |  3840010024 | 15745195027040 |         294 |       24703
            336 |           102849 |          6170952 |  3840002816 | 15028041956608 |         290 |       25605
            337 |            92581 |          5554868 |  3840001408 | 18160112508920 |         287 |       57667
            338 |            89174 |          5350456 |  3839988612 | 19114178929604 |         292 |       36063
            339 |            93758 |          5625500 |  3840008640 | 18334249168536 |         302 |       67570
            340 |            94240 |          5654376 |  3839988672 | 17018219640920 |         302 |       61256
            341 |            96703 |          5802200 |  3840009196 | 15530226707124 |         298 |       56340
            342 |           100746 |          6044760 |  3840004176 | 14327840737448 |         296 |       39712
            343 |            87731 |          5263868 |  3839996140 | 19222389808412 |         295 |       87759
            344 |            90686 |          5441148 |  3839996508 | 18605706994068 |         291 |       38963
            345 |            91645 |          5498704 |  3840000596 | 17925658928436 |         302 |       55341
            346 |            94372 |          5662324 |  3840002912 | 17015252807376 |         300 |       53127
            347 |            96569 |          5794112 |  3839997084 | 15969521422564 |         297 |       54269
            348 |            94353 |          5661196 |  3839991260 | 16429386158356 |         303 |       45266
            349 |            85281 |          5116880 |  3840008040 | 19702944009960 |         304 |       48438
            350 |            90260 |          5415600 |  3840001944 | 18825282528656 |         300 |       71728
            351 |            92377 |          5542604 |  3840005900 | 17805251432428 |         292 |       90996
            352 |            94741 |          5684460 |  3839633032 | 16772439262216 |         288 |       76503
            353 |            97318 |          5839060 |  3840358080 | 15614128526312 |         279 |       64536
            354 |            90245 |          5414692 |  3840003032 | 17570304315752 |         300 |       47158
            355 |            88135 |          5288080 |  3839063032 | 19603808213544 |         306 |       73841
            356 |            88969 |          5338136 |  3840948684 | 18314703737660 |         311 |       65915
            357 |            92412 |          5544728 |  3839984216 | 17334071954688 |         285 |       39691
            358 |            95675 |          5740524 |  3839999776 | 16488580251792 |         292 |       76996
            359 |            99454 |          5967232 |  3840005460 | 15651938881540 |         300 |       65894
(360 rows)

