 interval_start | avg_transactions | num_transactions | sum_latency |  sum_latency_2   | min_latency | max_latency 
----------------+------------------+------------------+-------------+------------------+-------------+-------------
              0 |            45470 |          2728220 |  3835162420 |   86628589708396 |         303 |     1100507
              1 |            41644 |          2498664 |  3840019744 | 1370469136965032 |           0 |     3420736
              2 |            44325 |          2659496 |  3840005000 | 2744297870445792 |           0 |     6145422
              3 |            46929 |          2815712 |  3840000080 | 2353986962289064 |           0 |     5609696
              4 |            49718 |          2983108 |  3840008588 | 2891555256506316 |           0 |     6055517
              5 |            42921 |          2575268 |  3839998860 | 2324525739714020 |           0 |     6213730
              6 |            44688 |          2681300 |  3840007592 | 1957048447136088 |           0 |     5151127
              7 |            48611 |          2916632 |  3839193192 | 2204915788831104 |           0 |     6104787
              8 |            49924 |          2995452 |  3840819704 | 2697709443228552 |           0 |     6400387
              9 |            49226 |          2953548 |  3839998472 | 1941303148778616 |           0 |     5497876
             10 |            45633 |          2737980 |  3839957308 | 2345717833955956 |           0 |     6845028
             11 |            45149 |          2708912 |  3840057348 | 1587699503924332 |           0 |     5679522
             12 |            45702 |          2742104 |  3773001168 | 1561575937316832 |           0 |     5813465
             13 |            51944 |          3116656 |  3906396352 | 1768550944303104 |           0 |     6144534
             14 |            49868 |          2992088 |  3840592752 | 2099368471816448 |           0 |     6107194
             15 |            50305 |          3018288 |  3839982940 | 1552253887261900 |           0 |     4620086
             16 |            45597 |          2735832 |  3840017372 | 1715322809631940 |           0 |     5118078
             17 |            48195 |          2891688 |  3840005476 | 1595446096177612 |           0 |     5838849
             18 |            49231 |          2953856 |  3840000884 | 1431135325954620 |           0 |     4773522
             19 |            52866 |          3171980 |  3839957064 | 1252975063424128 |           0 |     4684464
             20 |            56862 |          3411712 |  3840028232 |  584637841505216 |           0 |     2499767
             21 |            49598 |          2975860 |  3839982440 | 1667644593645904 |           0 |     4729487
             22 |            50889 |          3053324 |  3839994552 | 1560746023584664 |           0 |     5500913
             23 |            50303 |          3018208 |  3840003856 | 2078502612000696 |           0 |     5524979
             24 |            52287 |          3137216 |  3840025328 | 1598257208124232 |           0 |     5154716
             25 |            54629 |          3277748 |  3838593320 | 1983918432409608 |           0 |     5214268
             26 |            55106 |          3306364 |  3840749400 | 2138615631989864 |           0 |     5936699
             27 |            49436 |          2966160 |  3840656036 | 1103833171823860 |           0 |     4697737
             28 |            52298 |          3137860 |  3839985236 |  860428674829628 |           0 |     3323674
             29 |            49405 |          2964320 |  3772599368 | 2047099875253200 |           0 |     4271438
             30 |            56333 |          3379980 |  3713873660 |  463456908548852 |           0 |     4817761
             31 |            54811 |          3288632 |  4033525568 | 2438484848133936 |           0 |     5133684
             32 |            60695 |          3641700 |  3798630920 |  166584272373448 |         315 |     1109190
             33 |            50834 |          3050056 |  3876205552 | 2220185327320704 |           0 |     5841731
             34 |            52376 |          3142532 |  3845188804 | 1307695900108908 |           0 |     4023906
             35 |            52571 |          3154284 |  3840008256 | 1103091755581752 |           0 |     4355111
             36 |            55819 |          3349164 |  3839964360 | 1381475269964840 |           0 |     5354706
             37 |            56682 |          3400944 |  3839976728 | 1881566366602032 |           0 |     5662402
             38 |            58915 |          3534900 |  3840033152 | 1663061228628296 |           0 |     4991420
             39 |            51654 |          3099228 |  3839962116 | 1725229811223876 |           0 |     5043715
             40 |            53093 |          3185604 |  3840047196 | 1253227744391436 |           0 |     4537602
             41 |            55210 |          3312588 |  3840013184 | 1198388914455736 |           0 |     4303075
             42 |            55816 |          3348988 |  3839976960 | 1531015591371192 |           0 |     4638888
             43 |            57699 |          3461956 |  3840005824 | 1388174579396944 |           0 |     3876224
             44 |            57712 |          3462708 |  3839978708 | 2074760851446748 |           0 |     5485351
             45 |            57592 |          3455548 |  3840019000 |  938618925606824 |           0 |     4338072
             46 |            53927 |          3235620 |  3840011708 |  981281169447164 |           0 |     4352365
             47 |            55410 |          3324624 |  3839982352 |  920629649145904 |           0 |     4197574
             48 |            55753 |          3345168 |  3840001880 | 1516828476234480 |           0 |     4640097
             49 |            58324 |          3499456 |  3840004980 | 1218024831128644 |           0 |     4534723
             50 |            58561 |          3513632 |  3838916852 | 2166877788706404 |           0 |     5621003
             51 |            59689 |          3581368 |  3840266396 |  428167310968660 |           0 |     2014758
             52 |            52556 |          3153380 |  3840803768 | 1061517275693968 |           0 |     4186450
             53 |            55896 |          3353768 |  3840009340 | 1648458270260228 |           0 |     4900492
             54 |            57359 |          3441532 |  3839990944 | 1395898690525344 |           0 |     5298142
             55 |            57441 |          3446464 |  3805595484 | 1296199900440012 |           0 |     4934522
             56 |            59000 |          3539980 |  3874414104 | 1814911686533832 |           0 |     5119048
             57 |            61574 |          3694468 |  3840020028 |  323309121858684 |           0 |     1836207
             58 |            53814 |          3228820 |  3839954652 | 1252709045782500 |           0 |     4554843
             59 |            53466 |          3207980 |  3840013512 | 1250307973843016 |           0 |     4555533
             60 |            54989 |          3299356 |  3840016292 | 1411667235687972 |           0 |     4517317
             61 |            56208 |          3372504 |  3840018852 | 1939681338334836 |           0 |     5353673
             62 |            58155 |          3489280 |  3839970864 | 1363779279269768 |           0 |     4542787
             63 |            60046 |          3602780 |  3840008588 | 1466311369451748 |           0 |     5481509
             64 |            58320 |          3499172 |  3840013464 | 1547435664724752 |           0 |     4642831
             65 |            52635 |          3158116 |  3840004168 |  883778101168080 |           0 |     4227400
             66 |            52961 |          3177636 |  3839977116 | 1611829655121636 |           0 |     4859706
             67 |            57957 |          3477448 |  3839991220 | 1544511983640556 |           0 |     4897331
             68 |            62485 |          3749116 |  3840000632 |  452286566362584 |           0 |     2287358
             69 |            54100 |          3245996 |  3840000800 | 2501486698480256 |           0 |     5022846
             70 |            61583 |          3694952 |  3840026068 |  561933520175988 |           0 |     3133656
             71 |            55971 |          3358260 |  3839949576 |  899083252235392 |           0 |     3763546
             72 |            53777 |          3226616 |  3840037396 | 1162609276479988 |           0 |     3957582
             73 |            54554 |          3273216 |  3840014764 | 1013634028152764 |           0 |     3949902
             74 |            58187 |          3491240 |  3752149820 |  495848708758404 |           0 |     2588772
             75 |            61273 |          3676360 |  3821291328 |  871056450061264 |           0 |     5003048
             76 |            60818 |          3649104 |  3886933692 | 1431135055619868 |           0 |     5380045
             77 |            64537 |          3872208 |  3899619892 |  790916440604300 |           0 |     3196228
             78 |            54896 |          3293768 |  3839970848 | 1765798837821280 |           0 |     5140389
             79 |            56238 |          3374288 |  3839992164 | 1150345626876740 |           0 |     3839243
             80 |            57218 |          3433096 |  3840017292 | 1201643481008404 |           0 |     4959298
             81 |            59752 |          3585104 |  3838492984 | 1771500114032488 |           0 |     5091514
             82 |            57711 |          3462684 |  3841507356 | 1290820494503276 |           0 |     2780583
             83 |            60580 |          3634808 |  3840023160 | 2000877267207032 |           0 |     5467923
             84 |            53047 |          3182832 |  3839995216 | 1482330527618816 |           0 |     5253049
             85 |            56938 |          3416292 |  3839959592 | 1208583248445240 |           0 |     4483265
             86 |            56104 |          3366228 |  3840029672 | 1692524979660912 |           0 |     5004400
             87 |            57261 |          3435644 |  3839980548 | 1642647941170012 |           0 |     4884395
             88 |            60044 |          3602648 |  3839999960 | 1379326632093304 |           0 |     3756032
             89 |            60513 |          3630764 |  3840038064 | 1551585070450752 |           0 |     4791770
             90 |            57788 |          3467304 |  3839991076 | 1354662130409148 |           0 |     4288687
             91 |            52622 |          3157336 |  3840001560 | 1241029897460536 |           0 |     4192311
             92 |            55885 |          3353076 |  3839971680 | 1578749254127752 |           0 |     4790988
             93 |            56537 |          3392208 |  3840021592 | 1154526618221048 |           0 |     4819778
             94 |            58837 |          3530228 |  3839995676 | 1259059151828652 |           0 |     5019567
             95 |            59898 |          3593904 |  3839985300 | 1994954169906588 |           0 |     5308581
             96 |            62628 |          3757656 |  3840028116 |  219176578655852 |           0 |     1557160
             97 |            52734 |          3164040 |  3839971776 |  962949651368216 |           0 |     4107115
             98 |            55066 |          3303988 |  3833820832 | 1001733221646048 |           0 |     3808811
             99 |            55052 |          3303104 |  3846196632 |  975748987829888 |           0 |     4211837
            100 |            57908 |          3474496 |  3839988540 | 1370026056886228 |           0 |     4276671
            101 |            58715 |          3522900 |  3840032388 | 1462346209640444 |           0 |     4557524
            102 |            57575 |          3454508 |  3839982460 | 1562328472398004 |           0 |     5578909
            103 |            58182 |          3490932 |  3839983200 | 2126475170106768 |           0 |     5677742
            104 |            53533 |          3211960 |  3839987068 |  636243844220572 |           0 |     2039078
            105 |            54928 |          3295652 |  3840011412 |  996144539245212 |           0 |     3575559
            106 |            53390 |          3203380 |  3840014292 | 1950976184001580 |           0 |     4557098
            107 |            57796 |          3467740 |  3840005588 | 1450438455724276 |           0 |     4451920
            108 |            59856 |          3591340 |  3839617288 | 1416087302878936 |           0 |     5288284
            109 |            62411 |          3744676 |  3840266800 |  590687882564288 |           0 |     3209500
            110 |            54555 |          3273300 |  3840060424 | 1066767230337880 |           0 |     3611304
            111 |            53146 |          3188784 |  3840031248 | 1612187731200864 |           0 |     4903353
            112 |            53906 |          3234360 |  3840009748 | 1206645820165380 |           0 |     4887021
            113 |            56896 |          3413788 |  3840008332 | 1406853523185740 |           0 |     4729795
            114 |            61800 |          3708012 |  3646085652 |  545869910365812 |           0 |     2697315
            115 |            59739 |          3584344 |  4033898204 | 1594049367587356 |           0 |     5395154
            116 |            63609 |          3816548 |  3729987336 |  180293974742992 |           0 |     2088132
            117 |            53902 |          3234124 |  3900912756 | 1381298564816820 |           0 |     4497707
            118 |            56894 |          3413648 |  3889102416 | 1683191599947928 |           0 |     5026507
            119 |            56155 |          3369280 |  3840032628 | 1171647511328580 |           0 |     3906210
            120 |            61973 |          3718396 |  3839969644 | 1591887523080524 |           0 |     4688921
            121 |            60187 |          3611240 |  3839237116 | 1459135016702620 |           0 |     4449498
            122 |            58647 |          3518816 |  3840778580 | 1210026579540684 |           0 |     4882211
            123 |            52183 |          3130960 |  3839989048 | 1994009843837968 |           0 |     5548859
            124 |            52774 |          3166444 |  3839999876 | 1456730051072988 |           0 |     4717441
            125 |            54420 |          3265188 |  3840024492 |  996713998070932 |           0 |     4477310
            126 |            55811 |          3348660 |  3839279068 | 1083319578507524 |           0 |     4621281
            127 |            57597 |          3455800 |  3840693864 | 1629062679767176 |           0 |     5197902
            128 |            58315 |          3498920 |  3840030088 | 1447088850767128 |           0 |     4531678
            129 |            51826 |          3109556 |  3839979252 |  884663832822612 |           0 |     4197405
            130 |            53679 |          3220752 |  3839993076 | 1215032897249924 |           0 |     4141632
            131 |            56605 |          3396328 |  3840003112 | 1487122710781632 |           0 |     5018503
            132 |            56448 |          3386884 |  3840025560 | 1041304230511216 |           0 |     4389849
            133 |            57330 |          3439820 |  3839985336 | 1216861012086008 |           0 |     4909488
            134 |            57585 |          3455112 |  3839992688 |  387943737816128 |         303 |     1951485
            135 |            53936 |          3236176 |  3839972672 |  728326632493024 |           0 |     3633506
            136 |            53496 |          3209760 |  3840047332 | 1516877731902860 |           0 |     4714065
            137 |            54353 |          3261168 |  3839988684 |  916396441743596 |           0 |     3023141
            138 |            56387 |          3383228 |  3839992168 | 1101134806131400 |           0 |     4390227
            139 |            57142 |          3428492 |  3839988620 | 1715867267056412 |           0 |     4961307
            140 |            56520 |          3391212 |  3840000340 | 1098136916032876 |           0 |     4455191
            141 |            54623 |          3277352 |  3839502304 |  915115029509760 |           0 |     4540215
            142 |            53964 |          3237856 |  3840519140 |  887743513849172 |           0 |     4178219
            143 |            55649 |          3338968 |  3840006216 | 1058468955882464 |           0 |     4680487
            144 |            57459 |          3447552 |  3839977652 | 1114542354706764 |           0 |     4617641
            145 |            59200 |          3552004 |  3840021080 | 1415309207874944 |           0 |     4439717
            146 |            56734 |          3404064 |  3839953344 | 1460389804064632 |           0 |     5268921
            147 |            52094 |          3125616 |  3840000860 |  862547835657612 |           0 |     3765069
            148 |            53703 |          3222204 |  3840012424 |  979046184037336 |           0 |     3976027
            149 |            56607 |          3396432 |  3840001392 | 1201817675737800 |           0 |     4882590
            150 |            56427 |          3385624 |  3840013448 | 1513067311739744 |           0 |     4670441
            151 |            59236 |          3554144 |  3839992536 | 1348353286022912 |           0 |     4433617
            152 |            57479 |          3448728 |  3840013176 | 1269523318190824 |           0 |     5265438
            153 |            50990 |          3059376 |  3840013308 |  923522549651532 |           0 |     3584953
            154 |            53657 |          3219420 |  3839972228 | 1150097343126796 |           0 |     3819475
            155 |            57822 |          3469328 |  3840015556 | 1221198317805700 |           0 |     5080453
            156 |            58124 |          3487448 |  3839992892 | 1348833542984788 |           0 |     4141447
            157 |            59313 |          3558760 |  3839029188 | 1226172441345244 |           0 |     3150485
            158 |            59063 |          3543804 |  3840974888 | 1639313166887736 |           0 |     4880572
            159 |            53150 |          3188972 |  3839977936 |  932769909832496 |           0 |     4081684
            160 |            53243 |          3194572 |  3840014156 |  940577850131396 |           0 |     4414606
            161 |            56507 |          3390420 |  3839989128 |  538215490731216 |           0 |     2679576
            162 |            52336 |          3140168 |  3798482956 | 2031702527119916 |           0 |     4046796
            163 |            60238 |          3614252 |  3711599092 |  284473030652956 |           0 |     4112624
            164 |            61890 |          3713424 |  3962760016 | 1271381114515696 |           0 |     3192090
            165 |            52151 |          3129084 |  3872489972 | 1760263128750012 |           0 |     5360597
            166 |            53739 |          3224312 |  3854680348 |  840623000524292 |           0 |     3457405
            167 |            54722 |          3283324 |  3840004940 | 1095987045635012 |           0 |     3813188
            168 |            56427 |          3385624 |  3839989868 | 1627096620696428 |           0 |     4873889
            169 |            59098 |          3545876 |  3840007756 | 1813293629479300 |           0 |     5245012
            170 |            60710 |          3642616 |  3839987964 | 1292588027795020 |           0 |     5102028
            171 |            52481 |          3148884 |  3839990808 | 1497468613517768 |           0 |     5059318
            172 |            52372 |          3142292 |  3840009500 |  964910589220452 |           0 |     3585479
            173 |            55142 |          3308508 |  3838535336 | 1108527262267416 |           0 |     4452028
            174 |            56902 |          3414132 |  3841477428 |  974181170112532 |           0 |     4448736
            175 |            57078 |          3424704 |  3840017956 | 1184183977266812 |           0 |     4836764
            176 |            60386 |          3623152 |  3838497484 | 1900506159047260 |           0 |     5281010
            177 |            54051 |          3243044 |  3841461016 | 1342861677019704 |           0 |     5190906
            178 |            53051 |          3183044 |  3840030096 |  890273542874480 |           0 |     4303369
            179 |            54787 |          3287216 |  3839972004 |  860787504617636 |           0 |     3871608
            180 |            55473 |          3328388 |  3840041780 | 1009900800044164 |           0 |     4544743
            181 |            57822 |          3469304 |  3839998640 | 1216276362662016 |           0 |     4704081
            182 |            59702 |          3582136 |  3839982012 | 1243421022756348 |           0 |     3829092
            183 |            55594 |          3335628 |  3840012928 | 1828050059839600 |           0 |     5197559
            184 |            51326 |          3079588 |  3839995208 |  759295985908192 |           0 |     3753700
            185 |            54925 |          3295472 |  3840002084 | 1030631907610844 |           0 |     3638047
            186 |            55620 |          3337208 |  3840011360 | 1121514210995048 |           0 |     4648832
            187 |            56550 |          3393008 |  3839993788 | 1175255740452708 |           0 |     4542451
            188 |            58343 |          3500556 |  3780866812 | 1635426267302364 |           0 |     5016613
            189 |            58172 |          3490296 |  3899119564 | 1277604721152836 |           0 |     4027899
            190 |            51718 |          3103084 |  3839978448 |  975563259081376 |           0 |     3618172
            191 |            53877 |          3232648 |  3840026484 |  899315213124644 |           0 |     4080756
            192 |            56041 |          3362476 |  3839987324 | 1013619612789420 |           0 |     3865910
            193 |            56960 |          3417628 |  3840013188 | 1592845746642988 |           0 |     4773827
            194 |            58549 |          3512956 |  3840011900 | 1720542474507740 |           0 |     5025121
            195 |            59651 |          3579036 |  3839963644 | 1394426396426852 |           0 |     5017326
            196 |            51499 |          3089960 |  3839844760 |  830751612776152 |           0 |     3812320
            197 |            54068 |          3244100 |  3840161316 |  871542924175796 |           0 |     3959208
            198 |            54862 |          3291708 |  3840000076 | 1076478860088540 |           0 |     4607768
            199 |            57223 |          3433376 |  3840004824 | 1259267157227200 |           0 |     4870720
            200 |            58851 |          3531068 |  3839994728 | 1204895689778536 |           0 |     5000335
            201 |            59458 |          3567476 |  3839632252 | 1830644236321484 |           0 |     5355997
            202 |            51713 |          3102788 |  3840392560 |  894507795616512 |           0 |     4420977
            203 |            53712 |          3222712 |  3839961636 |  983238649771884 |           0 |     4436198
            204 |            54375 |          3262528 |  3839677708 | 1447790678888844 |           0 |     4554318
            205 |            59950 |          3597008 |  3840335568 | 1744890830280256 |           0 |     5234995
            206 |            60930 |          3655784 |  3787907836 | 1371123565497164 |           0 |     4488016
            207 |            58815 |          3528908 |  3756438352 |  804369531598192 |           0 |     3901841
            208 |            52114 |          3126856 |  3878930068 |  998147197234892 |           0 |     2878781
            209 |            53988 |          3239252 |  3870421696 |  559660350858816 |           0 |     3906574
            210 |            58197 |          3491816 |  3840644748 |  860158168566164 |           0 |     3800382
            211 |            57928 |          3475696 |  3888214420 | 1186591479251620 |           0 |     4800684
            212 |            59502 |          3570124 |  3857364664 | 1503569498827224 |           0 |     4653560
            213 |            57746 |          3464768 |  3840111848 | 1215719218195704 |           0 |     4996999
            214 |            50814 |          3048824 |  3839978988 | 1604105330872420 |           0 |     4773792
            215 |            53065 |          3183896 |  3839730148 |  770895586289068 |           0 |     3693939
            216 |            54495 |          3269672 |  3840261728 | 1222026057362304 |           0 |     4176418
            217 |            55907 |          3354400 |  3839981272 | 1230361540486824 |           0 |     4110376
            218 |            58239 |          3494364 |  3840013904 | 1178599008416528 |           0 |     3804221
            219 |            61307 |          3678396 |  3840001364 | 1372835619022444 |           0 |     4293074
            220 |            53221 |          3193264 |  3839994636 | 1840149171381436 |           0 |     5178396
            221 |            52414 |          3144868 |  3840034816 | 1050610668410568 |           0 |     3686885
            222 |            53490 |          3209404 |  3839957740 | 1016995402491796 |           0 |     3896701
            223 |            56914 |          3414820 |  3840039820 | 1291297609749348 |           0 |     4255925
            224 |            57868 |          3472080 |  3839962176 | 1246037464382960 |           0 |     4370443
            225 |            59480 |          3568792 |  3840027796 | 1615464143385404 |           0 |     4938959
            226 |            55235 |          3314088 |  3838868072 | 1332034619150552 |           0 |     5135001
            227 |            52445 |          3146692 |  3841124604 |  774574238532508 |           0 |     3929662
            228 |            52942 |          3176544 |  3840018348 | 1298601566859612 |           0 |     4350193
            229 |            56271 |          3376240 |  3839936796 | 1062560139690892 |           0 |     4521133
            230 |            56824 |          3409456 |  3840037792 | 1112759032231408 |           0 |     4500035
            231 |            59217 |          3553020 |  3840017636 | 1210085912544732 |           0 |     4773695
            232 |            57025 |          3421516 |  3839998552 | 1351888983277328 |           0 |     3783622
            233 |            52847 |          3170832 |  3839944044 |  702494667018356 |           0 |     3675405
            234 |            54123 |          3247404 |  3840017296 | 1284245967163752 |           0 |     4316229
            235 |            55345 |          3320716 |  3810488060 | 1088567133907852 |           0 |     4562727
            236 |            57433 |          3445996 |  3869532252 | 1443354877797636 |           0 |     4576694
            237 |            59243 |          3554552 |  3840029544 | 1680219261556992 |           0 |     4966557
            238 |            56656 |          3399340 |  3838844624 | 2716185583488120 |           0 |     6479444
            239 |            51181 |          3070856 |  3841147696 |  925479411812848 |           0 |     3545278
            240 |            52335 |          3140120 |  3840002484 | 1198320096758116 |           0 |     4175108
            241 |            53548 |          3212880 |  3839995332 |  829884128763188 |           0 |     3998239
            242 |            55121 |          3307288 |  3840006072 | 1037790631454704 |           0 |     4163290
            243 |            57262 |          3435700 |  3840001872 | 1065878098096152 |           0 |     3938584
            244 |            57660 |          3459588 |  3839470900 | 1574450004496212 |           0 |     4753539
            245 |            50128 |          3007692 |  3839174540 |  878247165184724 |           0 |     3584298
            246 |            52670 |          3160224 |  3840306776 | 1212770435697032 |           0 |     4191588
            247 |            53332 |          3199896 |  3841038148 |  990197085706652 |           0 |     3794446
            248 |            54889 |          3293316 |  3839970388 | 1216236479706988 |           0 |     4479713
            249 |            57297 |          3437844 |  3840028072 | 1208651951411056 |           0 |     3992826
            250 |            57826 |          3469540 |  3839990924 | 1188946335696436 |           0 |     4402832
            251 |            49698 |          2981876 |  3839982088 |  941778770884776 |           0 |     3565802
            252 |            51012 |          3060716 |  3840031740 |  987420105094276 |           0 |     3670754
            253 |            52999 |          3179964 |  3840006852 |  975210798931900 |           0 |     3784493
            254 |            55235 |          3314124 |  3633067612 |  386619029436924 |           0 |     4275984
            255 |            58493 |          3509568 |  3869830172 |  854214185591020 |           0 |     3439988
            256 |            57673 |          3460396 |  3908391848 | 1575209114369128 |           0 |     4768932
            257 |            50984 |          3059064 |  3855186684 | 1204465434410916 |           0 |     4224807
            258 |            52867 |          3172048 |  3908816336 |  758728520999616 |           0 |     3917525
            259 |            54743 |          3284560 |  3864673420 |  810870237992380 |           0 |     3755653
            260 |            54947 |          3296840 |  3840016008 | 1236730817268528 |           0 |     4174034
            261 |            56949 |          3416944 |  3840005764 | 1651654699429828 |           0 |     4967312
            262 |            57187 |          3431216 |  3839970224 | 1370720987153512 |           0 |     4576792
            263 |            50028 |          3001680 |  3839982964 | 1411164060120900 |           0 |     4448727
            264 |            52244 |          3134612 |  3840039024 |  984886987227000 |           0 |     4614663
            265 |            54070 |          3244204 |  3839990648 | 1027325935990872 |           0 |     4371762
            266 |            56788 |          3407296 |  3840004904 | 1229852441520648 |           0 |     4846278
            267 |            57592 |          3455544 |  3839989240 | 1157485197249736 |           0 |     4495798
            268 |            57741 |          3464468 |  3840035424 | 1444469718045224 |           0 |     4409927
            269 |            56276 |          3376544 |  3839961648 |  972195395406864 |           0 |     3565863
            270 |            51701 |          3102056 |  3840032980 |  888038226663148 |           0 |     4144328
            271 |            53147 |          3188848 |  3839997772 | 1277175291019492 |           0 |     4297776
            272 |            56255 |          3375288 |  3838552536 | 1066277100756872 |           0 |     5235376
            273 |            57642 |          3458508 |  3841433140 | 1193472462032796 |           0 |     4834700
            274 |            59975 |          3598524 |  3839992216 | 1101465472697592 |           0 |     4057269
            275 |            58258 |          3495492 |  3840033140 |  522587394281548 |           0 |     2685168
            276 |            51446 |          3086772 |  3839991208 |  871684166844416 |           0 |     3770779
            277 |            52721 |          3163244 |  3839987248 |  806712256928616 |           0 |     3664191
            278 |            55651 |          3339060 |  3840007328 | 1105033016063912 |           0 |     4514265
            279 |            58033 |          3481952 |  3839974128 | 1279685973766568 |           0 |     4030176
            280 |            59204 |          3552216 |  3839937100 | 1444744122731876 |           0 |     4454831
            281 |            59547 |          3572848 |  3840072804 |  617238040074676 |           0 |     3117408
            282 |            51884 |          3113024 |  3819793624 |  768338293142624 |           0 |     3882743
            283 |            53948 |          3236896 |  3860221240 | 1041309708532440 |           0 |     3787035
            284 |            59074 |          3544424 |  3839986664 | 1446173271161048 |           0 |     4337030
            285 |            56643 |          3398552 |  3839988524 | 1187501966047388 |           0 |     3914975
            286 |            58483 |          3508956 |  3840014668 | 1275646044869828 |           0 |     4081788
            287 |            60293 |          3617604 |  3840006416 |  833645595057648 |           0 |     3211770
            288 |            50933 |          3055960 |  3840013456 | 1125007348402872 |           0 |     4028530
            289 |            53292 |          3197512 |  3839831012 |  951067936091132 |           0 |     4363438
            290 |            55220 |          3313188 |  3839021312 | 1214020330282712 |           0 |     4445755
            291 |            56653 |          3399156 |  3841143188 | 1222225345550252 |           0 |     4017118
            292 |            59149 |          3548952 |  3839963156 | 1306261402088700 |           0 |     4591303
            293 |            60715 |          3642904 |  3840032176 |  885867733722384 |           0 |     3714268
            294 |            54316 |          3258940 |  3839992428 | 1037288484605636 |           0 |     4435145
            295 |            53679 |          3220744 |  3839987692 | 1065360277746100 |           0 |     3977858
            296 |            54415 |          3264876 |  3839301872 | 1134639806131152 |           0 |     4354894
            297 |            57320 |          3439212 |  3840709376 | 1246687986638160 |           0 |     4079435
            298 |            59198 |          3551896 |  3839976484 | 1610600555838140 |           0 |     4750867
            299 |            60543 |          3632560 |  3560599472 |  248539613188136 |           0 |     3605352
            300 |            51988 |          3119276 |  4119417616 | 2765431226964488 |           0 |     4903725
            301 |            54619 |          3277132 |  3712986220 |  286869238670412 |           0 |     1940557
            302 |            56151 |          3369048 |  3839822792 |  800548776126464 |           0 |     4247940
            303 |            58492 |          3509548 |  3921163644 |  917664759937388 |           0 |     4019250
            304 |            60686 |          3641156 |  3886023608 | 1111424000986800 |           0 |     4707212
            305 |            59684 |          3581064 |  3840033588 | 1940109430351380 |           0 |     5424577
            306 |            51165 |          3069916 |  3840000724 | 1487293443083260 |           0 |     4751088
            307 |            51741 |          3104444 |  3839976312 | 1153696440786568 |           0 |     4086210
            308 |            54995 |          3299696 |  3840018732 |  882785658802412 |           0 |     4253897
            309 |            56627 |          3397636 |  3838704488 | 1453833419407736 |           0 |     4601730
            310 |            57284 |          3437052 |  3841288484 | 1065788627703052 |           0 |     2847655
            311 |            58438 |          3506260 |  3839997544 | 1720336604557176 |           0 |     5109326
            312 |            53151 |          3189076 |  3839969400 | 1818982072613992 |           0 |     5194167
            313 |            53210 |          3192628 |  3840021332 | 1116012515075612 |           0 |     3860260
            314 |            56070 |          3364228 |  3840005076 |  988213145679460 |           0 |     3898377
            315 |            55856 |          3351332 |  3839998300 | 1203288512379028 |           0 |     4967826
            316 |            57658 |          3459508 |  3839839884 | 1245510176238452 |           0 |     4208600
            317 |            57503 |          3450192 |  3840145700 | 1064306866552612 |           0 |     4358581
            318 |            53445 |          3206712 |  3839983744 | 1423288133531376 |           0 |     4481037
            319 |            51361 |          3081656 |  3840024268 |  852211336189524 |           0 |     3564872
            320 |            54399 |          3263956 |  3839999064 |  975498456764088 |           0 |     4247793
            321 |            55310 |          3318592 |  3840020828 | 1005829782761180 |           0 |     4610392
            322 |            57066 |          3423948 |  3839900772 | 1210617183999228 |           0 |     3887312
            323 |            58006 |          3480388 |  3840064584 | 1322858727855680 |           0 |     4928741
            324 |            55217 |          3313048 |  3840041644 | 1680043804065132 |           0 |     4943717
            325 |            51052 |          3063112 |  3839979816 | 1070241165658320 |           0 |     4286833
            326 |            53536 |          3212172 |  3839993652 | 1059173176424668 |           0 |     3803898
            327 |            55071 |          3304240 |  3840022684 | 1101271317603708 |           0 |     3852819
            328 |            56287 |          3377248 |  3839994156 | 1148486321329868 |           0 |     3866502
            329 |            58627 |          3517600 |  3840001328 | 1439140639480504 |           0 |     5002176
            330 |            58337 |          3500240 |  3839987688 | 1469525715683640 |           0 |     4675664
            331 |            51859 |          3111560 |  3840019180 |  984645750216932 |           0 |     3670312
            332 |            54891 |          3293440 |  3839987012 | 1080334117668188 |           0 |     4613686
            333 |            55576 |          3334584 |  3840007464 | 1137709294950832 |           0 |     3810013
            334 |            58143 |          3488600 |  3839959552 | 1468084490860216 |           0 |     4519109
            335 |            58539 |          3512312 |  3838409792 | 1364100314622400 |           0 |     4233071
            336 |            55331 |          3319876 |  3841634940 | 1504712910054468 |           0 |     4726210
            337 |            51861 |          3111660 |  3839945328 |  833461601560144 |           0 |     3797827
            338 |            52959 |          3177516 |  3840026524 | 1156285919250972 |           0 |     4354370
            339 |            55103 |          3306168 |  3839983764 | 1217714610534588 |           0 |     4417389
            340 |            56776 |          3406584 |  3840034332 | 1034389924958188 |           0 |     4235606
            341 |            58181 |          3490864 |  3839978692 | 1667846902751908 |           0 |     4919575
            342 |            56832 |          3409920 |  3839989832 | 1443713171023792 |           0 |     4568200
            343 |            51502 |          3090132 |  3840025612 | 1037906175824476 |           0 |     3663982
            344 |            52865 |          3171928 |  3840010560 | 1128266936278016 |           0 |     3973237
            345 |            54643 |          3278572 |  3839981356 | 1275113855684660 |           0 |     4251148
            346 |            58928 |          3535680 |  3839987184 | 1445830935565296 |           0 |     5197598
            347 |            60725 |          3643516 |  3840013880 | 1440122021746640 |           0 |     4368508
            348 |            58567 |          3513996 |  3839998504 | 1302881365157512 |           0 |     4750281
            349 |            51840 |          3110380 |  3840018728 |  887610329086904 |           0 |     4319878
            350 |            52942 |          3176508 |  3607889096 |  129534383567096 |           0 |     1780859
            351 |            55428 |          3325676 |  3927056920 | 1307249923155392 |           0 |     4301747
            352 |            60213 |          3612760 |  3950787880 | 1173378352923248 |           0 |     4223736
            353 |            59830 |          3589780 |  3847135236 | 1336099798184300 |           0 |     4421058
            354 |            59390 |          3563384 |  3867131704 | 1422001366225536 |           0 |     5120296
            355 |            50490 |          3029388 |  3839971916 | 1595005218278756 |           0 |     4844572
            356 |            53347 |          3200824 |  3840007404 | 1062244779198460 |           0 |     4041406
            357 |            54192 |          3251548 |  3839995044 | 1152952898352740 |           0 |     3945550
            358 |            57087 |          3425200 |  3840018448 | 1406896311227424 |           0 |     4484563
            359 |            58268 |          3496052 |  3839992868 | 1575713600768124 |           0 |     4749717
(360 rows)

