 interval_start | avg_transactions | num_transactions | sum_latency | sum_latency_2  | min_latency | max_latency 
----------------+------------------+------------------+-------------+----------------+-------------+-------------
              0 |           130702 |          7842108 |  3777881536 |  9181813047616 |         259 |       47161
              1 |           149460 |          8967588 |  3839995560 |  5949642227288 |         270 |       49716
              2 |           150544 |          9032656 |  3839996696 |  5910370582320 |         264 |       49872
              3 |           148366 |          8901980 |  3840002772 |  6728310551836 |         271 |      123861
              4 |           148969 |          8938128 |  3840004812 |  5834031209140 |         266 |       48958
              5 |           147579 |          8854764 |  3839998612 |  5871206748380 |         268 |       53509
              6 |           148012 |          8880696 |  3839995616 |  6006338291064 |         270 |       51427
              7 |           148553 |          8913164 |  3840003516 |  6157815853996 |         265 |       47524
              8 |           147967 |          8878048 |  3840002256 |  6341801226360 |         264 |       72104
              9 |           144423 |          8665368 |  3839995480 |  6767832043752 |         264 |      108709
             10 |           147772 |          8866324 |  3840002596 |  6170628292468 |         267 |       56929
             11 |           148510 |          8910600 |  3839996444 |  5667702400820 |         269 |       49451
             12 |           148260 |          8895612 |  3840001844 |  5991150792068 |         263 |       48551
             13 |           147575 |          8854496 |  3840002012 |  5959571752292 |         270 |       51498
             14 |           143383 |          8602996 |  3839980548 | 10084223246596 |         263 |       52325
             15 |           139586 |          8375156 |  3840020232 | 25013738036744 |         254 |      104078
             16 |           147192 |          8831536 |  3839998780 |  6160164098532 |         271 |       46850
             17 |           147444 |          8846632 |  3839994804 |  5844412677500 |         268 |       46542
             18 |           146293 |          8777556 |  3840002116 |  6103491811564 |         266 |       57197
             19 |           147405 |          8844276 |  3840004760 |  6128455492344 |         269 |       62591
             20 |           147066 |          8823964 |  3837877232 |  5817962419944 |         265 |       48637
             21 |           147505 |          8850320 |  3842118120 |  5481394277360 |         269 |       47567
             22 |           147404 |          8844236 |  3840002824 |  6155283916080 |         271 |       64558
             23 |           146420 |          8785216 |  3839996516 |  5767343818204 |         269 |       50854
             24 |           147912 |          8874712 |  3840000852 |  5872364989892 |         268 |       49335
             25 |           147431 |          8845864 |  3840003184 |  8121512415368 |         262 |      181708
             26 |           147758 |          8865472 |  3839996164 |  5814411579508 |         262 |       50311
             27 |           146670 |          8800220 |  3837612076 |  5804597707244 |         265 |       56839
             28 |           147563 |          8853780 |  3842388548 |  3765715483116 |         272 |       59713
             29 |           141580 |          8494804 |  3839937680 |  2991660235720 |         265 |       67365
             30 |           137208 |          8232484 |  3840067280 |  3017687132576 |         258 |       71058
             31 |           147286 |          8837184 |  3840000628 |  2183550937508 |         269 |       51765
             32 |           145491 |          8729448 |  3839994904 |  2226704389784 |         272 |       55991
             33 |           145383 |          8723004 |  3839999952 |  2663938374560 |         272 |       66414
             34 |           145798 |          8747908 |  3839994712 |  2234614207488 |         269 |       57904
             35 |           147355 |          8841300 |  3840006684 |  2272677368484 |         265 |       56396
             36 |           146044 |          8762660 |  3840003516 |  2790103185220 |         254 |       58414
             37 |           143567 |          8614004 |  3839997240 |  3668739588712 |         263 |       87191
             38 |           146621 |          8797264 |  3840001220 |  2255895819692 |         268 |       61737
             39 |           147755 |          8865304 |  3839998368 |  2383656561528 |         264 |       85599
             40 |           148072 |          8884332 |  3839995356 |  2262648065892 |         266 |       72322
             41 |           146849 |          8810924 |  3840002668 |  2431578205676 |         272 |       83962
             42 |           146413 |          8784784 |  3840002220 |  2841334772348 |         272 |       93793
             43 |           147801 |          8868088 |  3839996440 |  2376863138864 |         273 |       69556
             44 |           144452 |          8667120 |  3839985480 |  2241510491464 |         234 |       49543
             45 |           124983 |          7498960 |  3840016328 |  2790610972784 |         271 |       69573
             46 |           144785 |          8687088 |  3840000520 |  3400135692712 |         233 |       44986
             47 |           145599 |          8735952 |  3839999356 |  2941372494468 |         261 |       93108
             48 |           145624 |          8737464 |  3839997624 |  2432985719192 |         271 |       83452
             49 |           145014 |          8700868 |  3840003300 |  2230642168172 |         273 |       62367
             50 |           145072 |          8704344 |  3839999388 |  2573682650452 |         270 |       90453
             51 |           146526 |          8791588 |  3840000684 |  2436634774252 |         257 |       88825
             52 |           145843 |          8750564 |  3840003100 |  2443349553108 |         268 |       87357
             53 |           145809 |          8748512 |  3840001100 |  2580462704668 |         265 |       99786
             54 |           147582 |          8854936 |  3839991648 |  2343471755320 |         273 |       81807
             55 |           145549 |          8732928 |  3840004880 |  3242549375160 |         259 |       57557
             56 |           147608 |          8856472 |  3839998212 |  2413888453588 |         264 |       89627
             57 |           146276 |          8776564 |  3840000884 |  2162747015260 |         259 |       50033
             58 |           147058 |          8823452 |  3840000760 |  2136516081920 |         260 |       48573
             59 |           142912 |          8574740 |  3840001816 |  2910261547152 |         267 |      106024
             60 |           122939 |          7376344 |  3839998916 |  2739270814244 |         265 |       48411
             61 |           147058 |          8823488 |  3839995608 |  2127378595640 |         273 |       48920
             62 |           146898 |          8813884 |  3840000772 |  2235220506876 |         270 |       60761
             63 |           146001 |          8760036 |  3839995192 |  2166187433856 |         241 |       49465
             64 |           143976 |          8638548 |  3840006528 |  3319040296584 |         270 |       62342
             65 |           145909 |          8754564 |  3839996996 |  2185334834364 |         273 |       49298
             66 |           147558 |          8853472 |  3839999904 |  2091536019488 |         264 |       56570
             67 |           144982 |          8698944 |  3840003928 |  2904454697624 |         267 |      105523
             68 |           146538 |          8792268 |  3839999412 |  2134106964812 |         272 |       46408
             69 |           146279 |          8776736 |  3839998692 |  2147702542188 |         266 |       48856
             70 |           147962 |          8877704 |  3840002956 |  2185972960396 |         278 |       58315
             71 |           148106 |          8886388 |  3839991724 |  2200186964068 |         267 |       60307
             72 |           146474 |          8788428 |  3840007908 |  2224356097580 |         270 |       58304
             73 |           144441 |          8666488 |  3840001236 |  3159134695764 |         267 |       56215
             74 |           143232 |          8593936 |  3840001964 |  2204424451412 |         263 |       48487
             75 |           121806 |          7308376 |  3839992504 |  3498635859864 |         267 |      102996
             76 |           146388 |          8783264 |  3840002856 |  2225570668080 |         271 |       54895
             77 |           145726 |          8743580 |  3839997756 |  2260125330196 |         273 |       58638
             78 |           147479 |          8848720 |  3840006772 |  2247655595604 |         262 |       60246
             79 |           145731 |          8743876 |  3839992736 |  2247101466480 |         267 |       59189
             80 |           146520 |          8791192 |  3840003940 |  2125281722588 |         268 |       50755
             81 |           146129 |          8767724 |  3839993804 |  2271211232236 |         266 |       67535
             82 |           143097 |          8585828 |  3840008196 |  3295982979212 |         261 |       59094
             83 |           146688 |          8801304 |  3839994712 |  2230626107632 |         263 |       59707
             84 |           147059 |          8823548 |  3840001912 |  2972990907560 |         265 |      105607
             85 |           147551 |          8853076 |  3840001648 |  2159443596928 |         274 |       49644
             86 |           146345 |          8780720 |  3839994284 |  2276746773380 |         266 |       60182
             87 |           146130 |          8767816 |  3840005176 |  2261979064640 |         273 |       59333
             88 |           146617 |          8797024 |  3839996968 |  2069070941984 |         274 |       50000
             89 |           142458 |          8547492 |  3839988848 |  2252939731688 |         275 |       49080
             90 |           124619 |          7477132 |  3840016872 |  2649423664232 |         267 |       51885
             91 |           146260 |          8775576 |  3839995996 |  2459094337140 |         272 |       56924
             92 |           139452 |          8367096 |  3839997808 | 11670461106856 |         264 |      358504
             93 |           140879 |          8452748 |  3840000932 |  8363786593468 |         278 |      294873
             94 |           142131 |          8527848 |  3840000036 |  8284723657220 |         265 |      277072
             95 |           141426 |          8485556 |  3840005412 |  8634298960884 |         271 |      285445
             96 |           141438 |          8486304 |  3839992060 |  8893259856092 |         265 |      297596
             97 |           141234 |          8474060 |  3840008688 |  6688974437552 |         267 |      234697
             98 |           141552 |          8493092 |  3839993348 |  8820141005444 |         260 |      290110
             99 |           141664 |          8499816 |  3840001560 | 10848717210872 |         266 |      283842
            100 |           143669 |          8620128 |  3840005316 | 10166280365116 |         263 |      131758
            101 |           143521 |          8611252 |  3839999368 | 10315760824096 |         266 |      130069
            102 |           143404 |          8604248 |  3839997988 | 10126989395532 |         268 |      131025
            103 |           143406 |          8604344 |  3840001196 |  8558703576228 |         264 |      205282
            104 |           137753 |          8265168 |  3839986808 |  6087678861400 |         260 |      234374
            105 |           120323 |          7219400 |  3840003604 |  8695816989764 |         267 |      278227
            106 |           141160 |          8469620 |  3840002752 |  6277984670480 |         278 |      179296
            107 |           141350 |          8481020 |  3840006508 |  7970046970380 |         267 |      281864
            108 |           141252 |          8475128 |  3839997580 |  8132032279860 |         269 |      275503
            109 |           143650 |          8619008 |  3839999816 |  8856091553656 |         264 |      292527
            110 |           140578 |          8434656 |  3840003740 | 10159976449988 |         265 |      278557
            111 |           143596 |          8615744 |  3839994452 | 12431976074484 |         265 |      270857
            112 |           142078 |          8524656 |  3840004060 |  9868964778364 |         270 |      128300
            113 |           145315 |          8718872 |  3839998004 |  7247550503132 |         275 |      134058
            114 |           146332 |          8779932 |  3840000684 |  7330326489524 |         269 |      138780
            115 |           145983 |          8758980 |  3839994768 |  8470890209552 |         267 |      145509
            116 |           145699 |          8741960 |  3840008260 |  7281288644156 |         267 |      133044
            117 |           145115 |          8706908 |  3839998544 |  7141548359272 |         274 |      137016
            118 |           145527 |          8731648 |  3839997320 |  7854488289824 |         258 |      198390
            119 |           138102 |          8286128 |  3839840044 | 10175550071548 |         239 |      294243
            120 |           122059 |          7323560 |  3840156892 |  3236060987492 |         259 |       83173
            121 |           146225 |          8773528 |  3840009056 |  2208377688736 |         274 |       60921
            122 |           146025 |          8761488 |  3839991304 |  2283298432272 |         268 |       59668
            123 |           145962 |          8757704 |  3840004424 |  2177333343608 |         273 |       48703
            124 |           145764 |          8745860 |  3839992852 |  2669452104220 |         264 |       90372
            125 |           145951 |          8757088 |  3840005888 |  2234694268056 |         271 |       76871
            126 |           145312 |          8718748 |  3839996388 |  2269947846700 |         270 |       55978
            127 |           146564 |          8793840 |  3839999108 |  2196636871116 |         268 |       50165
            128 |           145843 |          8750576 |  3840007340 |  2245886815548 |         237 |       59828
            129 |           144839 |          8690356 |  3839991420 |  3123263368716 |         266 |       58721
            130 |           146915 |          8814896 |  3840010028 |  2123346832964 |         270 |       50916
            131 |           146850 |          8810992 |  3839995884 |  2252150489972 |         271 |       59084
            132 |           146718 |          8803056 |  3839998072 |  2158844872824 |         266 |       46229
            133 |           148544 |          8912636 |  3839996928 |  2580704985000 |         231 |       70361
            134 |           143412 |          8604732 |  3840010856 |  2377480001496 |         268 |       60251
            135 |           124269 |          7456164 |  3839991540 |  2689880438820 |         268 |       56587
            136 |           145792 |          8747504 |  3839997840 |  2204527198368 |         275 |       59455
            137 |           145641 |          8738432 |  3840008916 |  2206403148364 |         271 |       51945
            138 |           143516 |          8610976 |  3839997240 |  3431079873808 |         234 |       63254
            139 |           146205 |          8772320 |  3840000580 |  2354339228820 |         260 |       76658
            140 |           146343 |          8780600 |  3839992044 |  2202044708420 |         266 |       52425
            141 |           146409 |          8784528 |  3840001432 |  2285948007160 |         268 |       59244
            142 |           145940 |          8756396 |  3840002844 |  2046787221212 |         269 |       46984
            143 |           145877 |          8752644 |  3840001808 |  2479405098448 |         268 |       63022
            144 |           147939 |          8876336 |  3840002384 |  2085966244904 |         261 |       52274
            145 |           146890 |          8813428 |  3839997768 |  2226050316008 |         276 |       59739
            146 |           146271 |          8776260 |  3839993140 |  2190040831156 |         266 |       55226
            147 |           142694 |          8561656 |  3840002572 |  3641088186268 |         239 |       88798
            148 |           146682 |          8800900 |  3840004784 |  2222185112408 |         273 |       47985
            149 |           142876 |          8572540 |  3840002628 |  2506566168540 |         269 |       84722
            150 |           124618 |          7477072 |  3839998368 |  2581567128120 |         269 |       41201
            151 |           145867 |          8752024 |  3839998136 |  2283134861184 |         235 |       59037
            152 |           146163 |          8769800 |  3839996652 |  2209186011660 |         271 |       57364
            153 |           146464 |          8787832 |  3840000460 |  2203299938844 |         274 |       56609
            154 |           148039 |          8882352 |  3839999124 |  2126799190996 |         265 |       50855
            155 |           146648 |          8798868 |  3838602696 |  1998284004096 |         271 |       50853
            156 |           143532 |          8611896 |  3841395744 |  3467142392152 |         262 |       64935
            157 |           146171 |          8770252 |  3840005588 |  2234743724660 |         269 |       58673
            158 |           145750 |          8744980 |  3839995532 |  2266468484412 |         271 |       61300
            159 |           145578 |          8734656 |  3840004712 |  2203199130888 |         271 |       59875
            160 |           147736 |          8864164 |  3839993264 |  2208885126112 |         237 |       58912
            161 |           147230 |          8833772 |  3840007656 |  2167107607728 |         269 |       52499
            162 |           147977 |          8878644 |  3839997776 |  2160057058112 |         266 |       47250
            163 |           141410 |          8484576 |  3839991568 |  7985408274256 |         267 |      291379
            164 |           138056 |          8283380 |  3839967624 |  7530045883792 |         268 |      252719
            165 |           117105 |          7026272 |  3840041132 | 10717128209332 |         274 |      289998
            166 |           142365 |          8541872 |  3839998444 |  8633336599436 |         264 |      290514
            167 |           141432 |          8485896 |  3840000604 |  8624536802316 |         256 |      285272
            168 |           141383 |          8483000 |  3839997968 |  8962519472424 |         266 |      301277
            169 |           140801 |          8448032 |  3840002412 |  8329806906940 |         273 |      283579
            170 |           141206 |          8472336 |  3839998372 |  8207162091948 |         266 |      273498
            171 |           141285 |          8477128 |  3840001440 |  7234877230272 |         273 |      283505
            172 |           141430 |          8485820 |  3839994644 |  8272420150612 |         271 |      277319
            173 |           143461 |          8607668 |  3840008640 |  8401746430112 |         267 |      206888
            174 |           142774 |          8566460 |  3839999424 |  8580789542464 |         268 |      290582
            175 |           140412 |          8424696 |  3839995092 |  9914850785476 |         267 |      282173
            176 |           142023 |          8521380 |  3840000964 |  7620844035532 |         269 |      223462
            177 |           143382 |          8602892 |  3840003100 |  7586487103980 |         269 |      259412
            178 |           141569 |          8494112 |  3839994220 |  8704539957524 |         264 |      282139
            179 |           137470 |          8248184 |  3839977652 |  6710556329756 |         263 |      199346
            180 |           121365 |          7281888 |  3840022504 |  7148338608640 |         270 |      277447
            181 |           141369 |          8482148 |  3840001836 |  7315429238284 |         264 |      249975
            182 |           142077 |          8524612 |  3840001580 |  8373950494916 |         270 |      279507
            183 |           144037 |          8642192 |  3840002776 |  8547278639112 |         268 |      287312
            184 |           142019 |          8521120 |  3839992072 |  9634273916848 |         270 |      289807
            185 |           144849 |          8690912 |  3840006112 |  8608346027176 |         268 |      297474
            186 |           144077 |          8644640 |  3839998136 |  9301590168992 |         267 |      307861
            187 |           144410 |          8664576 |  3840003848 |  9492529943216 |         271 |      324164
            188 |           143939 |          8636352 |  3840001516 |  8148693938692 |         265 |      297285
            189 |           145133 |          8707956 |  3839993372 |  8780437635596 |         260 |      297899
            190 |           145873 |          8752408 |  3840002216 |  7874373488280 |         260 |      285265
            191 |           150078 |          9004660 |  3840005272 |  2156910551856 |         265 |       52715
            192 |           147753 |          8865156 |  3839995448 |  2302987278080 |         262 |       80091
            193 |           145513 |          8730764 |  3840002720 |  2937473100888 |         267 |       38343
            194 |           143498 |          8609896 |  3839947152 |  2556893713784 |         264 |       61098
            195 |           128162 |          7689692 |  3840049528 |  2632182523744 |         265 |       48382
            196 |           147049 |          8822936 |  3840000120 |  2221219480712 |         269 |       55435
            197 |           146929 |          8815768 |  3839996844 |  2227313503316 |         266 |       48294
            198 |           149474 |          8968432 |  3840000380 |  2064887102876 |         265 |       50836
            199 |           147656 |          8859348 |  3840004164 |  2226064799332 |         262 |       54650
            200 |           146321 |          8779264 |  3839997952 |  2222709268512 |         266 |       55336
            201 |           148906 |          8934340 |  3840000660 |  2267510095164 |         265 |       59517
            202 |           144315 |          8658920 |  3839996908 |  3456401584604 |         249 |       50343
            203 |           147547 |          8852816 |  3840000620 |  2201497477012 |         269 |       58060
            204 |           146569 |          8794152 |  3840006740 |  2154628856980 |         263 |       51951
            205 |           147015 |          8820920 |  3839987556 |  2209063808748 |         266 |       56218
            206 |           148101 |          8886032 |  3840002724 |  2162054116908 |         270 |       48961
            207 |           146449 |          8786920 |  3840006348 |  2192160644812 |         275 |       54524
            208 |           147724 |          8863460 |  3839990868 |  2160941587332 |         271 |       51077
            209 |           142552 |          8553132 |  3839992616 |  2488350443496 |         271 |       76782
            210 |           122985 |          7379080 |  3840012904 |  3076007668880 |         270 |       71884
            211 |           145369 |          8722164 |  3840001360 |  3305561332440 |         257 |       88691
            212 |           146836 |          8810176 |  3840000332 |  2580549251060 |         266 |       85718
            213 |           146644 |          8798632 |  3840001824 |  2424553195528 |         264 |       87428
            214 |           145947 |          8756832 |  3840000772 |  2300225552804 |         269 |       70063
            215 |           145750 |          8744980 |  3839997740 |  2349240307948 |         248 |       68504
            216 |           147156 |          8829380 |  3839994652 |  2372867439980 |         270 |       76376
            217 |           146580 |          8794828 |  3840004912 |  2413956000624 |         268 |       83535
            218 |           146741 |          8804432 |  3839991900 |  2384253472500 |         267 |       78350
            219 |           147008 |          8820456 |  3840013640 |  2232670112192 |         265 |       57094
            220 |           145717 |          8743016 |  3839990144 |  2930143169360 |         256 |       48462
            221 |           148417 |          8905032 |  3840007708 |  2400280948788 |         264 |       58426
            222 |           148020 |          8881184 |  3840000712 |  2222152198640 |         265 |       59342
            223 |           148585 |          8915112 |  3839994484 |  2205919209796 |         263 |       59307
            224 |           143952 |          8637120 |  3839969564 |  2383629464396 |         257 |       59213
            225 |           126072 |          7564300 |  3840027068 |  2873787239876 |         269 |       70038
            226 |           146680 |          8800784 |  3840009772 |  2191674289268 |         265 |       56561
            227 |           148022 |          8881340 |  3839997544 |  2376486321808 |         263 |       80670
            228 |           145929 |          8755756 |  3840001908 |  2371040121612 |         256 |       77055
            229 |           147100 |          8825992 |  3839997868 |  2528062034388 |         265 |       49401
            230 |           145049 |          8702916 |  3839965576 |  3015758067984 |         268 |       47590
            231 |           146722 |          8803332 |  3840034380 |  2207568575100 |         265 |       58023
            232 |           142526 |          8551576 |  3839998524 |  2670682407948 |         266 |       99930
            233 |           140918 |          8455108 |  3839997672 |  8450573454464 |         268 |      283295
            234 |           142424 |          8545420 |  3840002344 |  8403492708776 |         266 |      295985
            235 |           143429 |          8605732 |  3839998964 |  8770099882396 |         270 |      295093
            236 |           142580 |          8554820 |  3840007204 |  8953341016036 |         274 |      300055
            237 |           141705 |          8502304 |  3839995252 | 10593209388644 |         266 |      338983
            238 |           141623 |          8497364 |  3839998340 |  6201236569740 |         266 |      206663
            239 |           134264 |          8055844 |  3839989904 | 12000778064344 |         252 |      268730
            240 |           121317 |          7279024 |  3840012908 |  7536377935908 |         262 |      243030
            241 |           142415 |          8544892 |  3839997020 |  7140431216220 |         276 |      269263
            242 |           141594 |          8495612 |  3839997208 |  8045505850040 |         266 |      235836
            243 |           142066 |          8523932 |  3840005864 |  9533894197440 |         258 |      308150
            244 |           141291 |          8477476 |  3840004176 |  9591269556376 |         269 |      313381
            245 |           141348 |          8480852 |  3839998972 |  7738900676876 |         264 |      240106
            246 |           142159 |          8529528 |  3840000396 |  5296968783948 |         248 |      245059
            247 |           142136 |          8528172 |  3839997676 |  9137055754788 |         269 |      306761
            248 |           138379 |          8302760 |  3839995332 |  8240151492396 |         226 |      212912
            249 |           142052 |          8523136 |  3839999168 |  9158790416080 |         271 |      323022
            250 |           143086 |          8585176 |  3840002808 |  8738108011344 |         271 |      313708
            251 |           142589 |          8555352 |  3840001196 |  9409732264716 |         266 |      312443
            252 |           142107 |          8526416 |  3839999764 |  9927664489812 |         265 |      325132
            253 |           142927 |          8575620 |  3839997172 |  3818996769628 |         274 |      126551
            254 |           141352 |          8481144 |  3839956904 |  9451283295112 |         265 |      315924
            255 |           124977 |          7498624 |  3840039460 | 10006525211084 |         257 |      312393
            256 |           144830 |          8689784 |  3840006368 |  9935222408104 |         268 |      318509
            257 |           144817 |          8689016 |  3839995904 |  7766906916520 |         239 |      323286
            258 |           140675 |          8440520 |  3840004236 |  7595418559684 |         270 |      258222
            259 |           145332 |          8719892 |  3839994304 |  7395857934904 |         259 |      253670
            260 |           142343 |          8540564 |  3840005168 |  8647314580600 |         267 |      272649
            261 |           146313 |          8778808 |  3839996280 |  2504957102408 |         265 |       79348
            262 |           146533 |          8791980 |  3839999404 |  2252407535076 |         253 |       52416
            263 |           146591 |          8795456 |  3840007144 |  2344506539120 |         269 |       73413
            264 |           147246 |          8834748 |  3839994732 |  2221578512380 |         265 |       53728
            265 |           149038 |          8942288 |  3840003300 |  2178639944156 |         252 |       60882
            266 |           148355 |          8901308 |  3840000672 |  2159511193688 |         228 |       53496
            267 |           146264 |          8775828 |  3840000384 |  3150184376048 |         267 |       52333
            268 |           147498 |          8849892 |  3839997360 |  2114057128912 |         272 |       44393
            269 |           142248 |          8534888 |  3839997344 |  2545712767424 |         269 |       59740
            270 |           125858 |          7551500 |  3840004728 |  2670187739800 |         271 |       44074
            271 |           146985 |          8819092 |  3839991188 |  2266256578172 |         264 |       60325
            272 |           146130 |          8767824 |  3840013592 |  2242355434912 |         269 |       57471
            273 |           147008 |          8820480 |  3839922168 |  2253055151856 |         262 |       60059
            274 |           148092 |          8885508 |  3840068780 |  2270980156820 |         265 |       61250
            275 |           146815 |          8808928 |  3840004940 |  2216148692012 |         264 |       58376
            276 |           143662 |          8619704 |  3839996412 |  3152654236508 |         269 |       56528
            277 |           147746 |          8864780 |  3839999472 |  2130684441624 |         260 |       48537
            278 |           150598 |          9035864 |  3840001704 |  2197319758936 |         265 |       56351
            279 |           145643 |          8738580 |  3840003684 |  2299116719324 |         271 |       59535
            280 |           147505 |          8850276 |  3840001976 |  2227588826448 |         250 |       55374
            281 |           147612 |          8856700 |  3839992948 |  2130492762764 |         272 |       50978
            282 |           145708 |          8742504 |  3839998172 |  2231652694044 |         271 |       54622
            283 |           146598 |          8795884 |  3840002264 |  2131733275312 |         269 |       49846
            284 |           142309 |          8538516 |  3839983428 |  2365186318148 |         249 |       60373
            285 |           122082 |          7324912 |  3840016032 |  3898004571520 |         266 |       52189
            286 |           147325 |          8839484 |  3840002544 |  2392134371240 |         270 |       88956
            287 |           146889 |          8813324 |  3840005320 |  2249940834888 |         268 |       65567
            288 |           144273 |          8656368 |  3839995200 |  2488620629112 |         271 |       72911
            289 |           146201 |          8772068 |  3840003924 |  2219084505996 |         269 |       57629
            290 |           145882 |          8752908 |  3839996360 |  2402669599528 |         266 |       71837
            291 |           146223 |          8773360 |  3839997652 |  2482562611684 |         269 |       90402
            292 |           147499 |          8849952 |  3839996632 |  2465168585728 |         245 |       89147
            293 |           147010 |          8820616 |  3839996928 |  2424803928016 |         266 |       84435
            294 |           144947 |          8696840 |  3840006240 |  3249118903440 |         263 |       80539
            295 |           148741 |          8924480 |  3840003300 |  2193323079284 |         268 |       67784
            296 |           147351 |          8841088 |  3839999020 |  2477356362924 |         264 |       69774
            297 |           147225 |          8833492 |  3839873148 |  2356630172660 |         268 |       81713
            298 |           148516 |          8910980 |  3840121288 |  2302175346032 |         263 |       69621
            299 |           142381 |          8542852 |  3839995776 |  2473974671352 |         269 |       80757
            300 |           124923 |          7495356 |  3840007480 |  2801295558328 |         259 |       83125
            301 |           147647 |          8858844 |  3840000484 |  2372171132092 |         262 |       80372
            302 |           146088 |          8765300 |  3840000476 |  2503222633380 |         258 |       89822
            303 |           138656 |          8319348 |  3839998648 |  9749314011744 |         221 |      294099
            304 |           141572 |          8494336 |  3839997064 |  8463928139488 |         264 |      282952
            305 |           141195 |          8471728 |  3840003152 |  5247465664360 |         258 |      173141
            306 |           140090 |          8405372 |  3839994340 | 10718377266492 |         268 |      280307
            307 |           141074 |          8464416 |  3840009028 |  8964495384044 |         246 |      295417
            308 |           141464 |          8487868 |  3839994240 |  5954416519232 |         265 |      210245
            309 |           142710 |          8562596 |  3840002524 |  8253251852108 |         268 |      283172
            310 |           141904 |          8514224 |  3840003988 |  8685464474060 |         270 |      291674
            311 |           144274 |          8656464 |  3839997256 |  8548733935912 |         262 |      293976
            312 |           140359 |          8421568 |  3840000156 | 10527651274844 |         258 |      313132
            313 |           141975 |          8518480 |  3839993924 |  7624454821956 |         271 |      248611
            314 |           138855 |          8331304 |  3839999744 |  8089869894008 |         269 |      288708
            315 |           120727 |          7243620 |  3840003716 |  9186814297244 |         270 |      294971
            316 |           145305 |          8718316 |  3839996436 |  9268725058644 |         262 |      303558
            317 |           141802 |          8508120 |  3840009452 |  8838139480668 |         271 |      297173
            318 |           141714 |          8502832 |  3839999216 |  8516322061680 |         270 |      288337
            319 |           141162 |          8469712 |  3839999824 |  8362694323736 |         269 |      278516
            320 |           141733 |          8503964 |  3839998848 |  7598871186496 |         274 |      254617
            321 |           142094 |          8525660 |  3839987112 |  8192035379488 |         262 |      274558
            322 |           140055 |          8403280 |  3840012400 |  9255666113008 |         265 |      267133
            323 |           142043 |          8522592 |  3839993904 |  9165838180056 |         261 |      303377
            324 |           143617 |          8617044 |  3839994096 |  7470772216800 |         272 |      264842
            325 |           143983 |          8638984 |  3840011144 |  5747666849736 |         269 |      193012
            326 |           144656 |          8679340 |  3840001924 | 12760881768260 |         224 |      317182
            327 |           145540 |          8732380 |  3839998808 |  8065434717264 |         268 |      269469
            328 |           144231 |          8653840 |  3839993056 |  5729285780112 |         272 |      205328
            329 |           141758 |          8505464 |  3823696472 |  6245133063616 |         274 |      233141
            330 |           116988 |          7019308 |  3856307072 |  8780669862056 |         270 |      293851
            331 |           144089 |          8645348 |  3839998328 |  4982785030776 |         268 |      195091
            332 |           146165 |          8769904 |  3840001156 |  2260390382804 |         264 |       72405
            333 |           146683 |          8800956 |  3839999900 |  2378334640932 |         270 |       77704
            334 |           147178 |          8830700 |  3839996528 |  2420762914312 |         259 |       77168
            335 |           146347 |          8780848 |  3840002932 |  2468109811412 |         255 |       79203
            336 |           147412 |          8844708 |  3840005108 |  2326280427476 |         255 |       79876
            337 |           148156 |          8889384 |  3840001948 |  2509079906228 |         266 |       95179
            338 |           152294 |          9137624 |  3839999340 |  2264892208740 |         262 |       72451
            339 |           147103 |          8826164 |  3839999540 |  2435373281188 |         269 |       87928
            340 |           145512 |          8730728 |  3839997460 |  3372205755300 |         238 |       90133
            341 |           147973 |          8878408 |  3839997976 |  2384365150592 |         267 |       87409
            342 |           148049 |          8882940 |  3839999972 |  2396531934196 |         263 |       85997
            343 |           147527 |          8851644 |  3839998512 |  2280214622736 |         262 |       47779
            344 |           143678 |          8620660 |  3839988564 |  2448922264868 |         266 |       53707
            345 |           126153 |          7569172 |  3840010960 |  3017942246552 |         265 |       89396
            346 |           147428 |          8845672 |  3840006824 |  2261335265336 |         259 |       66161
            347 |           147360 |          8841588 |  3839996744 |  2401456513000 |         268 |       85216
            348 |           146122 |          8767316 |  3840002956 |  2281834642476 |         267 |       69311
            349 |           144272 |          8656312 |  3839993640 |  3283702518848 |         259 |       83246
            350 |           146600 |          8795992 |  3839993552 |  2283131517536 |         261 |       69595
            351 |           146341 |          8780468 |  3840010992 |  2393562054920 |         259 |       80528
            352 |           147811 |          8868656 |  3839997252 |  2413062333860 |         262 |       78097
            353 |           145788 |          8747264 |  3839998276 |  2252764182300 |         260 |       64391
            354 |           148598 |          8915856 |  3840006980 |  2264665720868 |         263 |       73962
            355 |           148189 |          8891356 |  3840001232 |  2280174850104 |         264 |       71236
            356 |           147637 |          8858200 |  3839997680 |  2304209922344 |         248 |       74379
            357 |           146742 |          8804548 |  3839998580 |  2313047585220 |         254 |       73400
            358 |           144270 |          8656204 |  3839999852 |  3325588404276 |         265 |       88064
            359 |           143741 |          8624484 |  3839974184 |  2388168793688 |         269 |       74785
(360 rows)

