 interval_start | avg_transactions | num_transactions | sum_latency | sum_latency_2  | min_latency | max_latency 
----------------+------------------+------------------+-------------+----------------+-------------+-------------
              0 |            91373 |          5482376 |  3826040528 |  9503686081192 |         346 |       85047
              1 |           112005 |          6720288 |  3840006144 |  7013922450312 |         326 |      101214
              2 |           112087 |          6725228 |  3840003496 |  5777802763208 |         348 |       52866
              3 |           112156 |          6729388 |  3839990552 |  6117858759856 |         355 |       95292
              4 |           112244 |          6734632 |  3839996248 |  5645862756352 |         345 |       56575
              5 |           111789 |          6707356 |  3840014108 |  6581108191844 |         331 |      104444
              6 |           112155 |          6729312 |  3839997432 |  6012075120816 |         348 |       55482
              7 |           111170 |          6670180 |  3840001296 |  6473167852784 |         351 |      102361
              8 |           111422 |          6685320 |  3839998676 |  6242682941236 |         344 |      109297
              9 |           111314 |          6678868 |  3839994368 |  6072706463144 |         353 |       96349
             10 |           111348 |          6680904 |  3839996300 |  6393011514636 |         346 |      103760
             11 |           111112 |          6666728 |  3840009312 |  5781250380336 |         353 |       58437
             12 |           109777 |          6586648 |  3840004012 |  5847719331324 |         339 |       61047
             13 |           111185 |          6671096 |  3839995584 |  5900814586552 |         345 |       55380
             14 |           111429 |          6685744 |  3839994648 |  5942171407336 |         351 |       53536
             15 |            85993 |          5159608 |  3839996320 | 29904019945872 |         345 |       99412
             16 |           111514 |          6690836 |  3840003700 |  6571622599900 |         351 |       90466
             17 |           110680 |          6640796 |  3839996380 |  7713742225828 |         364 |       94229
             18 |           110874 |          6652416 |  3840009720 |  6867676198760 |         347 |       91651
             19 |           110779 |          6646768 |  3839990716 |  7094052608676 |         348 |       92038
             20 |           111047 |          6662792 |  3840070988 |  8472109936188 |         342 |       94316
             21 |           111697 |          6701844 |  3839997064 |  9247891093296 |         338 |       96196
             22 |           111615 |          6696908 |  3837006864 |  9790017988544 |         339 |       96561
             23 |           111504 |          6690232 |  3842993052 |  9243591661060 |         343 |       99712
             24 |           111092 |          6665492 |  3839997520 |  8880747281456 |         353 |       93428
             25 |           110889 |          6653336 |  3840008712 |  6096867137400 |         341 |       69456
             26 |           110961 |          6657684 |  3839996584 |  6335110451400 |         346 |       86661
             27 |           111165 |          6669908 |  3840000468 |  7367766281756 |         350 |       93724
             28 |           111666 |          6699940 |  3840000268 |  5761517033804 |         349 |       87641
             29 |           112420 |          6745216 |  3839996556 |  3841711783764 |         350 |       55352
             30 |            95419 |          5725148 |  3840013992 |  3926732172072 |         350 |       48681
             31 |           111647 |          6698800 |  3839997360 |  3842639507840 |         350 |       47136
             32 |           112586 |          6755140 |  3839986964 |  4196914161324 |         351 |       53237
             33 |           112535 |          6752104 |  3840003968 |  4075274257112 |         326 |       63938
             34 |           111351 |          6681048 |  3839995336 |  4087204382704 |         350 |       53384
             35 |           112634 |          6758064 |  3840011256 |  4236341073040 |         352 |       61735
             36 |           112661 |          6759660 |  3839991620 |  4237092994116 |         349 |       55300
             37 |           112461 |          6747684 |  3840007648 |  3959060062520 |         333 |       64775
             38 |           111990 |          6719408 |  3839997264 |  4090056051584 |         351 |       59611
             39 |           111944 |          6716636 |  3840004716 |  4286335464076 |         348 |       55079
             40 |           112140 |          6728404 |  3839998724 |  4060244815348 |         351 |       59907
             41 |           111947 |          6716828 |  3839997900 |  4069392033620 |         356 |       58679
             42 |           112452 |          6747148 |  3840003884 |  5098940151140 |         345 |      107216
             43 |           112469 |          6748164 |  3839994408 |  4386759998208 |         344 |       57115
             44 |           111876 |          6712556 |  3839998300 |  4030332682500 |         334 |       59552
             45 |            96093 |          5765576 |  3839984176 |  4797664408680 |         351 |      101205
             46 |           112093 |          6725556 |  3840013720 |  4161053706264 |         343 |       54295
             47 |           111987 |          6719248 |  3839999456 |  4046237263512 |         346 |       61233
             48 |           111074 |          6664436 |  3839999592 |  4046931167904 |         328 |       60320
             49 |           111238 |          6674304 |  3839987476 |  3912343528548 |         352 |       55036
             50 |           111779 |          6706756 |  3840016580 |  3952084322852 |         333 |       60176
             51 |           112021 |          6721272 |  3839995688 |  4075767229392 |         339 |       53745
             52 |           111906 |          6714372 |  3839974768 |  3791821335304 |         348 |       46882
             53 |           112081 |          6724852 |  3840032220 |  3977205095708 |         351 |       54867
             54 |           111353 |          6681172 |  3839996536 |  4244110552912 |         351 |       58780
             55 |           111964 |          6717820 |  3839993960 |  4278218886528 |         335 |       62528
             56 |           111912 |          6714740 |  3840008504 |  4036404320656 |         364 |       59876
             57 |           111975 |          6718516 |  3839992224 |  4069279746080 |         356 |       50792
             58 |           110876 |          6652584 |  3840005912 |  6683887494992 |         343 |      102836
             59 |           112980 |          6778800 |  3840000376 |  4033838812896 |         353 |       55232
             60 |            96689 |          5801360 |  3839997372 |  4017582701068 |         342 |       68419
             61 |           109908 |          6594488 |  3840001648 |  3809013404928 |         338 |       53520
             62 |           111131 |          6667872 |  3839999288 |  4769793025536 |         352 |      106413
             63 |           111817 |          6709024 |  3840001304 |  4113171881344 |         342 |       54996
             64 |           112056 |          6723380 |  3840003704 |  4097205782504 |         339 |       58794
             65 |           112680 |          6760808 |  3839995368 |  3818645483112 |         338 |       49201
             66 |           112169 |          6730116 |  3840000392 |  3982281197248 |         342 |       52947
             67 |           111989 |          6719316 |  3840003840 |  4010678972472 |         345 |       52430
             68 |           111413 |          6684760 |  3839994820 |  4117385343108 |         355 |       49727
             69 |           112065 |          6723908 |  3839997420 |  3992038458100 |         351 |       49575
             70 |           112545 |          6752676 |  3840006060 |  4073161729332 |         344 |       52605
             71 |           112680 |          6760776 |  3840002056 |  4262644699352 |         341 |       57980
             72 |           112651 |          6759072 |  3839990692 |  3994828026412 |         349 |       56400
             73 |           112083 |          6724988 |  3840005824 |  4312748810512 |         347 |      104619
             74 |           112899 |          6773920 |  3839999776 |  4095019428984 |         349 |       56170
             75 |            96301 |          5778056 |  3840000068 |  3995807509068 |         343 |       55932
             76 |           109850 |          6591000 |  3839999564 |  3990863156348 |         349 |       54003
             77 |           111954 |          6717216 |  3840003308 |  4091630484132 |         345 |       53478
             78 |           112094 |          6725620 |  3839993368 |  4252985821128 |         347 |       56206
             79 |           112855 |          6771284 |  3839991236 |  4170198909076 |         346 |       55639
             80 |           112142 |          6728540 |  3840010116 |  4294673645492 |         344 |       56472
             81 |           111962 |          6717704 |  3840004748 |  4201657772852 |         340 |       55791
             82 |           112107 |          6726400 |  3839996800 |  4203084980024 |         348 |       53349
             83 |           111711 |          6702668 |  3839992168 |  4125388637080 |         348 |       51491
             84 |           111961 |          6717648 |  3840011600 |  4776649357336 |         336 |      101129
             85 |           111317 |          6678996 |  3839997520 |  3848443005848 |         347 |       61589
             86 |           112114 |          6726820 |  3840000832 |  4077671920456 |         353 |       54491
             87 |           111158 |          6669460 |  3839992352 |  5078797871848 |         351 |      108838
             88 |           112170 |          6730224 |  3840011412 |  4189592273836 |         340 |       57873
             89 |           111951 |          6717056 |  3839993600 |  4335765546528 |         351 |       58092
             90 |            95846 |          5750752 |  3840007348 |  4011696296844 |         358 |       61212
             91 |           111905 |          6714320 |  3839995764 |  4226583362940 |         342 |       58389
             92 |           111434 |          6686048 |  3839999776 |  4257128661392 |         348 |       62065
             93 |           111706 |          6702388 |  3840003168 |  4002959744144 |         342 |       56118
             94 |           111880 |          6712816 |  3839995024 |  4232262356288 |         347 |       55771
             95 |           110075 |          6604504 |  3839999580 |  3831743207524 |         349 |       51049
             96 |           111688 |          6701292 |  3840001096 |  4149023176160 |         354 |       54211
             97 |           111131 |          6667848 |  3840004016 |  4023350257464 |         355 |       57532
             98 |           112114 |          6726840 |  3839990432 |  4128019206544 |         356 |       55701
             99 |           111784 |          6707052 |  3840006392 |  4195636088624 |         341 |       53028
            100 |           111495 |          6689724 |  3839996824 |  4306174432296 |         344 |       63570
            101 |           112046 |          6722752 |  3840002600 |  4238512514728 |         322 |       56953
            102 |           112062 |          6723692 |  3839997156 |  4603637698332 |         358 |      103807
            103 |           112034 |          6722028 |  3840002076 |  4807870405580 |         338 |      107229
            104 |           112626 |          6757548 |  3840000360 |  4080554030048 |         343 |       61472
            105 |            96411 |          5784644 |  3839992000 |  3649557325584 |         340 |       41260
            106 |           109490 |          6569396 |  3840012032 |  3739802390784 |         346 |       54202
            107 |           111128 |          6667652 |  3840000676 |  3876312182084 |         351 |       48805
            108 |           111762 |          6705744 |  3839997840 |  3958966886304 |         348 |       50765
            109 |           111006 |          6660332 |  3839993660 |  3940564415612 |         344 |       51721
            110 |           111413 |          6684792 |  3839996748 |  4350293278196 |         342 |       59556
            111 |           112145 |          6728720 |  3840004460 |  4485919231884 |         346 |       67937
            112 |           112172 |          6730316 |  3839998336 |  4343206475600 |         346 |       57430
            113 |           111735 |          6704096 |  3839948780 |  3978635409604 |         345 |       49763
            114 |           112398 |          6743860 |  3839990084 |  4115904152332 |         356 |       61286
            115 |           112586 |          6755132 |  3839998008 |  4190505830112 |         346 |       58047
            116 |           111844 |          6710616 |  3839997780 |  4043607509012 |         345 |       53523
            117 |           111578 |          6694688 |  3840009188 |  3851487137476 |         344 |       57018
            118 |           111546 |          6692780 |  3839987916 |  4172707902060 |         346 |       61941
            119 |           112316 |          6738948 |  3840005048 |  4062930342744 |         321 |       58117
            120 |            96345 |          5780672 |  3840009252 |  3950245700564 |         336 |       54890
            121 |           108344 |          6500624 |  3839998396 |  3582474024220 |         355 |       50255
            122 |           108533 |          6511964 |  3840000192 |  3385653381424 |         334 |       29323
            123 |           108026 |          6481536 |  3839992908 |  3439917393852 |         355 |       29155
            124 |           108214 |          6492816 |  3839998360 |  3387854903040 |         351 |       34542
            125 |           108251 |          6495056 |  3839998848 |  3318841359976 |         358 |       31621
            126 |           108213 |          6492752 |  3840002600 |  3305590005736 |         360 |       26088
            127 |           107886 |          6473152 |  3840000664 |  3355560470128 |         358 |       30101
            128 |           107214 |          6432836 |  3840002368 |  5927550338488 |         344 |       51505
            129 |           106045 |          6362684 |  3840000984 | 10012826334424 |         349 |       89494
            130 |           106375 |          6382480 |  3840001092 |  9149248601052 |         349 |       73816
            131 |           106477 |          6388632 |  3839995492 |  9509872614172 |         358 |       75461
            132 |           105309 |          6318564 |  3840003724 |  9086600258268 |         352 |       73733
            133 |           106669 |          6400128 |  3839995804 |  6037937873852 |         355 |       67141
            134 |           108362 |          6501712 |  3839996668 |  3275730021276 |         343 |       28155
            135 |            93785 |          5627124 |  3840004512 |  3442833530528 |         357 |       31131
            136 |           108640 |          6518420 |  3839994316 |  3991228996900 |         357 |      106331
            137 |           108026 |          6481564 |  3840004984 |  3416798972376 |         343 |       34320
            138 |           107888 |          6473264 |  3840004440 |  3374230839560 |         347 |       29720
            139 |           106806 |          6408340 |  3839986132 |  6727819913716 |         354 |       70060
            140 |           105604 |          6336212 |  3840004256 |  8677310126904 |         356 |       71507
            141 |           105530 |          6331804 |  3839498336 |  8400300955528 |         352 |       64758
            142 |           105909 |          6354524 |  3840503592 |  8263570280848 |         351 |       73402
            143 |           108486 |          6509136 |  3840001336 |  6404199177672 |         365 |       69670
            144 |           108825 |          6529496 |  3840007700 |  6119874538772 |         354 |       70547
            145 |           109115 |          6546912 |  3839986004 |  6348258478732 |         342 |       74177
            146 |           108402 |          6504132 |  3840001604 |  9366413091204 |         356 |       76298
            147 |           109068 |          6544088 |  3840011448 | 12023190772152 |         347 |      108097
            148 |           109745 |          6584724 |  3839990448 |  6712694580240 |         353 |       84371
            149 |           110433 |          6625980 |  3839998244 |  3412413361860 |         355 |       35499
            150 |            94696 |          5681752 |  3840006936 |  3958363823952 |         354 |       45644
            151 |           111267 |          6676008 |  3840006012 |  4243101017212 |         349 |       51318
            152 |           111332 |          6679892 |  3839993788 |  4209531087612 |         337 |       53527
            153 |           112244 |          6734628 |  3840004848 |  4394923545144 |         349 |       57111
            154 |           111538 |          6692256 |  3839997000 |  4128268941512 |         341 |       52774
            155 |           111972 |          6718324 |  3839998052 |  3963359191876 |         349 |       56940
            156 |           111882 |          6712920 |  3839996928 |  4113447681736 |         345 |       52985
            157 |           111735 |          6704108 |  3840008480 |  4008219309608 |         355 |       51187
            158 |           111333 |          6679980 |  3839998904 |  4105538166272 |         350 |       60107
            159 |           111858 |          6711472 |  3839997664 |  4283446579768 |         351 |       59034
            160 |           112177 |          6730644 |  3839995844 |  4241640541244 |         355 |       58173
            161 |           112543 |          6752572 |  3840003556 |  3985653211508 |         339 |       54899
            162 |           111654 |          6699236 |  3839993572 |  4950571548852 |         353 |      104111
            163 |           111471 |          6688272 |  3840007344 |  3931178287776 |         350 |       52653
            164 |           111679 |          6700752 |  3840003732 |  4240571009124 |         353 |       63747
            165 |            97238 |          5834300 |  3839989540 |  4574308253748 |         344 |       57967
            166 |           110425 |          6625500 |  3840005540 |  4105188447892 |         344 |       55744
            167 |           111244 |          6674668 |  3839993612 |  4136993384620 |         348 |       54967
            168 |           111822 |          6709340 |  3839998304 |  4210583847912 |         349 |       57219
            169 |           111752 |          6705148 |  3839997668 |  4336715120220 |         353 |       63778
            170 |           110786 |          6647180 |  3840006556 |  4846115000900 |         348 |      107621
            171 |           111101 |          6666032 |  3839993592 |  4216840540336 |         333 |       62272
            172 |           111885 |          6713108 |  3840005732 |  4073153034020 |         344 |       54195
            173 |           111723 |          6703408 |  3840004524 |  4219767913852 |         354 |       55705
            174 |           111847 |          6710808 |  3840003212 |  4107892793468 |         338 |       51524
            175 |           111533 |          6692004 |  3839995076 |  4160792787716 |         340 |       71002
            176 |           111496 |          6689776 |  3840003856 |  4180605008824 |         343 |       55220
            177 |           112859 |          6771544 |  3839996180 |  4044682146692 |         350 |       53916
            178 |           111764 |          6705828 |  3840000304 |  4018190418920 |         331 |       53511
            179 |           112337 |          6740220 |  3840002072 |  3970989747976 |         344 |       52547
            180 |            97278 |          5836680 |  3839984888 |  4622332685656 |         343 |       53360
            181 |           111912 |          6714696 |  3840009640 |  4126048440672 |         348 |       54980
            182 |           111438 |          6686296 |  3840006180 |  4853590840764 |         355 |      103988
            183 |           111871 |          6712264 |  3839996016 |  3887835234520 |         353 |       57050
            184 |           110394 |          6623624 |  3839997064 |  4115921195264 |         347 |       52446
            185 |           111689 |          6701356 |  3840008408 |  4287332591488 |         349 |       56235
            186 |           111187 |          6671196 |  3839997400 |  4024090665216 |         349 |       51522
            187 |           111611 |          6696684 |  3839995664 |  4174590580256 |         341 |       60192
            188 |           111437 |          6686240 |  3840005352 |  4028209927480 |         343 |       50619
            189 |           111798 |          6707892 |  3839994012 |  4133282671476 |         345 |       63268
            190 |           111952 |          6717100 |  3840008780 |  4243666758436 |         344 |       56562
            191 |           112383 |          6742976 |  3839998892 |  4400941359292 |         346 |       64439
            192 |           111914 |          6714832 |  3839996220 |  4117423454100 |         350 |       57367
            193 |           111546 |          6692772 |  3840002904 |  3944439086728 |         350 |       51424
            194 |           111631 |          6697860 |  3839992804 |  4127130048540 |         318 |       54347
            195 |            97398 |          5843860 |  3840003136 |  4498012179760 |         350 |       55691
            196 |           111961 |          6717640 |  3839996804 |  4360173384788 |         357 |       60040
            197 |           111849 |          6710964 |  3839995048 |  4974603891808 |         350 |      107042
            198 |           111896 |          6713784 |  3840006400 |  4251812944440 |         353 |       54791
            199 |           111473 |          6688388 |  3840003464 |  4261319688184 |         352 |       50769
            200 |           111504 |          6690256 |  3839995828 |  3991794396868 |         342 |       57651
            201 |           111820 |          6709212 |  3840008824 |  4206322762168 |         349 |       51415
            202 |           111361 |          6681644 |  3839998244 |  4376622028692 |         356 |       54473
            203 |           110056 |          6603348 |  3839994952 |  4028274227488 |         353 |       51929
            204 |           111026 |          6661560 |  3840003940 |  4344792655020 |         348 |       61867
            205 |           111640 |          6698380 |  3839998212 |  4150666717940 |         337 |       76720
            206 |           111461 |          6687688 |  3840000704 |  4048248647840 |         354 |       51162
            207 |           111854 |          6711224 |  3840003152 |  3939103192720 |         347 |       55264
            208 |           112240 |          6734372 |  3839993780 |  3920497372636 |         338 |       55951
            209 |           111826 |          6709580 |  3840000932 |  4158447302508 |         334 |       56538
            210 |            97358 |          5841460 |  3840004184 |  4586152614752 |         351 |       52602
            211 |           111776 |          6706556 |  3840003248 |  4169710882504 |         351 |       51643
            212 |           112017 |          6721032 |  3839991740 |  4183483635508 |         351 |       50871
            213 |           109082 |          6544948 |  3840004804 |  3505112435060 |         354 |       34308
            214 |           108430 |          6505780 |  3839988748 |  3261657475548 |         332 |       28478
            215 |           108011 |          6480664 |  3840012240 |  3277125108984 |         360 |       32074
            216 |           108331 |          6499872 |  3839994840 |  3364386921192 |         351 |       29892
            217 |           108351 |          6501044 |  3839994664 |  3322366314496 |         357 |       29202
            218 |           108342 |          6500540 |  3839999828 |  3275871353436 |         351 |       27034
            219 |           107996 |          6479772 |  3840011496 |  3393106229696 |         338 |       27588
            220 |           108163 |          6489760 |  3839998884 |  3244187456412 |         352 |       30040
            221 |           109251 |          6555064 |  3839994172 |  3322460916908 |         336 |       28380
            222 |           108613 |          6516764 |  3840001400 |  3366831043096 |         350 |       29737
            223 |           107765 |          6465872 |  3839999080 |  3440801897680 |         350 |       28692
            224 |           108894 |          6533648 |  3839998156 |  3427150333964 |         348 |       29562
            225 |            92792 |          5567532 |  3839195536 |  3516446859576 |         356 |       25419
            226 |           108133 |          6487964 |  3840806868 |  3320552475180 |         357 |       30324
            227 |           107954 |          6477256 |  3840001520 |  3346548024024 |         344 |       30877
            228 |           107850 |          6470992 |  3840007532 |  3334383623428 |         344 |       27665
            229 |           108565 |          6513900 |  3839980916 |  3334543895612 |         355 |       26174
            230 |           108538 |          6512252 |  3840007028 |  3391670237556 |         347 |       31410
            231 |           107623 |          6457352 |  3839998880 |  3584295957920 |         356 |       65558
            232 |           108058 |          6483500 |  3839996992 |  3215501129056 |         349 |       31003
            233 |           108758 |          6525508 |  3840011436 |  3266658474444 |         351 |       30448
            234 |           109213 |          6552788 |  3839999612 |  3410060159452 |         349 |       30150
            235 |           110613 |          6636784 |  3839992932 |  3357013573036 |         347 |       29430
            236 |           110573 |          6634380 |  3839997000 |  3325792643512 |         349 |       31851
            237 |           109827 |          6589648 |  3840004416 |  3377986890544 |         343 |       30292
            238 |           109513 |          6570776 |  3840001132 |  4274361145292 |         357 |       72153
            239 |           110015 |          6600880 |  3839998368 |  3406657539384 |         351 |       31112
            240 |            95154 |          5709232 |  3840007352 |  3582576911944 |         347 |       33092
            241 |           108827 |          6529596 |  3839989356 |  3475212857476 |         345 |       46041
            242 |           111278 |          6676680 |  3840007644 |  4284170014492 |         350 |       53666
            243 |           111650 |          6698972 |  3839995764 |  4263817183772 |         335 |       58863
            244 |           111677 |          6700644 |  3840010312 |  4094409799584 |         354 |       59348
            245 |           111367 |          6682048 |  3839986556 |  4184643423580 |         346 |       55536
            246 |           111216 |          6672956 |  3840006316 |  4172276330732 |         347 |       57086
            247 |           111439 |          6686328 |  3839974172 |  4198826012644 |         346 |       56364
            248 |           111176 |          6670548 |  3840027148 |  4172335596172 |         349 |       52998
            249 |           111675 |          6700472 |  3839996692 |  4028925295860 |         357 |       57645
            250 |           112059 |          6723520 |  3840001228 |  4159956743884 |         354 |       53890
            251 |           111972 |          6718320 |  3840000588 |  4743371697196 |         336 |      105837
            252 |           112334 |          6740060 |  3839995568 |  4128251750160 |         341 |       59032
            253 |           111328 |          6679688 |  3839998396 |  4221199274412 |         308 |       57253
            254 |           111627 |          6697612 |  3840010328 |  4254256744800 |         351 |       61767
            255 |            96261 |          5775636 |  3840001760 |  3555191139232 |         341 |       36878
            256 |           110665 |          6639912 |  3839981956 |  4037998601460 |         345 |       60968
            257 |           112052 |          6723100 |  3840017388 |  4074370208868 |         355 |       51024
            258 |           112727 |          6763628 |  3839983260 |  4149898531660 |         354 |       56550
            259 |           112081 |          6724864 |  3840009324 |  4142962678316 |         335 |       54062
            260 |           111162 |          6669696 |  3839998852 |  4681581558628 |         357 |      107286
            261 |           111500 |          6690008 |  3840001620 |  4039705850268 |         343 |       53579
            262 |           111602 |          6696148 |  3839987088 |  4409214189272 |         348 |       57451
            263 |           111342 |          6680504 |  3840012236 |  4158606123924 |         344 |       57188
            264 |           111885 |          6713128 |  3840000472 |  4141687225088 |         345 |       59155
            265 |           112316 |          6738976 |  3839993968 |  4748289198312 |         349 |      102279
            266 |           111950 |          6716996 |  3840005592 |  3809777300688 |         336 |       50317
            267 |           109931 |          6595860 |  3840001344 |  4262939735240 |         350 |       61240
            268 |           112069 |          6724128 |  3839998484 |  4076968469836 |         354 |       55418
            269 |           111825 |          6709496 |  3840005968 |  3952275885552 |         358 |       55342
            270 |            96550 |          5792976 |  3839998460 |  3660449315852 |         355 |       51390
            271 |           111959 |          6717532 |  3839995288 |  4265117704856 |         352 |       49433
            272 |           111402 |          6684120 |  3840001392 |  4116694938168 |         349 |       54196
            273 |           111132 |          6667936 |  3839995332 |  4257737904572 |         350 |       54562
            274 |           111696 |          6701756 |  3840004788 |  4492508764780 |         348 |       56897
            275 |           111353 |          6681192 |  3840001312 |  4131971260552 |         354 |       63826
            276 |           111085 |          6665088 |  3839992840 |  4272534813432 |         351 |       55312
            277 |           111488 |          6689296 |  3840006852 |  4123625855940 |         338 |       54127
            278 |           111203 |          6672152 |  3839954220 |  3875276162860 |         337 |       49614
            279 |           110987 |          6659228 |  3840046348 |  4158314397076 |         330 |       51816
            280 |           111515 |          6690896 |  3840003936 |  4061262464312 |         345 |       53885
            281 |           112142 |          6728512 |  3839983688 |  4750067354968 |         349 |      105156
            282 |           111741 |          6704488 |  3840001600 |  4146272211600 |         345 |       53523
            283 |           112276 |          6736548 |  3840003376 |  4126923723208 |         345 |       54043
            284 |           111713 |          6702788 |  3839999696 |  4438520206056 |         339 |       63219
            285 |            96979 |          5818744 |  3839997876 |  3722936523532 |         331 |       55636
            286 |           111338 |          6680288 |  3839997524 |  4254159881980 |         347 |       55247
            287 |           111526 |          6691532 |  3839994196 |  3989563421212 |         342 |       51094
            288 |           111438 |          6686272 |  3840008116 |  4352641308052 |         346 |       55607
            289 |           111283 |          6677004 |  3839999260 |  4184087702908 |         354 |       57743
            290 |           111652 |          6699108 |  3840002680 |  4413476273080 |         344 |       56057
            291 |           112199 |          6731952 |  3839999700 |  4261354088956 |         350 |       52695
            292 |           111375 |          6682484 |  3840006596 |  4228224263764 |         348 |       59271
            293 |           111637 |          6698240 |  3839992516 |  4214206098188 |         333 |       64845
            294 |           110558 |          6633468 |  3840005068 |  4159411342156 |         349 |       51985
            295 |           112015 |          6720920 |  3840006656 |  4325332988248 |         351 |       62637
            296 |           113259 |          6795516 |  3839990780 |  4419120103220 |         345 |       58601
            297 |           111148 |          6668908 |  3840005172 |  4980978520532 |         334 |      103721
            298 |           111624 |          6697444 |  3839989100 |  4379258293724 |         346 |       63219
            299 |           112018 |          6721076 |  3836949328 |  4017575082880 |         353 |       54041
            300 |            96896 |          5813772 |  3843054016 |  3566429627328 |         347 |       53520
            301 |           111893 |          6713564 |  3840000684 |  4207613916220 |         332 |       50286
            302 |           111844 |          6710628 |  3839996520 |  4106387537496 |         353 |       52396
            303 |           111536 |          6692184 |  3839991456 |  4162493432192 |         352 |       52153
            304 |           110853 |          6651180 |  3840008076 |  3749313780260 |         353 |       52082
            305 |           108995 |          6539728 |  3840007632 |  3408185319256 |         356 |       30986
            306 |           108161 |          6489656 |  3839947288 |  3329147807160 |         345 |       25523
            307 |           109178 |          6550660 |  3840037540 |  3308430106484 |         355 |       32004
            308 |           108556 |          6513356 |  3840003528 |  3337303278592 |         340 |       29031
            309 |           108165 |          6489908 |  3840001808 |  3291836932144 |         345 |       26178
            310 |           109175 |          6550484 |  3839991780 |  3431822558412 |         353 |       28326
            311 |           109032 |          6541916 |  3840001236 |  3392031525396 |         341 |       31308
            312 |           107891 |          6473476 |  3840008020 |  4011548119092 |         347 |      105886
            313 |           108237 |          6494200 |  3840005552 |  3360326726496 |         355 |       26571
            314 |           108599 |          6515916 |  3839987276 |  3372813046692 |         342 |       30607
            315 |            93591 |          5615436 |  3840009656 |  3477615373864 |         338 |       23919
            316 |           107603 |          6456208 |  3839995288 |  3473897176208 |         356 |       39122
            317 |           108746 |          6524780 |  3839999112 |  3317595729208 |         342 |       27132
            318 |           108663 |          6519776 |  3840002312 |  3358230183920 |         350 |       28898
            319 |           108053 |          6483192 |  3840006888 |  3331144211496 |         357 |       26301
            320 |           108436 |          6506172 |  3839993024 |  3260203089424 |         350 |       30556
            321 |           108246 |          6494772 |  3840002260 |  3335471343924 |         337 |       29574
            322 |           108472 |          6508312 |  3840000180 |  3374921209172 |         336 |       29452
            323 |           108472 |          6508312 |  3839996596 |  3373484919940 |         345 |       28513
            324 |           108294 |          6497636 |  3840001396 |  4050364526316 |         348 |      109579
            325 |           109671 |          6580264 |  3840008424 |  3343539760336 |         352 |       35799
            326 |           110279 |          6616716 |  3839996860 |  3446429316996 |         351 |       42822
            327 |           110245 |          6614708 |  3839995840 |  4015732519760 |         353 |      101791
            328 |           108899 |          6533956 |  3840006648 |  4824216566200 |         352 |       69522
            329 |           110242 |          6614540 |  3839987096 |  3420138281936 |         350 |       32244
            330 |            95033 |          5701960 |  3839996516 |  3596868900460 |         363 |       25969
            331 |           110221 |          6613244 |  3839951504 |  3306416562920 |         360 |       30375
            332 |           109927 |          6595648 |  3840057264 |  3337336456352 |         355 |       31792
            333 |           109570 |          6574200 |  3840000000 |  3750803161424 |         339 |       46831
            334 |           112474 |          6748412 |  3839987028 |  3919077386188 |         349 |       51305
            335 |           111688 |          6701304 |  3840021184 |  5180674747592 |         350 |      101088
            336 |           111872 |          6712312 |  3840001636 |  4071089426300 |         346 |       62223
            337 |           112003 |          6720192 |  3839990088 |  4403748530928 |         350 |       60017
            338 |           112434 |          6746056 |  3840003024 |  4085263976304 |         339 |       53466
            339 |           111539 |          6692352 |  3840004272 |  3991747312880 |         348 |       59539
            340 |           112740 |          6764388 |  3839988208 |  3780927848024 |         347 |       56186
            341 |           112333 |          6739968 |  3840003512 |  3990159370200 |         354 |       57629
            342 |           112165 |          6729872 |  3840002064 |  4137617565952 |         349 |       60405
            343 |           111896 |          6713732 |  3839994128 |  4313801114752 |         353 |       65071
            344 |           111947 |          6716792 |  3840009000 |  4146224453304 |         340 |       59208
            345 |            95902 |          5754120 |  3840000668 |  4135814577492 |         352 |       54475
            346 |           112157 |          6729392 |  3839994892 |  4301813595556 |         351 |       64684
            347 |           111726 |          6703556 |  3839995864 |  4746078163968 |         343 |      103561
            348 |           111393 |          6683564 |  3840004160 |  4168439842800 |         348 |       54360
            349 |           111730 |          6703792 |  3839992692 |  4363175426996 |         344 |       58660
            350 |           112146 |          6728784 |  3840016224 |  4012709289752 |         349 |       52011
            351 |           111816 |          6708960 |  3839980240 |  4309471260248 |         346 |       60285
            352 |           111283 |          6676976 |  3840008228 |  4157152730644 |         355 |       55795
            353 |           111508 |          6690508 |  3840005432 |  4017459880288 |         352 |       51749
            354 |           111711 |          6702660 |  3839991936 |  4141024122856 |         342 |       53776
            355 |           111598 |          6695896 |  3840012612 |  4114909425620 |         353 |       54094
            356 |           112434 |          6746044 |  3839999960 |  4965193655040 |         358 |      104987
            357 |           112321 |          6739288 |  3839994824 |  4362864689024 |         349 |       62916
            358 |           111358 |          6681460 |  3839995616 |  4022370957664 |         347 |       55782
            359 |           112325 |          6739504 |  3840003852 |  4200856845564 |         353 |       60222
(360 rows)

