 interval_start | avg_transactions | num_transactions | sum_latency |  sum_latency_2   | min_latency | max_latency 
----------------+------------------+------------------+-------------+------------------+-------------+-------------
              0 |            46732 |          2803944 |  3830003444 |  180166208345740 |         290 |     1226371
              1 |            45396 |          2723768 |  3841348576 | 3592552144706088 |           0 |     7249334
              2 |            48915 |          2934928 |  3840855404 | 6739196703688212 |           0 |    10102523
              3 |            52313 |          3138752 |  3839994700 | 7119433140111476 |           0 |    10382936
              4 |            51659 |          3099512 |  3839978196 | 3820807986032580 |           0 |     6087917
              5 |            43838 |          2630296 |  3840025300 | 1513869372405124 |           0 |     3784311
              6 |            45283 |          2717000 |  3838220512 | 5189461390551160 |           0 |     7705689
              7 |            51215 |          3072912 |  3840001640 | 4803280641258872 |           0 |     8484312
              8 |            53701 |          3222064 |  3841750376 | 5516922675229608 |           0 |     9121506
              9 |            56261 |          3375656 |  3839893304 |  872641409955424 |           0 |     2980900
             10 |            46963 |          2817800 |  3837965688 | 2898295469245032 |           0 |     6512569
             11 |            50522 |          3031296 |  3777782512 | 3523932604701744 |           0 |     7349927
             12 |            53659 |          3219520 |  3901440364 | 3966603089630516 |           0 |     7686842
             13 |            55114 |          3306816 |  3842929196 | 4566053628327436 |           0 |     8269750
             14 |            55961 |          3357672 |  3838743424 | 2729740955363104 |           0 |     6291257
             15 |            48962 |          2937724 |  3841262956 | 3745102928700828 |           0 |     7471766
             16 |            50829 |          3049764 |  3837978488 | 2182075639031264 |           0 |     4535629
             17 |            56350 |          3381024 |  3842006516 | 3928194857093876 |           0 |     7673471
             18 |            56992 |          3419524 |  3838810208 | 3841852839497912 |           0 |     7563036
             19 |            61606 |          3696360 |  3841213820 | 2100803956474372 |           0 |     5447621
             20 |            51746 |          3104756 |  3839977432 | 2597518977664488 |           0 |     6129011
             21 |            53946 |          3236760 |  3840017612 | 3179548809923212 |           0 |     6868827
             22 |            56413 |          3384808 |  3837729008 | 3692656015232176 |           0 |     7425241
             23 |            58618 |          3517072 |  3842249284 | 3873313718215692 |           0 |     7611200
             24 |            65760 |          3945584 |  3838403404 |  627580304863420 |           0 |     2581454
             25 |            56957 |          3417404 |  3841609540 | 2905144860400988 |           0 |     6446426
             26 |            55900 |          3353984 |  3465395308 |  151954737602724 |           0 |     1164757
             27 |            59144 |          3548624 |  3927048452 | 3268610018938100 |           0 |     6975063
             28 |            62729 |          3763756 |  3936343356 | 3325304545581764 |           0 |     7024677
             29 |            64026 |          3841588 |  3921065404 | 3893718528369532 |           0 |     7627949
             30 |            63293 |          3797584 |  3950148100 | 3283811800948612 |           0 |     6948865
             31 |            57234 |          3434032 |  3839027040 | 2804634915170704 |           0 |     6448558
             32 |            58541 |          3512460 |  3840976780 | 3286090881015708 |           0 |     6995414
             33 |            60858 |          3651476 |  3839998488 | 3202946642345416 |           0 |     6889433
             34 |            64924 |          3895420 |  3840002592 | 3453076532590688 |           0 |     7168742
             35 |            66180 |          3970792 |  3839997596 | 4193843520239852 |           0 |     8001744
             36 |            56325 |          3379504 |  3837747184 | 5509547416172744 |           0 |     9175618
             37 |            57505 |          3450328 |  3842266972 | 2931344442824924 |           0 |     6588720
             38 |            60190 |          3611420 |  3839975820 | 2854057559214660 |           0 |     6488864
             39 |            63446 |          3806744 |  3840021944 | 3278915290072776 |           0 |     6966107
             40 |            66827 |          4009608 |  3839992172 | 3383522453039812 |           0 |     7067007
             41 |            67603 |          4056192 |  3839989928 |  930592812553736 |           0 |     3188842
             42 |            56900 |          3413972 |  3840017920 | 2751722025084632 |           0 |     6376176
             43 |            60370 |          3622176 |  3839973108 | 3051357541945636 |           0 |     6723237
             44 |            61346 |          3680748 |  3838555744 | 3822042181238976 |           0 |     7556801
             45 |            66490 |          3989372 |  3841453060 | 3995934844572556 |           0 |     7730369
             46 |            68426 |          4105556 |  3839996628 | 3887314462608508 |           0 |     7653900
             47 |            61861 |          3711632 |  3840015424 | 5101639173407704 |           0 |     8825301
             48 |            58013 |          3480772 |  3839990660 | 2628880342176012 |           0 |     6216301
             49 |            60745 |          3644728 |  3839997892 | 3001687202542796 |           0 |     6647782
             50 |            63422 |          3805340 |  3840008800 | 3009610200443024 |           0 |     6652650
             51 |            67933 |          4075976 |  3798924060 | 3990647165414604 |           0 |     7839930
             52 |            68960 |          4137596 |  3879610112 | 5171722775463256 |           0 |     8847678
             53 |            60848 |          3650880 |  3840833320 | 3277907654589224 |           0 |     6963421
             54 |            59164 |          3549868 |  3839466348 | 3370596694104892 |           0 |     7101437
             55 |            61683 |          3701004 |  3841154848 | 2968696372715688 |           0 |     6632060
             56 |            66387 |          3983232 |  3840015972 | 2106852204949220 |           0 |     5492781
             57 |            63639 |          3818332 |  3839999972 | 4497268430886044 |           0 |     7606536
             58 |            76126 |          4567532 |  3839978456 |  662913240080632 |           0 |     2718319
             59 |            55570 |          3334212 |  3838724484 | 2855535309924268 |           0 |     5960747
             60 |            59231 |          3553880 |  3841293316 | 3170023183444716 |           0 |     6863653
             61 |            62321 |          3739256 |  3839004816 | 3366965211350408 |           0 |     7087176
             62 |            64954 |          3897224 |  3840983624 | 3797719389049184 |           0 |     7534489
             63 |            68225 |          4093528 |  3837841712 | 4351508718067152 |           0 |     8079564
             64 |            67803 |          4068172 |  3839246980 | 4595813646293404 |           0 |     8404038
             65 |            58387 |          3503192 |  3842924436 | 2855708953076404 |           0 |     6518838
             66 |            59623 |          3577372 |  3839998776 | 2837844252742080 |           0 |     6482633
             67 |            63981 |          3838860 |  3476090876 |  171224972329196 |           0 |     1304278
             68 |            67465 |          4047924 |  3931998004 | 3343786684930108 |           0 |     7051505
             69 |            69511 |          4170664 |  3922056628 | 4153114632743028 |           0 |     7879444
             70 |            69061 |          4143680 |  3972767000 | 2696862499026912 |           0 |     6228863
             71 |            60122 |          3607328 |  3897065920 | 2945330262222496 |           0 |     6636213
             72 |            62342 |          3740536 |  3839119868 | 2884702107626188 |           0 |     6507948
             73 |            63057 |          3783424 |  3840893204 | 3213516877857388 |           0 |     6908194
             74 |            67917 |          4075040 |  3839988300 | 3563716672083276 |           0 |     7274078
             75 |            67646 |          4058784 |  3838029516 | 4332267860884940 |           0 |     8053469
             76 |            64565 |          3873916 |  3840378108 | 2097698115822244 |           0 |     5439787
             77 |            59374 |          3562464 |  3841601164 | 2407487326144148 |           0 |     5928475
             78 |            63616 |          3816956 |  3840010524 | 2951133412590828 |           0 |     6591750
             79 |            64047 |          3842824 |  3839996728 | 3591553860141656 |           0 |     7324520
             80 |            68648 |          4118852 |  3840000792 | 3518265983723472 |           0 |     7223980
             81 |            69256 |          4155372 |  3840001880 | 4437455731521960 |           0 |     8244980
             82 |            59404 |          3564212 |  3838639204 | 4404361541850220 |           0 |     8175054
             83 |            61065 |          3663876 |  3840176448 | 2843767756126208 |           0 |     6474264
             84 |            60210 |          3612588 |  3838081680 | 3292994303808424 |           0 |     6003213
             85 |            64683 |          3881004 |  3843101676 | 3606338864220676 |           0 |     7328617
             86 |            68367 |          4101996 |  3839991524 | 3736392732584396 |           0 |     7454000
             87 |            73434 |          4406036 |  3840013380 | 1072794622373260 |           0 |     3413786
             88 |            57622 |          3457292 |  3839994328 | 2276259171316816 |           0 |     5762366
             89 |            60154 |          3609216 |  3838454992 | 2077914879824464 |           0 |     5273354
             90 |            63033 |          3781980 |  3785490752 | 3018292544590920 |           0 |     6793810
             91 |            66717 |          4003000 |  3894571944 | 4027598933250680 |           0 |     7774646
             92 |            69540 |          4172424 |  3840769468 | 4240298687301940 |           0 |     7989939
             93 |            65482 |          3928920 |  3840724620 | 4448495392648468 |           0 |     8163307
             94 |            58698 |          3521864 |  3839969328 | 2364222382460272 |           0 |     5901381
             95 |            60239 |          3614340 |  3837767956 | 3097955673742836 |           0 |     6776635
             96 |            63010 |          3780608 |  3842149324 | 3373019343447684 |           0 |     7085529
             97 |            66154 |          3969264 |  3840100324 | 3878773881599692 |           0 |     7619195
             98 |            68210 |          4092596 |  3840004420 | 4410628077116276 |           0 |     8134361
             99 |            66600 |          3995992 |  3839993956 | 3915056647544236 |           0 |     7706283
            100 |            59096 |          3545776 |  3840017232 | 2685701676560112 |           0 |     6299325
            101 |            60854 |          3651252 |  3839990752 | 2968976511135840 |           0 |     6630314
            102 |            63419 |          3805140 |  3836526272 | 3616866498554392 |           0 |     7353018
            103 |            67238 |          4034308 |  3842275576 | 4037469149509776 |           0 |     7767750
            104 |            75036 |          4502184 |  3841189844 |  449496421661068 |           0 |     1966216
            105 |            61934 |          3716028 |  3839997444 | 2521270296967516 |           0 |     5926022
            106 |            59751 |          3585040 |  3490939736 |  149169166090488 |           0 |     1153687
            107 |            63486 |          3809168 |  3932671628 | 2798055438829844 |           0 |     6424138
            108 |            65899 |          3953936 |  3937577420 | 3403671953728380 |           0 |     7120843
            109 |            69490 |          4169376 |  3927599372 | 3807871152445540 |           0 |     7541052
            110 |            70133 |          4208008 |  3908683504 | 4351685952378024 |           0 |     8118637
            111 |            55802 |          3348140 |  3842545280 | 4637640551849568 |           0 |     8396781
            112 |            59460 |          3567592 |  3837852660 | 2720606989034076 |           0 |     6325069
            113 |            63066 |          3783936 |  3842129732 | 2827892547683876 |           0 |     6451920
            114 |            64897 |          3893836 |  3839999768 | 3824474062408544 |           0 |     7560516
            115 |            69153 |          4149208 |  3840008140 | 3680544122871972 |           0 |     7412342
            116 |            68421 |          4105264 |  3838553644 | 4715186284189116 |           0 |     8536194
            117 |            57532 |          3451920 |  3841432140 | 3661849944065164 |           0 |     7421060
            118 |            59442 |          3566540 |  3840000712 | 2935833745519160 |           0 |     6602860
            119 |            63711 |          3822656 |  3837994556 | 2882307655738380 |           0 |     6519058
            120 |            66530 |          3991792 |  3842030172 | 4091575108734516 |           0 |     7830422
            121 |            65656 |          3939360 |  3839980324 | 5449474136424116 |           0 |     8141463
            122 |            70812 |          4248732 |  3837345728 |  367363668012368 |           0 |     1947702
            123 |            59197 |          3551812 |  3842654848 | 2469128675691816 |           0 |     6000108
            124 |            58935 |          3536088 |  3840009216 | 3079344724686632 |           0 |     6302361
            125 |            63148 |          3788880 |  3837240788 | 3426753911394052 |           0 |     7143727
            126 |            66010 |          3960600 |  3842756376 | 3546661386506280 |           0 |     7267734
            127 |            69308 |          4158460 |  3837496092 | 4443334140749388 |           0 |     8163324
            128 |            65524 |          3931424 |  3842507424 | 3993810894579944 |           0 |     7760206
            129 |            58429 |          3505744 |  3838168816 | 2778225942875832 |           0 |     6407362
            130 |            59563 |          3573764 |  3841763484 | 2771995938748684 |           0 |     6411523
            131 |            61531 |          3691888 |  3840028108 | 2893276607308412 |           0 |     6538957
            132 |            65394 |          3923628 |  3836710036 | 3504685410784860 |           0 |     7334161
            133 |            68648 |          4118892 |  3843319184 | 1912998256870304 |           0 |     5201744
            134 |            56753 |          3405208 |  3840012724 | 2450286758837988 |           0 |     5923070
            135 |            58035 |          3482108 |  3839996172 | 2580132484135308 |           0 |     6168279
            136 |            59805 |          3588312 |  3837961360 | 2632507883284896 |           0 |     6229562
            137 |            63019 |          3781128 |  3840336844 | 3458950591994628 |           0 |     7185364
            138 |            64829 |          3889760 |  3841683892 | 3420233035719772 |           0 |     7145805
            139 |            62803 |          3768156 |  3837138668 | 3646503255741196 |           0 |     7474342
            140 |            58480 |          3508776 |  3842861216 | 2698077360290464 |           0 |     6329621
            141 |            60010 |          3600592 |  3837798116 | 2609978765171500 |           0 |     6186892
            142 |            61145 |          3668676 |  3842222436 | 2883542911827204 |           0 |     6521357
            143 |            64388 |          3863284 |  3839989252 | 3432625787388948 |           0 |     7151445
            144 |            69110 |          4146604 |  3839625468 | 1535684167082044 |           0 |     4614295
            145 |            56343 |          3380556 |  3840373092 | 2097542240270836 |           0 |     5482979
            146 |            57407 |          3444444 |  3838292964 | 2603424538143900 |           0 |     6203774
            147 |            60796 |          3647752 |  3841706316 | 2791062177902188 |           0 |     6422336
            148 |            63058 |          3783460 |  3433295980 |  155001214057060 |           0 |     1196908
            149 |            69352 |          4161108 |  4246720304 | 3627651926646000 |           0 |     6695075
            150 |            65319 |          3919144 |  3649524692 |  235499247786988 |           0 |     1634825
            151 |            59538 |          3572304 |  3934544140 | 2067359300422908 |           0 |     5478965
            152 |            61877 |          3712592 |  3930631568 | 2577329302773832 |           0 |     6165783
            153 |            61900 |          3714024 |  3845278260 | 2874875325160868 |           0 |     6519170
            154 |            66341 |          3980488 |  3839019360 | 2814711779006336 |           0 |     6438707
            155 |            67268 |          4036064 |  3839753648 | 3196518124609120 |           0 |     6978890
            156 |            56596 |          3395752 |  3840017148 | 3193612047825964 |           0 |     6917907
            157 |            60421 |          3625276 |  3839411420 | 2430539424386868 |           0 |     5974599
            158 |            63167 |          3790000 |  3840636368 | 2883657520164112 |           0 |     6529951
            159 |            64968 |          3898052 |  3841178484 | 2904011770941908 |           0 |     6554569
            160 |            66458 |          3987488 |  3840008696 | 3299541322322984 |           0 |     6998780
            161 |            67210 |          4032612 |  3839994060 |  849324215999012 |           0 |     3168419
            162 |            57875 |          3472472 |  3839987736 | 1895908767559288 |           0 |     5227579
            163 |            60829 |          3649756 |  3839533460 | 2321990405581756 |           0 |     5819088
            164 |            62977 |          3778640 |  3840475200 | 2506448383975792 |           0 |     6053716
            165 |            65408 |          3924468 |  3839996688 | 3527616130042192 |           0 |     7258464
            166 |            70977 |          4258644 |  3840011336 | 3663077482498008 |           0 |     7446111
            167 |            57414 |          3444816 |  3839995188 | 2868835181549140 |           0 |     6547379
            168 |            59101 |          3546080 |  3837638668 | 2047993262768164 |           0 |     5445563
            169 |            62221 |          3733248 |  3841435692 | 2465010088306612 |           0 |     6007723
            170 |            64056 |          3843376 |  3840925744 | 2862022237266592 |           0 |     6491474
            171 |            67613 |          4056764 |  3839349416 | 3426523646370120 |           0 |     7142950
            172 |            67543 |          4052588 |  3840655116 | 1548261895166492 |           0 |     4639594
            173 |            56814 |          3408824 |  3839988836 | 2163071966680596 |           0 |     5618023
            174 |            60353 |          3621180 |  3799538340 | 2366081672869300 |           0 |     5995237
            175 |            63617 |          3817036 |  3879243244 | 2737267527868396 |           0 |     6367771
            176 |            66573 |          3994372 |  3838060260 | 3203071358371188 |           0 |     6906109
            177 |            69367 |          4162036 |  3843163464 | 3371381696977968 |           0 |     7076238
            178 |            61579 |          3694752 |  3839994792 | 2564907122729016 |           0 |     6110962
            179 |            59030 |          3541808 |  3839988728 | 2373313165916848 |           0 |     5910629
            180 |            62050 |          3723004 |  3840026640 | 2696407515918880 |           0 |     6320216
            181 |            63383 |          3802976 |  3838519428 | 3124322646562396 |           0 |     6814800
            182 |            67578 |          4054668 |  3841469408 | 3689972195387048 |           0 |     7410169
            183 |            68350 |          4101000 |  3840003924 | 3356372309420260 |           0 |     7058320
            184 |            57897 |          3473824 |  3839992948 | 2191050530970828 |           0 |     5665933
            185 |            59072 |          3544304 |  3837498860 | 2303187326009308 |           0 |     5809703
            186 |            61351 |          3681072 |  3842504312 | 2633007749050776 |           0 |     6228144
            187 |            65821 |          3949252 |  3837939580 | 3462950086369420 |           0 |     7177062
            188 |            72758 |          4365480 |  3842059576 |  687245152911328 |           0 |     2787098
            189 |            63159 |          3789516 |  3839991368 | 2523289951329352 |           0 |     5981316
            190 |            58463 |          3507756 |  3471757144 |  144092233629400 |           0 |     1106980
            191 |            64333 |          3859984 |  3932509144 | 2366615139777136 |           0 |     5882482
            192 |            65845 |          3950684 |  3931086052 | 2945507111146732 |           0 |     6610326
            193 |            69934 |          4196012 |  3933562036 | 3156548796355164 |           0 |     6842404
            194 |            68708 |          4122472 |  3859284504 | 3736961961693552 |           0 |     7570317
            195 |            55136 |          3308188 |  3911815188 | 3808035369360340 |           0 |     7583918
            196 |            60194 |          3611648 |  3839997760 | 1947196683941136 |           0 |     5302383
            197 |            61758 |          3705464 |  3839999876 | 2732493310843596 |           0 |     6393533
            198 |            66256 |          3975376 |  3839994428 | 2832402956537052 |           0 |     6461833
            199 |            65628 |          3937692 |  3836975252 | 3810750344920052 |           0 |     7539354
            200 |            63283 |          3796984 |  3843015580 | 1188688513625196 |           0 |     3531949
            201 |            59027 |          3541600 |  3840018628 | 1943916257293644 |           0 |     5415728
            202 |            61067 |          3664016 |  3839986324 | 2415987536161188 |           0 |     5948880
            203 |            64495 |          3869692 |  3839562688 | 2626398498184920 |           0 |     6193023
            204 |            67919 |          4075120 |  3836205188 | 3219248999867652 |           0 |     6908671
            205 |            67831 |          4069876 |  3842033416 | 3495982216975472 |           0 |     7307057
            206 |            57385 |          3443128 |  3842189268 | 3473036975091724 |           0 |     7236886
            207 |            58870 |          3532208 |  3839595964 | 2269096598461268 |           0 |     5763807
            208 |            61008 |          3660508 |  3838988568 | 2583929228062440 |           0 |     6171674
            209 |            65081 |          3904852 |  3841276560 | 2649104440459848 |           0 |     6230325
            210 |            67780 |          4066828 |  3840157004 | 3276310937349924 |           0 |     6981286
            211 |            68385 |          4103084 |  3836832840 |  667438454868520 |           0 |     2634515
            212 |            57543 |          3452572 |  3841411860 | 1870838621312212 |           0 |     5194661
            213 |            60597 |          3635820 |  3841745476 | 2512182227032108 |           0 |     6073172
            214 |            61963 |          3717804 |  3840012036 | 2678679258116364 |           0 |     6280887
            215 |            63203 |          3792152 |  3839998856 | 3201836025199208 |           0 |     6898631
            216 |            66271 |          3976284 |  3839989560 | 3669455355282456 |           0 |     7461497
            217 |            58297 |          3497804 |  3839998592 | 2898930150989288 |           0 |     6585661
            218 |            57156 |          3429384 |  3840012564 | 2125073460113380 |           0 |     5664146
            219 |            59369 |          3562168 |  3837074496 | 2282783518737600 |           0 |     5779483
            220 |            60871 |          3652280 |  3842930524 | 2738370270813132 |           0 |     6344007
            221 |            63913 |          3834752 |  3839990424 | 2911331439172808 |           0 |     6564516
            222 |            68341 |          4100448 |  3837650768 |  996939261511424 |           0 |     3575519
            223 |            54272 |          3256292 |  3841987580 | 1934188746389388 |           0 |     5218455
            224 |            56374 |          3382420 |  3840356120 | 2381210125409488 |           0 |     5922157
            225 |            59306 |          3558336 |  3839994804 | 2457704697860364 |           0 |     6004852
            226 |            61598 |          3695864 |  3840001916 | 3078265507830972 |           0 |     6761502
            227 |            64708 |          3882476 |  3840008832 | 3675549260543840 |           0 |     7416445
            228 |            61959 |          3717532 |  3838489260 | 2461674373030532 |           0 |     6046542
            229 |            55496 |          3329784 |  3841329256 | 1999955895247256 |           0 |     5387771
            230 |            57677 |          3460648 |  3840186340 | 2256171269475924 |           0 |     5742278
            231 |            60685 |          3641100 |  3838851812 | 1604952345417324 |           0 |     4508173
            232 |            62530 |          3751812 |  3841126180 | 2954100823789516 |           0 |     6610694
            233 |            68703 |          4122176 |  3840013164 | 1272498028642212 |           0 |     4137494
            234 |            57018 |          3421064 |  3839893716 | 1951344881404372 |           0 |     5260300
            235 |            60257 |          3615444 |  3839438136 |  472778993708512 |           0 |     2233143
            236 |            55139 |          3308352 |  3577929316 | 2193875258624060 |           0 |     5748701
            237 |            63991 |          3839440 |  3937145860 | 2356156015500244 |           0 |     5852772
            238 |            66474 |          3988412 |  3926404112 | 2911534602700072 |           0 |     6554151
            239 |            64548 |          3872876 |  3919179612 | 3297176669275020 |           0 |     7035646
            240 |            54094 |          3245656 |  3839992848 | 2718780432455272 |           0 |     6353055
            241 |            57753 |          3465168 |  3840017372 | 2327354167962644 |           0 |     5836155
            242 |            61544 |          3692628 |  3837798372 | 2381079580835036 |           0 |     5895281
            243 |            64240 |          3854412 |  3840568016 | 3073627366101576 |           0 |     6756572
            244 |            64655 |          3879304 |  3841632516 | 3611792241508236 |           0 |     7339073
            245 |            63844 |          3830628 |  3840010588 |  947535038663660 |           0 |     2746620
            246 |            56990 |          3419372 |  3839924128 | 2029444720841248 |           0 |     5415822
            247 |            59293 |          3557576 |  3839684648 | 2459888039093064 |           0 |     6002602
            248 |            62023 |          3721352 |  3840377792 | 2582674335818904 |           0 |     6152302
            249 |            65124 |          3907424 |  3840000512 | 3104082155563000 |           0 |     6774375
            250 |            67589 |          4055324 |  3837257436 | 3810127306476148 |           0 |     7647911
            251 |            58598 |          3515860 |  3841403980 | 4000855878495924 |           0 |     7936243
            252 |            58185 |          3491080 |  3840989912 | 2236227232437640 |           0 |     5714735
            253 |            60347 |          3620832 |  3838758356 | 2397571665247708 |           0 |     5915148
            254 |            63885 |          3833124 |  3841602108 | 2882452031576428 |           0 |     6517151
            255 |            67359 |          4041536 |  3839990484 | 3766648357550196 |           0 |     7484103
            256 |            70221 |          4213240 |  3839990824 |  430646749831376 |           0 |     1663651
            257 |            56945 |          3416696 |  3839904848 | 1995055530759848 |           0 |     5375030
            258 |            59543 |          3572572 |  3840101320 | 2093294029330432 |           0 |     5491941
            259 |            61910 |          3714608 |  3837927248 | 2608914037612128 |           0 |     6190412
            260 |            66490 |          3989416 |  3803934604 | 2829097713802588 |           0 |     6576610
            261 |            68476 |          4108548 |  3878142728 | 3344202190964120 |           0 |     7046138
            262 |            62250 |          3734988 |  3839193168 | 2725373013054032 |           0 |     6408412
            263 |            57466 |          3447940 |  3838440440 | 2281770317826024 |           0 |     5791819
            264 |            60320 |          3619196 |  3675915048 |  979575424409632 |           0 |     3622588
            265 |            60186 |          3611180 |  4004449320 | 5052084624243048 |           0 |     6555236
            266 |            65624 |          3937424 |  3840023668 | 3243013541596964 |           0 |     6950574
            267 |            73160 |          4389572 |  3841982760 |  639347278685176 |           0 |     2676374
            268 |            55873 |          3352364 |  3839999524 | 2011790618212828 |           0 |     5301085
            269 |            58248 |          3494880 |  3837998392 | 2228860681294480 |           0 |     5711793
            270 |            60690 |          3641372 |  3840830792 | 2605614148301184 |           0 |     6196013
            271 |            63935 |          3836120 |  3840488488 | 3311656843841840 |           0 |     7024279
            272 |            68622 |          4117296 |  3839710852 | 3787014755891020 |           0 |     7525753
            273 |            64376 |          3862540 |  3840981956 | 2981875612317084 |           0 |     6699852
            274 |            57280 |          3436828 |  3837561228 | 2094778633847964 |           0 |     5536327
            275 |            59786 |          3587184 |  3842420784 | 2667032236165728 |           0 |     6274033
            276 |            62578 |          3754664 |  3839990408 | 2910033526045184 |           0 |     6558012
            277 |            65144 |          3908620 |  3838310780 | 3133067358128356 |           0 |     6817842
            278 |            70856 |          4251376 |  3841710416 | 1664631815312456 |           0 |     4824662
            279 |            61916 |          3714988 |  3609567000 |  176315278725016 |           0 |     1315867
            280 |            59755 |          3585328 |  4045080612 | 2410408350602916 |           0 |     5515813
            281 |            62774 |          3766432 |  3788760124 | 1067526862632060 |           0 |     3783664
            282 |            66886 |          4013136 |  3916583204 | 2713534103238924 |           0 |     6310174
            283 |            67977 |          4078608 |  3839174812 | 3351022302068876 |           0 |     7050198
            284 |            64675 |          3880516 |  3838654996 | 3415103151899796 |           0 |     7111394
            285 |            56976 |          3418548 |  3841288156 | 2559568180795092 |           0 |     6146309
            286 |            60815 |          3648916 |  3840870740 | 2274344848325284 |           0 |     5755338
            287 |            63194 |          3791612 |  3839999968 | 2495992357885208 |           0 |     6050542
            288 |            66101 |          3966044 |  3840021060 | 3172450966782332 |           0 |     6862284
            289 |            68942 |          4136544 |  3839995344 | 3212997577394608 |           0 |     6973733
            290 |            58534 |          3512024 |  3839988000 | 3565451755929416 |           0 |     7338921
            291 |            58578 |          3514680 |  3839141048 | 2365490632222264 |           0 |     5898858
            292 |            60525 |          3631472 |  3840875996 | 2565094990998084 |           0 |     6146841
            293 |            64846 |          3890772 |  3839627408 | 3222881946271584 |           0 |     6917502
            294 |            67029 |          4021752 |  3838922848 | 3243189344949992 |           0 |     6943445
            295 |            68667 |          4120044 |  3841432048 |  333885975018576 |           0 |     1692385
            296 |            56511 |          3390644 |  3840019204 | 2014483380815060 |           0 |     5409106
            297 |            59613 |          3576768 |  3839990372 | 2388171480071996 |           0 |     5900731
            298 |            62338 |          3740304 |  3839996832 | 2718278209364152 |           0 |     6327092
            299 |            64549 |          3872912 |  3840008848 | 1596019454893720 |           0 |     3400942
            300 |            66998 |          4019880 |  3839990280 | 3610941082627128 |           0 |     7431413
            301 |            60227 |          3613628 |  3839992224 | 3319251978167216 |           0 |     7074882
            302 |            57509 |          3450512 |  3839098552 | 2373418702794344 |           0 |     5902963
            303 |            60534 |          3632068 |  3840913908 | 2735198185837380 |           0 |     6346013
            304 |            64633 |          3877976 |  3838278284 | 2806230330679372 |           0 |     6546062
            305 |            66488 |          3989268 |  3841717076 | 3316577544168836 |           0 |     7031516
            306 |            69401 |          4164080 |  3838440376 |  983412303037744 |           0 |     3555006
            307 |            56920 |          3415188 |  3840886908 | 2146393533862788 |           0 |     5529196
            308 |            59528 |          3571656 |  3839868592 | 2457362798987432 |           0 |     6002511
            309 |            60769 |          3646160 |  3838430780 | 2591677327247036 |           0 |     6180363
            310 |            63726 |          3823544 |  3840223928 | 2938253233745808 |           0 |     6600584
            311 |            67099 |          4025924 |  3840955224 | 3639326984211224 |           0 |     7382347
            312 |            62089 |          3725356 |  3841208716 | 2838422362640372 |           0 |     6476836
            313 |            56733 |          3404000 |  3839985512 | 2329214573232328 |           0 |     5860467
            314 |            61352 |          3681100 |  3839944460 | 2820543159606356 |           0 |     6470142
            315 |            62390 |          3743416 |  3840057128 | 2895903080960840 |           0 |     6546391
            316 |            65553 |          3933192 |  3839991976 | 3267612305283736 |           0 |     6975377
            317 |            68500 |          4109972 |  3840018312 | 3004712927836144 |           0 |     6657884
            318 |            55810 |          3348576 |  3840003428 | 2105599957459868 |           0 |     5542235
            319 |            57223 |          3433384 |  3839978852 | 2488193932172092 |           0 |     6054722
            320 |            60450 |          3626992 |  3461483760 |  150650290398688 |           0 |     1148938
            321 |            66161 |          3969660 |  3926171920 | 2851477848363552 |           0 |     6479848
            322 |            66354 |          3981256 |  4132353336 | 3871331482483032 |           0 |     6975406
            323 |            67505 |          4050316 |  3769406676 |  232888960736588 |           0 |     1608006
            324 |            57591 |          3455460 |  3910599108 | 2019465726749628 |           0 |     5403541
            325 |            59277 |          3556636 |  3837996896 | 2163568201067248 |           0 |     5605450
            326 |            62869 |          3772140 |  3841990552 | 2765584191836520 |           0 |     6391394
            327 |            66047 |          3962800 |  3840002988 | 3202865376508692 |           0 |     6889791
            328 |            66133 |          3968008 |  3839890552 | 3631764499559456 |           0 |     7449127
            329 |            54391 |          3263452 |  3840113924 | 3057693888689780 |           0 |     6766879
            330 |            58821 |          3529288 |  3838398092 | 2256905264187028 |           0 |     5743783
            331 |            60643 |          3638604 |  3841596552 | 2781289138840496 |           0 |     6412961
            332 |            62608 |          3756460 |  3839995760 | 3088650688777416 |           0 |     6757688
            333 |            64654 |          3879216 |  3840012552 | 3007174384491128 |           0 |     6634438
            334 |            64559 |          3873556 |  3838974108 | 1253253986202444 |           0 |     4101757
            335 |            57210 |          3432600 |  3841032984 | 2382532085295264 |           0 |     5923633
            336 |            59583 |          3574992 |  3837700348 | 2466753607327260 |           0 |     6018054
            337 |            61535 |          3692116 |  3839396216 | 2632591109866352 |           0 |     6215804
            338 |            65051 |          3903036 |  3842848056 | 3148185392342840 |           0 |     6835508
            339 |            69535 |          4172120 |  3840045372 | 1971468780570068 |           0 |     5221668
            340 |            55107 |          3306404 |  3837711792 | 2254500020366896 |           0 |     5750586
            341 |            58238 |          3494260 |  3840906136 | 2274834659936744 |           0 |     5765057
            342 |            60349 |          3620928 |  3841372468 | 2856678490444828 |           0 |     6505083
            343 |            63564 |          3813860 |  3840017124 | 2936382698558484 |           0 |     6578564
            344 |            65398 |          3923860 |  3837556732 | 3212300110438940 |           0 |     7005173
            345 |            62161 |          3729660 |  3842398808 | 3595214651467848 |           0 |     7369774
            346 |            57832 |          3469936 |  3790450584 | 2291760391150352 |           0 |     5898187
            347 |            59573 |          3574396 |  3889591780 | 2378464378177308 |           0 |     5902636
            348 |            62017 |          3721032 |  3839997556 | 2902866095290852 |           0 |     6561234
            349 |            64551 |          3873048 |  3839710176 | 3127387511099280 |           0 |     6817178
            350 |            71351 |          4281076 |  3840248208 |  555308820103464 |           0 |     2432047
            351 |            54731 |          3283852 |  3840030120 | 2063891271637144 |           0 |     5365369
            352 |            57458 |          3447500 |  3840014292 | 2140739690333436 |           0 |     5586024
            353 |            60512 |          3630736 |  3837148752 | 2528732890445272 |           0 |     6000199
            354 |            63611 |          3816684 |  3842844532 | 2975397494418940 |           0 |     6642446
            355 |            65572 |          3934312 |  3839998880 | 3709763711137640 |           0 |     7436473
            356 |            62657 |          3759392 |  3840010644 | 2424708059708604 |           0 |     5959919
            357 |            57343 |          3440592 |  3839982228 | 2197659885552548 |           0 |     5669213
            358 |            59801 |          3588044 |  3839997312 | 2481978181163288 |           0 |     6027442
            359 |            61807 |          3708408 |  3840009076 | 2648203005253548 |           0 |     6239544
(360 rows)

