 interval_start | avg_transactions | num_transactions | sum_latency | sum_latency_2  | min_latency | max_latency 
----------------+------------------+------------------+-------------+----------------+-------------+-------------
              0 |            34533 |          2071964 |  3815938508 | 50693924363972 |         392 |       59711
              1 |            38070 |          2284228 |  3839985772 | 48815603887820 |         402 |       84649
              2 |            43486 |          2609184 |  3839993504 | 41721584165224 |         386 |      106678
              3 |            47941 |          2876436 |  3840014188 | 35793974692068 |         393 |       71990
              4 |            49539 |          2972360 |  3840017264 | 31945695568488 |         382 |       73763
              5 |            53284 |          3197020 |  3839985096 | 29083922856720 |         388 |      110093
              6 |            56071 |          3364260 |  3839997416 | 24782031993384 |         385 |       87032
              7 |            52423 |          3145408 |  3840022920 | 22735056821320 |         384 |      135588
              8 |            59458 |          3567468 |  3839992596 | 20264105780292 |         389 |       96245
              9 |            60715 |          3642924 |  3839981140 | 18823871135572 |         379 |       94497
             10 |            62328 |          3739704 |  3840007768 | 16889991029328 |         377 |       87580
             11 |            61697 |          3701840 |  3839972672 | 17076726564032 |         386 |      107318
             12 |            62722 |          3763296 |  3840034036 | 15769230648460 |         384 |      105494
             13 |            65272 |          3916296 |  3840010860 | 13076671597836 |         385 |       95014
             14 |            61321 |          3679264 |  3839959948 | 17732056785828 |         385 |      134132
             15 |            37549 |          2252924 |  3840001452 | 49433927811804 |         399 |      118528
             16 |            40850 |          2451028 |  3839621032 | 47933555986472 |         377 |      185618
             17 |            44294 |          2657628 |  3840402488 | 42999266700672 |         392 |      117996
             18 |            47221 |          2833288 |  3840019416 | 37105320847392 |         405 |      109452
             19 |            47187 |          2831232 |  3839969548 | 33666203332100 |         389 |      161511
             20 |            52175 |          3130476 |  3840029120 | 28089372285976 |         392 |       98281
             21 |            53820 |          3229208 |  3839973224 | 25692347043960 |         386 |       75988
             22 |            55382 |          3322904 |  3840035420 | 22280179648548 |         376 |       88614
             23 |            57433 |          3445968 |  3839976460 | 20562987904916 |         384 |       68483
             24 |            55230 |          3313792 |  3840002812 | 20271263757172 |         401 |      194072
             25 |            60163 |          3609808 |  3839989804 | 17676836893284 |         387 |       92598
             26 |            60785 |          3647092 |  3839985796 | 17369702845676 |         389 |      120753
             27 |            60686 |          3641184 |  3840000128 | 17430991826016 |         380 |      128109
             28 |            60690 |          3641396 |  3839998536 | 15971870245624 |         379 |      156404
             29 |            59529 |          3571712 |  3839974716 | 14499419025724 |         401 |       72715
             30 |            40693 |          2441604 |  3840035880 | 45104680379264 |         386 |      100651
             31 |            43353 |          2601188 |  3839991332 | 39909687993308 |         390 |       68853
             32 |            45456 |          2727360 |  3839989228 | 36383921352636 |         397 |      105298
             33 |            47968 |          2878056 |  3840011476 | 32402415465372 |         400 |       93357
             34 |            50760 |          3045572 |  3839993992 | 29995033961216 |         402 |       87954
             35 |            51823 |          3109408 |  3839973448 | 29143119587936 |         389 |       89910
             36 |            54801 |          3288032 |  3838894592 | 24159848265672 |         388 |       89503
             37 |            56478 |          3388656 |  3841133204 | 21428234244852 |         387 |       83275
             38 |            56353 |          3381164 |  3839996424 | 23493769060208 |         398 |      170884
             39 |            57360 |          3441604 |  3837224356 | 23315597728140 |         376 |      116680
             40 |            59383 |          3562960 |  3842791336 | 19014470584112 |         374 |      104154
             41 |            57857 |          3471444 |  3839995128 | 22446134271416 |         386 |       95257
             42 |            58585 |          3515096 |  3839936536 | 20658324874192 |         385 |       87038
             43 |            56364 |          3381844 |  3840057492 | 21225750403740 |         389 |      137209
             44 |            54471 |          3268244 |  3839926820 | 16973678510868 |         398 |       67315
             45 |            38501 |          2310072 |  3840070284 | 50657077398700 |         413 |       85089
             46 |            41283 |          2476984 |  3839996960 | 46623594668720 |         399 |       84059
             47 |            43745 |          2624688 |  3837975312 | 42615173144600 |         390 |       84979
             48 |            46411 |          2784684 |  3839406896 | 38548049503856 |         390 |      112233
             49 |            48479 |          2908724 |  3842463080 | 36373115385080 |         403 |      123245
             50 |            50743 |          3044552 |  3840160268 | 32556379273092 |         390 |      106921
             51 |            52748 |          3164908 |  3839802504 | 27530554646376 |         390 |      100351
             52 |            55143 |          3308596 |  3840187680 | 26284748364536 |         373 |      114482
             53 |            57046 |          3422736 |  3840005680 | 22132972349712 |         380 |      117688
             54 |            58556 |          3513380 |  3840011244 | 19041865713532 |         389 |       85249
             55 |            59089 |          3545316 |  3839992232 | 18149997166888 |         390 |       99079
             56 |            60602 |          3636148 |  3839983620 | 16692056182676 |         389 |      112910
             57 |            61495 |          3689700 |  3840025492 | 15456305761956 |         385 |      104712
             58 |            60361 |          3621648 |  3839975360 | 17942352863248 |         394 |      115035
             59 |            59869 |          3592116 |  3839998352 | 16959292074472 |         388 |       92498
             60 |            39448 |          2366900 |  3837229800 | 48268895523920 |         389 |       91778
             61 |            42291 |          2537460 |  3840696700 | 43514951927308 |         404 |      124250
             62 |            45062 |          2703724 |  3842105844 | 40312029107412 |         395 |      128794
             63 |            47302 |          2838148 |  3839548468 | 35316987268292 |         387 |       95462
             64 |            49834 |          2990032 |  3840441532 | 29970573181892 |         406 |       89918
             65 |            52489 |          3149340 |  3839982304 | 26656029031552 |         400 |       87271
             66 |            54848 |          3290892 |  3840018156 | 24285826684276 |         395 |      111816
             67 |            55809 |          3348544 |  3839990676 | 23325028655076 |         397 |      106737
             68 |            57737 |          3464236 |  3840025504 | 20030085077528 |         394 |       69784
             69 |            58727 |          3523592 |  3839980716 | 20597242023932 |         396 |      120278
             70 |            59508 |          3570492 |  3840002692 | 18757217310564 |         385 |      124548
             71 |            60366 |          3621948 |  3839996836 | 17089739816020 |         380 |       98347
             72 |            61997 |          3719844 |  3840000932 | 13078736192148 |         387 |       74773
             73 |            61384 |          3683016 |  3839998084 | 13309526575164 |         384 |       79087
             74 |            60529 |          3631760 |  3840006176 | 13473622753304 |         387 |       75462
             75 |            39318 |          2359088 |  3839988716 | 49423411347412 |         405 |      130253
             76 |            41857 |          2511416 |  3840003700 | 44618315313220 |         398 |      109712
             77 |            45115 |          2706924 |  3839996444 | 38206882771980 |         421 |       74524
             78 |            46427 |          2785616 |  3840010972 | 38132916943684 |         407 |      163666
             79 |            49611 |          2976672 |  3839987856 | 32059053660920 |         392 |       93361
             80 |            51709 |          3102536 |  3837406028 | 28840323414356 |         394 |      105800
             81 |            53804 |          3228236 |  3842583324 | 25082673740268 |         410 |       98221
             82 |            54996 |          3299752 |  3839037556 | 24004698706332 |         395 |      123281
             83 |            56541 |          3392472 |  3839883968 | 22604224379296 |         396 |      125741
             84 |            57293 |          3437592 |  3841071456 | 19662121433928 |         391 |       85539
             85 |            58064 |          3483856 |  3840018776 | 18116146823352 |         395 |       80107
             86 |            58398 |          3503888 |  3840018584 | 17502338065216 |         396 |       98076
             87 |            60483 |          3629000 |  3839992008 | 15264775381608 |         398 |       90612
             88 |            60140 |          3608380 |  3840005076 | 17148881408628 |         361 |      116610
             89 |            59671 |          3580280 |  3839980860 | 15705957975276 |         395 |       97623
             90 |            39102 |          2346092 |  3839976608 | 48846296868640 |         401 |       91196
             91 |            41789 |          2507356 |  3839565380 | 43620856707012 |         418 |       77336
             92 |            44418 |          2665108 |  3840463160 | 39922055469032 |         406 |      104941
             93 |            46543 |          2792568 |  3840010216 | 36475011852264 |         397 |      135853
             94 |            48566 |          2913940 |  3839999148 | 32846241375508 |         410 |      129109
             95 |            51216 |          3072932 |  3839969928 | 29678923764792 |         392 |       89554
             96 |            52950 |          3177020 |  3840037052 | 27213954428804 |         402 |      128122
             97 |            54552 |          3273104 |  3839996296 | 24574098155720 |         404 |      118312
             98 |            55419 |          3325152 |  3839985264 | 22899281429800 |         394 |       94536
             99 |            57676 |          3460560 |  3840022272 | 21087893187744 |         402 |      110938
            100 |            58486 |          3509160 |  3839977316 | 19436025716836 |         389 |       95643
            101 |            59918 |          3595056 |  3840010828 | 16113655074164 |         388 |       82998
            102 |            59988 |          3599292 |  3839997056 | 15405429403920 |         391 |       70935
            103 |            60063 |          3603800 |  3840009468 | 16426871722268 |         388 |       96110
            104 |            60377 |          3622648 |  3838482620 | 14800928381156 |         376 |       80166
            105 |            38711 |          2322660 |  3841490776 | 49781948306896 |         410 |       87145
            106 |            41289 |          2477364 |  3840005668 | 46471469629932 |         380 |      134368
            107 |            43846 |          2630744 |  3839967316 | 41441851903076 |         393 |       96167
            108 |            46432 |          2785892 |  3840026964 | 36961113631012 |         403 |      101940
            109 |            48892 |          2933496 |  3840000128 | 32850653042736 |         396 |       77973
            110 |            50661 |          3039676 |  3839991840 | 29581274136264 |         407 |       81148
            111 |            52815 |          3168900 |  3839173076 | 25065113787732 |         413 |       81575
            112 |            53784 |          3227068 |  3840863716 | 25040535839692 |         402 |       91231
            113 |            55598 |          3335884 |  3839994676 | 22556622543956 |         376 |      105013
            114 |            57323 |          3439404 |  3839907932 | 20836185116764 |         388 |      122537
            115 |            58855 |          3531292 |  3840097864 | 18419660525624 |         402 |      100052
            116 |            58827 |          3529596 |  3839857972 | 17233768457052 |         400 |      105229
            117 |            58227 |          3493608 |  3840134668 | 21035003547364 |         395 |      124853
            118 |            60157 |          3609432 |  3839995464 | 16331854459952 |         388 |      156915
            119 |            60252 |          3615104 |  3839978412 | 15936672935324 |         377 |      103995
            120 |            38709 |          2322552 |  3839997020 | 49934521459908 |         380 |      110679
            121 |            40829 |          2449728 |  3840033500 | 45291196670588 |         389 |       79829
            122 |            43440 |          2606396 |  3839979988 | 41156340176900 |         394 |      123210
            123 |            45860 |          2751596 |  3839970712 | 38799011941064 |         407 |      116429
            124 |            48150 |          2888988 |  3840035652 | 34619857828604 |         404 |      118930
            125 |            50923 |          3055360 |  3839994660 | 30993870614180 |         397 |       98495
            126 |            52075 |          3124492 |  3836180140 | 28858345071652 |         406 |      103266
            127 |            53713 |          3222752 |  3843831632 | 26734885309744 |         403 |       99005
            128 |            52761 |          3165640 |  3839984080 | 26772115302944 |         391 |       82483
            129 |            55267 |          3316036 |  3840013456 | 25324724179632 |         395 |      172699
            130 |            56701 |          3402032 |  3839992116 | 24220799365500 |         388 |      169547
            131 |            57881 |          3472852 |  3839993396 | 20260747702612 |         386 |      106500
            132 |            58538 |          3512308 |  3840021176 | 20543463809984 |         394 |      138160
            133 |            56912 |          3414740 |  3839996328 | 12799370536704 |         389 |      108435
            134 |            60132 |          3607940 |  3839641864 | 14172318776216 |         395 |       77744
            135 |            38533 |          2312000 |  3838868836 | 50200792041948 |         393 |       89312
            136 |            41632 |          2497944 |  3841466208 | 45137988734896 |         396 |      123022
            137 |            43737 |          2624228 |  3839993040 | 43472763293544 |         393 |      129087
            138 |            46847 |          2810832 |  3840019244 | 37394631976396 |         398 |      100917
            139 |            47548 |          2852900 |  3839997288 | 35062144842136 |         398 |       83291
            140 |            49476 |          2968552 |  3839988856 | 33013266223656 |         412 |      128950
            141 |            51905 |          3114280 |  3839926992 | 28758978577472 |         397 |      100928
            142 |            52782 |          3166924 |  3840094072 | 26582040871928 |         396 |      149267
            143 |            54916 |          3294944 |  3839995276 | 21318219529860 |         395 |       74241
            144 |            55858 |          3351464 |  3839985524 | 22200854216036 |         393 |       99716
            145 |            56589 |          3395360 |  3840006900 | 21952733890868 |         406 |      135648
            146 |            57609 |          3456544 |  3839995736 | 20932209505960 |         388 |      181715
            147 |            58598 |          3515868 |  3839989652 | 21824021349548 |         395 |      147032
            148 |            59188 |          3551292 |  3840005944 | 17422282329016 |         390 |      109524
            149 |            59469 |          3568124 |  3840001864 | 16605810719456 |         383 |      119307
            150 |            37819 |          2269120 |  3839995748 | 52261562412612 |         406 |      110275
            151 |            40721 |          2443288 |  3840009208 | 46587096893464 |         416 |       89425
            152 |            43295 |          2597724 |  3839980344 | 42561305388128 |         406 |       99892
            153 |            44876 |          2692568 |  3839985420 | 41034665700804 |         400 |      170522
            154 |            47301 |          2838036 |  3839931660 | 35080643714460 |         406 |       90063
            155 |            49263 |          2955804 |  3840091484 | 32524220459836 |         393 |      132528
            156 |            51012 |          3060736 |  3838645736 | 29117340081752 |         397 |       91266
            157 |            52199 |          3131956 |  3841344944 | 28147566943560 |         405 |      126996
            158 |            54027 |          3241644 |  3839993496 | 24919362123096 |         378 |       88899
            159 |            55424 |          3325428 |  3839996316 | 21816339854596 |         396 |       81810
            160 |            56762 |          3405692 |  3839085848 | 20964319481200 |         388 |       85125
            161 |            57361 |          3441636 |  3840916148 | 20709543878244 |         376 |      146969
            162 |            57296 |          3437788 |  3839965428 | 21093615035204 |         381 |      152634
            163 |            58532 |          3511916 |  3840042184 | 19246476205512 |         396 |      160927
            164 |            59074 |          3544436 |  3839354384 | 16620857873584 |         383 |       99694
            165 |            38147 |          2288804 |  3840629392 | 52074437249048 |         415 |       97429
            166 |            40044 |          2402668 |  3839986300 | 50522169835308 |         387 |      155548
            167 |            43329 |          2599768 |  3840043028 | 42075073448724 |         394 |      109562
            168 |            44891 |          2693468 |  3839962680 | 40024194504880 |         405 |       85434
            169 |            47089 |          2825340 |  3840045132 | 35683360304004 |         398 |      101281
            170 |            48523 |          2911384 |  3839993908 | 34056294960580 |         389 |      107551
            171 |            51419 |          3085156 |  3839991860 | 28584850235732 |         387 |      103277
            172 |            52466 |          3147952 |  3840014112 | 27358484780176 |         400 |      130707
            173 |            53507 |          3210392 |  3839989860 | 24849753835332 |         408 |      138686
            174 |            55538 |          3332284 |  3839999856 | 24158050348768 |         401 |      159973
            175 |            57276 |          3436588 |  3839997332 | 21118674458628 |         399 |       94984
            176 |            58332 |          3499940 |  3840006468 | 18848246511420 |         399 |       91695
            177 |            59047 |          3542848 |  3839998100 | 19498414766596 |         398 |      117596
            178 |            59461 |          3567676 |  3839988492 | 16527776107244 |         379 |      123477
            179 |            59661 |          3579644 |  3839223976 | 14677818464440 |         408 |       83989
            180 |            38516 |          2310940 |  3840795036 | 50599996690780 |         422 |       93239
            181 |            40713 |          2442784 |  3839946776 | 48471928773832 |         383 |      111966
            182 |            42758 |          2565496 |  3838469220 | 42858485462748 |         407 |       95156
            183 |            45068 |          2704100 |  3841577460 | 42389325789268 |         414 |      150549
            184 |            46929 |          2815740 |  3839987308 | 36782137237892 |         404 |      113744
            185 |            48877 |          2932636 |  3839955508 | 33130108237516 |         390 |       82012
            186 |            50730 |          3043772 |  3839965724 | 29733450234060 |         401 |      135551
            187 |            51753 |          3105188 |  3840077028 | 28650491301916 |         396 |      117747
            188 |            54218 |          3253076 |  3840010652 | 23406969480100 |         390 |       76675
            189 |            54414 |          3264820 |  3840001404 | 25224624225420 |         384 |      131928
            190 |            56069 |          3364156 |  3839985936 | 22281374798976 |         394 |       90956
            191 |            57097 |          3425804 |  3840007680 | 21797612263256 |         380 |      115882
            192 |            57603 |          3456184 |  3839997372 | 21796905582580 |         382 |      121066
            193 |            59006 |          3540372 |  3839999212 | 19342433205900 |         390 |      183953
            194 |            60753 |          3645164 |  3837686176 | 15646489176176 |         398 |       79998
            195 |            38746 |          2324740 |  3842301608 | 50225459494472 |         413 |       80969
            196 |            41334 |          2480048 |  3838171960 | 47811309373240 |         394 |      106710
            197 |            43302 |          2598108 |  3841844168 | 44149990479488 |         408 |      114726
            198 |            45803 |          2748204 |  3840001600 | 38632698957760 |         401 |      107836
            199 |            47299 |          2837952 |  3839979688 | 36700031337184 |         398 |      118700
            200 |            49970 |          2998212 |  3839981356 | 33702697238284 |         379 |      134433
            201 |            50717 |          3043048 |  3840031824 | 30736858370088 |         390 |       97614
            202 |            52326 |          3139548 |  3839994256 | 25394217793656 |         396 |       87979
            203 |            53856 |          3231372 |  3840024644 | 24938224374412 |         395 |       91256
            204 |            54849 |          3290968 |  3839976260 | 26490591450796 |         405 |      133747
            205 |            56324 |          3379456 |  3839998356 | 20846536633156 |         401 |       89899
            206 |            57190 |          3431412 |  3839999528 | 20549544095824 |         387 |       96386
            207 |            56202 |          3372092 |  3839975320 | 18157077637544 |         394 |      122000
            208 |            60659 |          3639520 |  3840016468 | 15598879307900 |         390 |      124576
            209 |            60641 |          3638440 |  3839742608 | 14448247962056 |         389 |       73949
            210 |            37618 |          2257052 |  3840262340 | 52089951545988 |         417 |      126808
            211 |            40446 |          2426736 |  3840005984 | 46287682704928 |         421 |       80420
            212 |            42411 |          2544684 |  3839978856 | 45730523815888 |         412 |      144925
            213 |            44095 |          2645708 |  3840001420 | 39010287119396 |         404 |       91647
            214 |            46486 |          2789140 |  3840006096 | 37017443430896 |         407 |       99838
            215 |            49292 |          2957544 |  3836556224 | 31609035623416 |         395 |      119793
            216 |            51018 |          3061080 |  3843448708 | 28536367262156 |         402 |       93040
            217 |            52870 |          3172172 |  3839978720 | 25239034042616 |         403 |      101884
            218 |            53495 |          3209692 |  3840008836 | 26028363626316 |         394 |       97572
            219 |            55490 |          3329376 |  3840017048 | 22963685557240 |         378 |       92886
            220 |            56639 |          3398332 |  3840000572 | 22715972916148 |         387 |      140563
            221 |            58036 |          3482140 |  3840000792 | 22108786972704 |         387 |      250146
            222 |            58893 |          3533580 |  3839961508 | 17099046948076 |         389 |       79925
            223 |            58927 |          3535620 |  3840027812 | 17721202374876 |         392 |      119474
            224 |            59374 |          3562448 |  3839968292 | 15991019402364 |         404 |       66589
            225 |            38966 |          2337936 |  3839932756 | 50398506982212 |         393 |       80840
            226 |            40953 |          2457204 |  3838595472 | 46213141004816 |         392 |       87075
            227 |            43538 |          2612300 |  3841440316 | 42120306874044 |         381 |      134765
            228 |            44912 |          2694712 |  3840054904 | 39732773199120 |         396 |       96389
            229 |            47462 |          2847720 |  3839990240 | 35019175130064 |         393 |       97743
            230 |            49258 |          2955488 |  3840035572 | 31874943732628 |         404 |       89121
            231 |            51327 |          3079604 |  3838829336 | 28130375491264 |         404 |      110794
            232 |            52785 |          3167096 |  3841149932 | 24772886615004 |         400 |       81976
            233 |            53979 |          3238756 |  3839992400 | 25843005231456 |         389 |      117594
            234 |            55742 |          3344512 |  3840016752 | 21605809917888 |         394 |      115858
            235 |            56436 |          3386188 |  3837026280 | 20205796114992 |         404 |       95100
            236 |            57597 |          3455808 |  3842977500 | 20326353207668 |         385 |      126601
            237 |            58884 |          3533028 |  3840000324 | 18698068671892 |         393 |      116392
            238 |            59117 |          3547048 |  3840004524 | 17462498740940 |         399 |      162096
            239 |            58701 |          3522088 |  3839202444 | 16158107955548 |         391 |       96123
            240 |            38492 |          2309528 |  3838979384 | 51637975669944 |         417 |      107488
            241 |            40960 |          2457612 |  3841816228 | 46210532191756 |         419 |      101756
            242 |            43212 |          2592748 |  3839983952 | 44923240693184 |         408 |      146411
            243 |            45528 |          2731668 |  3840000200 | 36324866706256 |         416 |      101554
            244 |            47623 |          2857392 |  3840008632 | 34442696880312 |         398 |      130738
            245 |            50509 |          3030564 |  3837386212 | 30814597696228 |         392 |       96815
            246 |            51390 |          3083388 |  3842597696 | 26917178160872 |         399 |       78509
            247 |            53276 |          3196532 |  3840006916 | 23788361696948 |         401 |       89835
            248 |            55463 |          3327764 |  3839996928 | 20821400634568 |         386 |       74894
            249 |            55942 |          3356504 |  3839986048 | 21625935537280 |         403 |      113609
            250 |            57685 |          3461112 |  3840007208 | 19159083360328 |         374 |      101550
            251 |            59511 |          3570648 |  3840008152 | 16281142751104 |         388 |       91452
            252 |            59623 |          3577400 |  3840002108 | 18796992558684 |         397 |      134682
            253 |            59598 |          3575856 |  3840012248 | 15707901877240 |         393 |      120616
            254 |            59775 |          3586484 |  3839996820 | 14628764644588 |         411 |       96137
            255 |            38617 |          2317044 |  3839986340 | 51076402837012 |         404 |       99165
            256 |            40228 |          2413688 |  3839972808 | 47914893078320 |         377 |      112427
            257 |            41504 |          2490220 |  3838662820 | 47557616007980 |         416 |      164377
            258 |            43154 |          2589248 |  3841351384 | 42764374472672 |         408 |      135098
            259 |            46040 |          2762404 |  3840011532 | 38224345020372 |         411 |      130187
            260 |            46920 |          2815200 |  3840019240 | 35092675407968 |         393 |       99544
            261 |            49339 |          2960360 |  3839961896 | 30120098372888 |         400 |       85238
            262 |            50321 |          3019256 |  3840045164 | 31041435683820 |         391 |      137003
            263 |            51539 |          3092324 |  3839978852 | 27280723510932 |         394 |       96284
            264 |            52102 |          3126116 |  3840000144 | 25194726952888 |         391 |       99683
            265 |            54572 |          3274332 |  3840012844 | 22617981808108 |         398 |      103668
            266 |            53335 |          3200096 |  3840001044 | 26770812786332 |         391 |      164689
            267 |            54492 |          3269496 |  3839993356 | 23960111034628 |         405 |      146084
            268 |            55192 |          3311540 |  3839997200 | 24198811500488 |         403 |      154372
            269 |            56115 |          3366904 |  3839505560 | 20215553438488 |         383 |       75966
            270 |            37175 |          2230492 |  3840367180 | 54025846475380 |         395 |      111500
            271 |            39331 |          2359852 |  3840116104 | 52456703384232 |         407 |      108388
            272 |            40758 |          2445476 |  3839985788 | 49732801574348 |         391 |       93032
            273 |            42326 |          2539580 |  3840009444 | 45909632380164 |         389 |      108416
            274 |            43802 |          2628124 |  3840008936 | 42723661140840 |         406 |      133327
            275 |            46386 |          2783136 |  3838898820 | 37997164909148 |         405 |       98728
            276 |            47584 |          2855032 |  3841000072 | 35145743928432 |         387 |      109478
            277 |            49492 |          2969496 |  3840106328 | 30975197466384 |         390 |      133407
            278 |            49535 |          2972092 |  3839993008 | 27734479429256 |         409 |       98669
            279 |            53055 |          3183296 |  3839980900 | 22614003688124 |         417 |       98157
            280 |            53389 |          3203348 |  3839792208 | 19781493244168 |         386 |       92114
            281 |            53875 |          3232476 |  3840235216 | 19571387362440 |         394 |      135198
            282 |            53516 |          3210976 |  3839996976 | 17386438736992 |         400 |      105491
            283 |            57482 |          3448944 |  3839990340 | 14236471892372 |         397 |       80454
            284 |            58606 |          3516376 |  3839987140 | 14734089169076 |         402 |       73424
            285 |            38918 |          2335068 |  3840007400 | 48080784362112 |         420 |       83466
            286 |            40869 |          2452144 |  3840022380 | 45536512626868 |         406 |       90921
            287 |            43911 |          2634636 |  3839987228 | 42815564121860 |         406 |      125219
            288 |            45700 |          2741996 |  3839716712 | 39814521941104 |         394 |      120642
            289 |            48015 |          2880888 |  3840288452 | 35083058655468 |         403 |       90768
            290 |            49937 |          2996220 |  3840012508 | 30003988079900 |         386 |       77875
            291 |            51571 |          3094272 |  3839197968 | 29522546112608 |         388 |      141943
            292 |            54723 |          3283392 |  3840861064 | 22653908807976 |         391 |       96013
            293 |            55529 |          3331720 |  3839993576 | 20772892102912 |         379 |       95225
            294 |            57927 |          3475648 |  3839929360 | 18515956559000 |         396 |       69919
            295 |            57981 |          3478864 |  3838571240 | 20357043789664 |         384 |      100865
            296 |            58325 |          3499524 |  3840250852 | 18397170183716 |         403 |      105654
            297 |            59883 |          3592968 |  3841256196 | 17104263202260 |         390 |       92587
            298 |            60569 |          3634148 |  3839989672 | 16296348181864 |         392 |      138170
            299 |            60687 |          3641224 |  3836924008 | 14360207506208 |         410 |       77544
            300 |            39095 |          2345700 |  3843047332 | 49085912336708 |         401 |       99558
            301 |            41612 |          2496712 |  3840029888 | 45349856032928 |         408 |       98497
            302 |            43870 |          2632224 |  3840007292 | 40452546264468 |         405 |       86809
            303 |            45899 |          2753924 |  3839953484 | 38432649085516 |         395 |      107255
            304 |            48745 |          2924724 |  3838406664 | 32452497589680 |         395 |       93147
            305 |            50267 |          3015992 |  3841044696 | 30473049332248 |         406 |      107076
            306 |            52351 |          3141032 |  3840601452 | 24582566624348 |         401 |       84940
            307 |            52212 |          3132740 |  3839945232 | 27554663167856 |         401 |      140689
            308 |            53577 |          3214612 |  3840038232 | 25129288223736 |         404 |      119810
            309 |            55424 |          3325456 |  3840005132 | 22495569904916 |         402 |      133028
            310 |            56251 |          3375072 |  3839932168 | 19904957743936 |         392 |      104896
            311 |            57306 |          3438344 |  3840068484 | 18694397758196 |         377 |      106241
            312 |            57516 |          3450952 |  3839992912 | 19175703081096 |         385 |      163901
            313 |            59558 |          3573496 |  3840011572 | 16657418606588 |         399 |      134488
            314 |            59334 |          3560040 |  3839736084 | 15269211528540 |         394 |       99376
            315 |            38290 |          2297408 |  3840255260 | 52799007929868 |         413 |      180007
            316 |            40707 |          2442396 |  3839970880 | 46147578519720 |         412 |      165564
            317 |            43023 |          2581364 |  3839806376 | 42122169491200 |         410 |       78895
            318 |            44600 |          2675980 |  3840250072 | 38771660701584 |         395 |       94139
            319 |            47093 |          2825580 |  3839972848 | 33053711466640 |         419 |       94543
            320 |            48441 |          2906488 |  3840013476 | 33355125101940 |         388 |      109770
            321 |            51007 |          3060400 |  3840010936 | 28748587985584 |         396 |      135769
            322 |            52977 |          3178596 |  3839958824 | 25301487857048 |         392 |      106225
            323 |            53997 |          3239792 |  3840029320 | 25136955620152 |         399 |      130981
            324 |            55518 |          3331092 |  3839995724 | 21149313811028 |         401 |       81662
            325 |            56492 |          3389528 |  3840005520 | 21549750858944 |         399 |      120293
            326 |            56893 |          3413604 |  3840000088 | 19774761232016 |         406 |      127532
            327 |            58529 |          3511748 |  3839992460 | 19139149830188 |         405 |      148766
            328 |            58857 |          3531408 |  3840012744 | 16248518049488 |         382 |      110307
            329 |            59010 |          3540628 |  3839980748 | 15936321825212 |         408 |       98225
            330 |            38384 |          2303016 |  3839969952 | 51333359594776 |         410 |      124111
            331 |            40739 |          2444312 |  3840030284 | 46684939838036 |         397 |      108050
            332 |            43041 |          2582484 |  3839932340 | 42066549412428 |         424 |      108410
            333 |            45588 |          2735252 |  3840070516 | 37413971757516 |         412 |       91005
            334 |            47610 |          2856596 |  3840008580 | 31810149907636 |         416 |       72973
            335 |            49243 |          2954572 |  3838810872 | 28822615555280 |         406 |       73190
            336 |            50313 |          3018808 |  3841178228 | 32045615048900 |         397 |      175496
            337 |            52964 |          3177820 |  3839986492 | 24735558592812 |         391 |       95345
            338 |            53606 |          3216336 |  3840020992 | 23167703090776 |         402 |       84333
            339 |            54679 |          3280728 |  3839993208 | 23030464628296 |         392 |      100988
            340 |            56756 |          3405388 |  3840016808 | 20053281219288 |         405 |       88587
            341 |            57104 |          3426260 |  3839989236 | 19678174620732 |         391 |      152021
            342 |            57159 |          3429564 |  3839972696 | 19777013851016 |         399 |      103014
            343 |            58658 |          3519480 |  3840029452 | 15394331448884 |         374 |      101258
            344 |            59445 |          3566692 |  3839653700 | 15821440108052 |         399 |       94232
            345 |            38050 |          2282976 |  3840317844 | 56116130652820 |         417 |      175273
            346 |            40418 |          2425052 |  3838167052 | 46730501369444 |         415 |      118727
            347 |            42472 |          2548344 |  3841850876 | 42608832961916 |         407 |      172280
            348 |            44991 |          2699472 |  3839976184 | 37826060607352 |         420 |       93550
            349 |            46658 |          2799492 |  3840027212 | 37397192930988 |         414 |      137960
            350 |            48369 |          2902160 |  3839993864 | 33218271750456 |         400 |      102240
            351 |            49833 |          2989992 |  3840014036 | 30248648323188 |         377 |      105824
            352 |            51676 |          3100584 |  3839958324 | 25121435588732 |         405 |       82632
            353 |            52440 |          3146392 |  3840025388 | 26102741890892 |         393 |      129155
            354 |            54291 |          3257484 |  3839077380 | 22352901653548 |         404 |      118518
            355 |            55349 |          3320964 |  3840937572 | 20544465536548 |         380 |       92597
            356 |            56972 |          3418304 |  3840004524 | 18852501152076 |         400 |       91301
            357 |            56741 |          3404468 |  3839978824 | 22298338103280 |         395 |      118855
            358 |            58045 |          3482704 |  3840017328 | 18190446540240 |         393 |      134349
            359 |            58616 |          3516980 |  3839970184 | 16532802023048 |         400 |      100844
(360 rows)

