 interval_start | avg_transactions | num_transactions | sum_latency | sum_latency_2  | min_latency | max_latency 
----------------+------------------+------------------+-------------+----------------+-------------+-------------
              0 |            94025 |          5641508 |  3828312900 |  4366916044748 |         342 |       92222
              1 |           113913 |          6834780 |  3839994972 |  4006983281188 |         341 |       55644
              2 |           114000 |          6840008 |  3840011216 |  3837702627896 |         339 |       55407
              3 |           113934 |          6836040 |  3839986568 |  3857806475784 |         348 |       58027
              4 |           113440 |          6806416 |  3840003348 |  4136029071788 |         334 |       59424
              5 |           113382 |          6802908 |  3839997268 |  4066581143716 |         343 |       59868
              6 |           113180 |          6790804 |  3840008864 |  4721777038240 |         339 |      107178
              7 |           112958 |          6777492 |  3839994264 |  3910227294056 |         337 |       54349
              8 |           113184 |          6791040 |  3839998272 |  4113884878000 |         353 |       53560
              9 |           113725 |          6823516 |  3839997384 |  5002228487968 |         348 |      145237
             10 |           113177 |          6790632 |  3840012352 |  3563973819392 |         341 |       51503
             11 |           113162 |          6789736 |  3839995456 |  3851959919632 |         351 |       52341
             12 |           110557 |          6633444 |  3839996320 |  3075973190912 |         348 |       46056
             13 |           113032 |          6781948 |  3840009600 |  4126227235312 |         353 |       58973
             14 |           112638 |          6758304 |  3839953612 |  4153276915356 |         340 |       56715
             15 |            96625 |          5797472 |  3840039236 |  3847812792564 |         352 |       74986
             16 |           113011 |          6780648 |  3839999272 |  3987293579904 |         355 |       60129
             17 |           111801 |          6708064 |  3840008580 |  4247407734980 |         354 |       57530
             18 |           112342 |          6740532 |  3839992156 |  4529053440980 |         348 |       56264
             19 |           112475 |          6748524 |  3839998976 |  4493380020816 |         353 |       61765
             20 |           112468 |          6748080 |  3839993324 |  4313502311716 |         346 |       58374
             21 |           112515 |          6750916 |  3839981892 |  4186647147724 |         349 |       58905
             22 |           112799 |          6767964 |  3840022932 |  4137698663684 |         350 |       61201
             23 |           112637 |          6758228 |  3840007320 |  3967763355808 |         349 |       62303
             24 |           112246 |          6734764 |  3839998472 |  3824574717288 |         333 |       62300
             25 |           112435 |          6746108 |  3839996352 |  3780521828128 |         349 |       51133
             26 |           112537 |          6752204 |  3840005536 |  4091575126320 |         331 |       56246
             27 |           112651 |          6759036 |  3839990228 |  4146218865060 |         359 |       53323
             28 |           111919 |          6715164 |  3840002552 |  4026377028320 |         338 |       56811
             29 |           112521 |          6751256 |  3839954668 |  4212293853020 |         339 |       59523
             30 |            97012 |          5820740 |  3840041108 |  3709594586428 |         349 |       53138
             31 |           111821 |          6709252 |  3840006488 |  4145645563312 |         340 |       55334
             32 |           111269 |          6676124 |  3839990984 |  6596800122408 |         332 |       89428
             33 |           111287 |          6677224 |  3840014476 |  8207203665724 |         351 |       95505
             34 |           110285 |          6617088 |  3839991632 |  8344934204272 |         347 |       97363
             35 |           111503 |          6690196 |  3839994780 |  8693860545340 |         348 |       96765
             36 |           110445 |          6626708 |  3840003196 |  6762881984228 |         350 |       92671
             37 |           111640 |          6698380 |  3840008800 |  7776872517864 |         350 |      103291
             38 |           111234 |          6674060 |  3839996872 |  7269731830384 |         335 |      102190
             39 |           110745 |          6644688 |  3839994648 |  7485517781616 |         360 |       96664
             40 |           111319 |          6679136 |  3840004720 |  6908202239984 |         334 |       88658
             41 |           111288 |          6677300 |  3839999996 |  5978743262188 |         340 |       53549
             42 |           111362 |          6681720 |  3839999936 |  7519523917600 |         338 |       97362
             43 |           110800 |          6648012 |  3839996540 |  6284963768252 |         354 |       92354
             44 |           110378 |          6622656 |  3835715552 |  7309032273352 |         347 |      106129
             45 |            86188 |          5171260 |  3844286632 | 27454658239048 |         352 |       91965
             46 |           111647 |          6698832 |  3840008624 |  7225244978480 |         354 |       94529
             47 |           111372 |          6682344 |  3839992428 |  7204686459740 |         356 |      107647
             48 |           111787 |          6707216 |  3840000536 |  6911563027792 |         350 |       90338
             49 |           110919 |          6655112 |  3839942116 |  7562437581012 |         349 |       96758
             50 |           111397 |          6683828 |  3840053388 |  7898927072388 |         351 |       96603
             51 |           111127 |          6667636 |  3839968112 |  8216889437320 |         339 |      104915
             52 |           111026 |          6661544 |  3840038192 |  6873407806360 |         349 |       88513
             53 |           110967 |          6658016 |  3839995972 |  6582511014044 |         347 |       86476
             54 |           111107 |          6666424 |  3840008940 |  7312339262420 |         352 |       95179
             55 |           110891 |          6653480 |  3839992800 |  7232989528688 |         341 |      101060
             56 |           110317 |          6619012 |  3840004136 |  7294707026696 |         352 |       99653
             57 |           111013 |          6660788 |  3840001044 |  8560652779452 |         354 |       92930
             58 |           110751 |          6645040 |  3839994072 |  6649035962232 |         356 |       87583
             59 |           111263 |          6675804 |  3839998884 |  6238125142548 |         347 |       62846
             60 |            88984 |          5339036 |  3839998932 | 23955428610012 |         341 |       81919
             61 |           110385 |          6623116 |  3840008932 |  7328487951828 |         335 |       95000
             62 |           111444 |          6686664 |  3839993284 |  7584844458852 |         327 |       96397
             63 |           108575 |          6514488 |  3840009664 |  9199142093176 |         349 |       97085
             64 |           110540 |          6632388 |  3839992404 |  8272411319836 |         356 |       90251
             65 |           111190 |          6671404 |  3840000520 |  7445391067120 |         349 |       95568
             66 |           111158 |          6669496 |  3839997408 |  7435904087480 |         351 |       90807
             67 |           111315 |          6678888 |  3839994540 |  6608335381364 |         348 |       86788
             68 |           111414 |          6684832 |  3840011160 |  7424317952416 |         351 |      104286
             69 |           110974 |          6658420 |  3839994212 |  6434425966580 |         354 |       89267
             70 |           111129 |          6667764 |  3839995316 |  7083319060396 |         340 |       93583
             71 |           111560 |          6693588 |  3840004912 |  6675842642864 |         340 |       99723
             72 |           111001 |          6660044 |  3840001476 |  7362805552084 |         344 |      107055
             73 |           110172 |          6610332 |  3839998836 |  6610208325092 |         349 |       71965
             74 |           111134 |          6668060 |  3839986404 |  5902704919148 |         350 |       56901
             75 |            88747 |          5324812 |  3840019028 | 24977556237596 |         354 |       92250
             76 |           110968 |          6658064 |  3839989500 |  7612938784788 |         341 |       96240
             77 |           110968 |          6658092 |  3840006668 |  7495176947244 |         352 |      102805
             78 |           108969 |          6538156 |  3839993568 |  8959347873224 |         328 |       92835
             79 |           110444 |          6626616 |  3840003868 |  7117274381612 |         347 |       88134
             80 |           110958 |          6657508 |  3840008812 |  6376035020956 |         341 |       88481
             81 |           110743 |          6644568 |  3839994552 |  7073150698304 |         347 |       87777
             82 |           111439 |          6686312 |  3839992596 |  7589759496404 |         354 |       93460
             83 |           111570 |          6694212 |  3840003832 |  6774622064160 |         343 |       92153
             84 |           110996 |          6659788 |  3840006776 |  7843157798008 |         353 |       94768
             85 |           110904 |          6654240 |  3839995236 |  6574343112860 |         340 |       92303
             86 |           111268 |          6676072 |  3839993092 |  8277484551916 |         349 |      189654
             87 |           110889 |          6653348 |  3840007444 |  7998046079764 |         353 |      101004
             88 |           110780 |          6646792 |  3840007724 |  7486745121156 |         345 |      100824
             89 |           111686 |          6701152 |  3839970032 |  6182242785720 |         340 |       55734
             90 |            89484 |          5369036 |  3840028500 | 24910300261828 |         346 |       76875
             91 |           110602 |          6636124 |  3839994292 |  7782684207644 |         357 |       90871
             92 |           111648 |          6698872 |  3839998536 |  6280520597880 |         348 |       90555
             93 |           110889 |          6653332 |  3839996352 |  6957332582488 |         346 |       88254
             94 |           111468 |          6688072 |  3839999788 |  6950047156548 |         350 |       90006
             95 |           110970 |          6658220 |  3839999728 |  6697931553024 |         350 |       96136
             96 |           111310 |          6678588 |  3840001000 |  6609533185024 |         348 |       90794
             97 |           108235 |          6494100 |  3840002068 | 10003178667836 |         344 |       91440
             98 |           110997 |          6659812 |  3839997944 |  7591877835584 |         347 |       96404
             99 |           111563 |          6693804 |  3839998884 |  7429791399492 |         350 |       90880
            100 |           110978 |          6658660 |  3839998336 |  7700207320104 |         358 |      103222
            101 |           111172 |          6670328 |  3839998912 |  6247944612312 |         337 |       63411
            102 |           110704 |          6642264 |  3840002952 |  7429668508552 |         351 |       89747
            103 |           110730 |          6643772 |  3840002424 |  7570237207984 |         349 |       93960
            104 |           110937 |          6656236 |  3839989208 |  6524886745664 |         351 |       95029
            105 |            88473 |          5308384 |  3840016676 | 25945566391212 |         353 |       74035
            106 |           111003 |          6660156 |  3839992232 |  7820452325080 |         349 |       95286
            107 |           110640 |          6638404 |  3840002368 |  8822587883432 |         342 |      106143
            108 |           108896 |          6533732 |  3840000184 | 11165712401568 |         342 |       92891
            109 |           111482 |          6688932 |  3839990048 |  9187964745632 |         342 |       98568
            110 |           111021 |          6661256 |  3840007460 |  7504168937356 |         346 |       95050
            111 |           111523 |          6691380 |  3839997380 |  8699781287132 |         347 |      108578
            112 |           111339 |          6680364 |  3840000908 |  8490187984996 |         338 |       94013
            113 |           111569 |          6694124 |  3839997048 |  7902196918176 |         348 |       97614
            114 |           111242 |          6674536 |  3840003296 |  6263609820240 |         343 |       91068
            115 |           111725 |          6703472 |  3839998512 |  7574781848296 |         340 |      102641
            116 |           110617 |          6637028 |  3839996948 |  6373197072364 |         337 |       59956
            117 |           110963 |          6657800 |  3840005160 |  6357736117368 |         346 |       95847
            118 |           110800 |          6648000 |  3840004640 |  6374200861280 |         347 |       89780
            119 |           111065 |          6663904 |  3839906160 |  6230782920056 |         349 |       65152
            120 |            85231 |          5113848 |  3840096956 | 28655748585268 |         331 |       75051
            121 |           108224 |          6493464 |  3839990892 |  9662785206044 |         351 |       93002
            122 |           105419 |          6325140 |  3839996708 |  8592580591628 |         353 |       67782
            123 |           106037 |          6362208 |  3840005540 |  8554443496220 |         357 |       66783
            124 |           105706 |          6342368 |  3840000840 |  8073277665448 |         356 |       67375
            125 |           105455 |          6327280 |  3839759048 |  9576137032352 |         358 |       64453
            126 |           105823 |          6349392 |  3840240264 |  9328155972576 |         354 |       65657
            127 |           106257 |          6375428 |  3839999548 |  9767148715932 |         346 |       67297
            128 |           105483 |          6328992 |  3839992880 | 11290638874784 |         356 |       72733
            129 |           106765 |          6405888 |  3840003932 |  9225747287492 |         332 |       72870
            130 |           106208 |          6372492 |  3839994416 |  9260217170216 |         346 |       73394
            131 |           105986 |          6359172 |  3840009664 |  9133280707856 |         361 |       71473
            132 |           106407 |          6384420 |  3840000480 | 10218980530280 |         348 |      115400
            133 |           106065 |          6363900 |  3838413900 |  9045544079100 |         350 |       72832
            134 |           107145 |          6428676 |  3839823400 |  9495896388824 |         344 |       76906
            135 |            84267 |          5055992 |  3841766408 | 33648614241160 |         337 |       77296
            136 |           106021 |          6361236 |  3839992516 |  8947085163348 |         352 |       75722
            137 |           105885 |          6353112 |  3839994440 |  8405074906552 |         351 |       57188
            138 |           105747 |          6344832 |  3840000356 |  9008899436348 |         353 |       68737
            139 |           106289 |          6377368 |  3840009912 |  9341463739496 |         332 |       74158
            140 |           105742 |          6344548 |  3839995696 | 10067107863576 |         353 |       71306
            141 |           105631 |          6337836 |  3839995356 |  9369098343124 |         360 |       71273
            142 |           106348 |          6380884 |  3840006624 |  8163274870248 |         354 |       67332
            143 |           108948 |          6536896 |  3839996136 |  6216490037672 |         344 |       76381
            144 |           109051 |          6543084 |  3839997248 |  9106852066584 |         353 |      107323
            145 |           109385 |          6563104 |  3840009720 | 11026927653728 |         333 |       79337
            146 |           109886 |          6593172 |  3840003000 | 11228684821928 |         351 |       82551
            147 |           108513 |          6510764 |  3839988880 | 10169461963840 |         356 |       80593
            148 |           108708 |          6522480 |  3840003320 | 11381405708232 |         348 |      189346
            149 |           109277 |          6556632 |  3839108588 | 11476436437620 |         352 |       77400
            150 |            87608 |          5256456 |  3840891472 | 27507471649336 |         351 |       86264
            151 |           111118 |          6667068 |  3839995836 |  7988895560836 |         349 |       93309
            152 |           110625 |          6637488 |  3840013056 |  6470384607800 |         338 |       85229
            153 |           111072 |          6664308 |  3839991152 |  6455354199312 |         336 |       87850
            154 |           110920 |          6655200 |  3839997836 |  7296032545396 |         362 |       92324
            155 |           111216 |          6672932 |  3840005516 |  6936594246172 |         340 |       91699
            156 |           111055 |          6663320 |  3839999744 |  7555170109424 |         343 |       96070
            157 |           110180 |          6610800 |  3839992928 |  7888808148232 |         347 |      105347
            158 |           110683 |          6640956 |  3840013084 |  7024146301428 |         346 |      106547
            159 |           110863 |          6651784 |  3839990652 |  9033453488604 |         351 |      103781
            160 |           110379 |          6622768 |  3840000240 |  5974856162792 |         335 |       63269
            161 |           110810 |          6648584 |  3840000064 |  6132847543760 |         349 |       60273
            162 |           110936 |          6656140 |  3840007140 |  7186099648756 |         347 |      104821
            163 |           110582 |          6634896 |  3839979508 |  6766971476380 |         335 |       96034
            164 |           110522 |          6631328 |  3838223368 |  7900625356456 |         347 |      100178
            165 |            88665 |          5319900 |  3841780336 | 24622812885472 |         346 |       82341
            166 |           109988 |          6599272 |  3840009080 |  9686694634504 |         354 |       96160
            167 |           110731 |          6643880 |  3839991368 |  7367534813424 |         339 |       99239
            168 |           111513 |          6690792 |  3840006148 |  6777512062244 |         337 |       88134
            169 |           111413 |          6684804 |  3839999112 |  7373449370744 |         357 |       97128
            170 |           111125 |          6667500 |  3839995684 |  7445532820100 |         340 |       95391
            171 |           111184 |          6671024 |  3840005992 |  8266077634896 |         338 |       94946
            172 |           110685 |          6641084 |  3839995524 |  7844777996468 |         320 |       94418
            173 |           111362 |          6681744 |  3839990820 |  9362030204916 |         352 |      103599
            174 |           111451 |          6687064 |  3840016880 |  6616532311576 |         355 |       81926
            175 |           111968 |          6718080 |  3839997884 |  6980580010460 |         347 |       98893
            176 |           111296 |          6677752 |  3839990468 |  6510149194420 |         354 |       98244
            177 |           111280 |          6676776 |  3840015340 |  6618237113772 |         344 |       90845
            178 |           110339 |          6620344 |  3839997528 |  6934146648200 |         356 |       95797
            179 |           111991 |          6719488 |  3839996892 |  6845996575460 |         337 |      101320
            180 |            89231 |          5353848 |  3839991860 | 24174182013556 |         350 |       75948
            181 |           111516 |          6690956 |  3840011528 |  7650503296656 |         354 |       94993
            182 |           110810 |          6648572 |  3839998688 |  7441438529232 |         345 |       95191
            183 |           109125 |          6547520 |  3839999184 | 11987902114864 |         351 |       94085
            184 |           110292 |          6617544 |  3839993184 |  7360148618480 |         351 |       93991
            185 |           111456 |          6687352 |  3839995200 |  6447943106152 |         351 |       95406
            186 |           111113 |          6666760 |  3840009064 |  7654520729600 |         352 |      101000
            187 |           111639 |          6698364 |  3840007508 |  6768544146644 |         351 |       87122
            188 |           110912 |          6654692 |  3839994452 |  7218564844580 |         350 |       91876
            189 |           110620 |          6637184 |  3839997268 |  6495346939884 |         340 |       84437
            190 |           111747 |          6704812 |  3839996696 |  8176588550976 |         354 |       97372
            191 |           110731 |          6643836 |  3839999464 |  7118174004736 |         346 |      108817
            192 |           111041 |          6662448 |  3840008600 |  6205530385128 |         351 |       55533
            193 |           110439 |          6626316 |  3839998772 |  7775696966612 |         344 |      110481
            194 |           110695 |          6641708 |  3839935892 |  6721832182812 |         336 |       94929
            195 |            89070 |          5344180 |  3840056004 | 30963744908420 |         342 |       91844
            196 |           110536 |          6632180 |  3840003516 |  7119080482196 |         350 |       90521
            197 |           111383 |          6682992 |  3840008884 |  8546874347660 |         336 |      105804
            198 |           110932 |          6655940 |  3839994680 |  6958579810808 |         348 |       92767
            199 |           110710 |          6642608 |  3839990488 |  7448963358712 |         348 |       94334
            200 |           111116 |          6666956 |  3840009396 |  6544098849620 |         350 |       92423
            201 |           111369 |          6682124 |  3839998468 |  7113976001364 |         350 |       90021
            202 |           108808 |          6528452 |  3840001064 |  8240552105648 |         354 |       90021
            203 |           110614 |          6636868 |  3839998780 |  6752658520308 |         357 |       87930
            204 |           111056 |          6663376 |  3839996660 |  7647016293204 |         362 |      108122
            205 |           111234 |          6674044 |  3839991508 |  6106837865924 |         357 |       53553
            206 |           110833 |          6649976 |  3840005316 |  6336577599812 |         350 |       59929
            207 |           110792 |          6647540 |  3840003196 |  6368320193716 |         344 |       59639
            208 |           110569 |          6634112 |  3839988584 |  6021130478736 |         344 |       55414
            209 |           110500 |          6630008 |  3839996228 |  6755911765628 |         356 |      101261
            210 |            88539 |          5312344 |  3840019000 | 30166771590808 |         336 |       90142
            211 |           111047 |          6662808 |  3839539024 |  7936926640168 |         352 |       97299
            212 |           111036 |          6662176 |  3840452008 |  6546342809448 |         343 |       89543
            213 |           111218 |          6673056 |  3840006044 |  6841382538444 |         344 |       90298
            214 |           107740 |          6464376 |  3839999248 |  9594397811920 |         348 |      108662
            215 |           106219 |          6373140 |  3839998320 |  8618348357080 |         355 |       69231
            216 |           105711 |          6342676 |  3839995044 |  9126994007612 |         350 |      102802
            217 |           105654 |          6339256 |  3840007396 |  8608798526380 |         353 |       65640
            218 |           105321 |          6319232 |  3839995184 |  8761450729304 |         340 |       69812
            219 |           105407 |          6324424 |  3840005116 |  8765006320700 |         356 |       66908
            220 |           106802 |          6408108 |  3839992532 |  9041089298788 |         352 |       79342
            221 |           106241 |          6374452 |  3840003460 |  9112511461884 |         349 |       76511
            222 |           106926 |          6415532 |  3839985292 |  8609713078036 |         348 |       73356
            223 |           105816 |          6348980 |  3840017776 |  8564454743104 |         345 |       83338
            224 |           106588 |          6395300 |  3837020348 |  9563715112420 |         348 |       75439
            225 |            83893 |          5033600 |  3842973132 | 31448023791772 |         339 |       77698
            226 |           105409 |          6324516 |  3840064760 |  8943715882432 |         360 |       71806
            227 |           105602 |          6336148 |  3840005492 |  8613238963876 |         348 |       70983
            228 |           106145 |          6368708 |  3840000196 |  8530206907724 |         354 |       66235
            229 |           105592 |          6335496 |  3839989428 |  8731505483380 |         360 |       69265
            230 |           105739 |          6344312 |  3840004540 |  8818935577356 |         352 |       71164
            231 |           105185 |          6311092 |  3840001092 |  8050483095220 |         327 |       66956
            232 |           105905 |          6354284 |  3839998876 |  8527682640436 |         341 |       66607
            233 |           106009 |          6360524 |  3840004960 |  8579841774424 |         345 |       76215
            234 |           105284 |          6317068 |  3840001700 |  8646690321628 |         351 |       72724
            235 |           106831 |          6409844 |  3839997588 |  8616795385844 |         352 |       73697
            236 |           109436 |          6566188 |  3839997396 | 11516927580828 |         351 |      105527
            237 |           109453 |          6567204 |  3839999636 | 10110941111516 |         352 |       84263
            238 |           108387 |          6503244 |  3840003248 |  8480349343200 |         362 |       75589
            239 |           109155 |          6549276 |  3839994940 |  7610277939620 |         353 |       74318
            240 |            86771 |          5206252 |  3839988400 | 24593256284024 |         356 |       70345
            241 |           108480 |          6508812 |  3840010956 |  6499496683612 |         342 |       76557
            242 |           108003 |          6480172 |  3839504624 |  7476822900072 |         339 |       71183
            243 |           109587 |          6575220 |  3840465532 |  8859240105452 |         346 |       92396
            244 |           110386 |          6623176 |  3840027980 |  7672045117612 |         343 |       96146
            245 |           111154 |          6669236 |  3839999652 |  7162612074964 |         350 |       91375
            246 |           110078 |          6604676 |  3840014304 |  7395578827232 |         352 |      100487
            247 |           110431 |          6625888 |  3839988172 |  6931488751924 |         354 |       94038
            248 |           110964 |          6657852 |  3840006884 |  7902721650188 |         347 |       93585
            249 |           110701 |          6642044 |  3839993452 |  6990525940612 |         351 |       93718
            250 |           111002 |          6660092 |  3840003992 |  6439273441888 |         346 |       64672
            251 |           111146 |          6668788 |  3840002968 |  7305189348392 |         349 |       99972
            252 |           110636 |          6638144 |  3839997516 |  7844802111852 |         359 |      103873
            253 |           110363 |          6621780 |  3838297132 |  6412672365116 |         352 |       90917
            254 |           110429 |          6625728 |  3840237504 |  7477466443544 |         341 |      106084
            255 |            90368 |          5422068 |  3841467504 | 27786673679080 |         345 |       85388
            256 |           111025 |          6661488 |  3839997324 |  8039173039388 |         351 |       94236
            257 |           111364 |          6681860 |  3839996068 |  7165535339812 |         352 |      100068
            258 |           110317 |          6618992 |  3840006668 |  7257472285812 |         349 |       94284
            259 |           110826 |          6649560 |  3839965580 |  6999205830892 |         347 |       96142
            260 |           110902 |          6654096 |  3840019032 |  8390030414840 |         346 |       93187
            261 |           111202 |          6672136 |  3840010032 |  6879515593592 |         351 |       92117
            262 |           110388 |          6623264 |  3840005508 |  6827892411708 |         340 |       92161
            263 |           110376 |          6622532 |  3839996256 |  7368140023960 |         344 |      104062
            264 |           111485 |          6689120 |  3839994600 |  7503099766776 |         351 |      117067
            265 |           111264 |          6675860 |  3840009008 |  7232375806568 |         341 |      108070
            266 |           110935 |          6656100 |  3839997596 |  7029672255580 |         347 |      103281
            267 |           110771 |          6646248 |  3840000964 |  6554014512412 |         345 |       91711
            268 |           109180 |          6550808 |  3840004636 |  8725370458540 |         312 |       94066
            269 |           110870 |          6652216 |  3838873068 |  6686767883548 |         344 |       94172
            270 |            89543 |          5372608 |  3841117644 | 28715952906100 |         347 |       88535
            271 |           111210 |          6672584 |  3840004716 |  7232325069700 |         349 |       93510
            272 |           110995 |          6659728 |  3839999116 |  6205062718548 |         345 |       48640
            273 |           110761 |          6645668 |  3840001952 |  6934585627448 |         349 |       87421
            274 |           110308 |          6618484 |  3839990256 |  7360665430272 |         358 |       94101
            275 |           110734 |          6644012 |  3840003872 |  6709322852424 |         348 |       86532
            276 |           110686 |          6641184 |  3839993752 |  7838859013080 |         332 |       96909
            277 |           110673 |          6640392 |  3838198432 |  6385886452120 |         353 |       52876
            278 |           110110 |          6606616 |  3841735892 |  6863427737636 |         349 |       93105
            279 |           110574 |          6634428 |  3840073188 |  7306668125524 |         346 |       96002
            280 |           110591 |          6635432 |  3839995208 |  6125174561696 |         341 |       54583
            281 |           111153 |          6669188 |  3840007160 |  6467669147720 |         353 |      104017
            282 |           110480 |          6628820 |  3840004568 |  6929962914856 |         351 |       90970
            283 |           110061 |          6603660 |  3839986676 |  6916551423004 |         349 |       96981
            284 |           110944 |          6656644 |  3838126700 |  6591050105868 |         340 |       61016
            285 |            89641 |          5378440 |  3841875920 | 27230556923592 |         345 |       78246
            286 |           110737 |          6644228 |  3840006980 |  6608909181332 |         340 |       94553
            287 |           110286 |          6617144 |  3839989328 |  7477585831640 |         353 |      103089
            288 |           110830 |          6649796 |  3840007548 |  7065434829556 |         353 |       91861
            289 |           110846 |          6650776 |  3840004784 |  6267575152784 |         351 |       55170
            290 |           111011 |          6660660 |  3839997380 |  7292483379108 |         342 |       91180
            291 |           110695 |          6641684 |  3839996932 |  7938530642180 |         359 |       99922
            292 |           111480 |          6688796 |  3839998444 |  8283640116052 |         340 |       97994
            293 |           110721 |          6643244 |  3839994592 |  7503089529600 |         355 |       92067
            294 |           110584 |          6635036 |  3840005948 |  8399253179644 |         329 |       99788
            295 |           110282 |          6616916 |  3840000808 |  7636548910560 |         352 |      107594
            296 |           108989 |          6539364 |  3840001592 |  9158894987584 |         344 |      119365
            297 |           111194 |          6671628 |  3840003428 |  6418029174324 |         346 |       57697
            298 |           110352 |          6621140 |  3839991852 |  7173934539172 |         345 |       94767
            299 |           110928 |          6655676 |  3837727880 |  7426331052728 |         355 |      101994
            300 |            89740 |          5384412 |  3842273532 | 28187602261556 |         348 |       89256
            301 |           110790 |          6647396 |  3840009824 |  6756393256528 |         344 |       82458
            302 |           111025 |          6661520 |  3839985592 |  7083873499168 |         351 |       94615
            303 |           110816 |          6648988 |  3839994848 |  6700244829408 |         357 |       86589
            304 |           110756 |          6645332 |  3839999200 |  6738694244976 |         340 |       85059
            305 |           111430 |          6685772 |  3839987252 |  6757542811804 |         342 |       91782
            306 |           111295 |          6677700 |  3840020808 |  7412676170784 |         344 |       97666
            307 |           106201 |          6372040 |  3840010804 |  8548194491084 |         351 |       69160
            308 |           105837 |          6350192 |  3839995952 |  8259345733744 |         357 |       65787
            309 |           105921 |          6355284 |  3839991800 |  8734312087664 |         346 |       88752
            310 |           106153 |          6369204 |  3840005836 |  8857671861924 |         342 |       68074
            311 |           106396 |          6383732 |  3839995472 |  9155991924560 |         341 |       72124
            312 |           105587 |          6335192 |  3839992352 |  9503503346152 |         349 |      102069
            313 |           105527 |          6331604 |  3840008404 |  9747617809852 |         352 |      102144
            314 |           106965 |          6417896 |  3840010148 |  9165767344148 |         350 |       78819
            315 |            83619 |          5017156 |  3840002420 | 28419459017812 |         355 |       68850
            316 |           105229 |          6313732 |  3839986048 |  9430680285624 |         359 |      145238
            317 |           105632 |          6337932 |  3836487468 |  8018983319316 |         354 |       68450
            318 |           105200 |          6311984 |  3843523908 |  8768964584884 |         357 |       72689
            319 |           105157 |          6309400 |  3839924112 |  9086484856912 |         363 |      105120
            320 |           104772 |          6286344 |  3840008808 |  8523842680816 |         346 |       67654
            321 |           105641 |          6338488 |  3839997864 | 12579132449952 |         355 |      223579
            322 |           106487 |          6389236 |  3839997248 |  8249772207512 |         349 |       68353
            323 |           106198 |          6371852 |  3839999740 |  9473388863372 |         348 |       68743
            324 |           106301 |          6378084 |  3839997944 |  9492261265376 |         349 |       75603
            325 |           105909 |          6354536 |  3839977868 |  8690782936148 |         352 |       70285
            326 |           106270 |          6376216 |  3840030800 |  8676686577776 |         345 |       67488
            327 |           106604 |          6396228 |  3840000388 | 10155134419124 |         344 |      168409
            328 |           106181 |          6370856 |  3839996384 |  8263961404824 |         353 |       72627
            329 |           110116 |          6606964 |  3839998076 | 10253836271060 |         344 |       75994
            330 |            86368 |          5182088 |  3840002232 | 28469240873080 |         347 |       74969
            331 |           108695 |          6521704 |  3839995252 |  6337003337268 |         357 |       72328
            332 |           108305 |          6498316 |  3839999676 |  7631170991468 |         359 |       72467
            333 |           108117 |          6487012 |  3840002632 |  6546669434392 |         355 |       68683
            334 |           109169 |          6550148 |  3839996864 |  6465663009136 |         331 |       70637
            335 |           107833 |          6470000 |  3840003576 |  7533563986088 |         337 |      102951
            336 |           109024 |          6541468 |  3839998208 |  8235932881304 |         338 |       87170
            337 |           111019 |          6661160 |  3840008032 |  6971891385248 |         353 |       91894
            338 |           110741 |          6644468 |  3840000092 |  8272470824196 |         359 |      107052
            339 |           111104 |          6666256 |  3839991052 |  7189152455108 |         353 |       92106
            340 |           111280 |          6676780 |  3840002276 |  6208952517812 |         350 |       51776
            341 |           110660 |          6639608 |  3840003108 |  6800700795716 |         349 |      103104
            342 |           111096 |          6665748 |  3839998236 |  6801257177980 |         352 |       92731
            343 |           110470 |          6628180 |  3840002212 |  7491085343556 |         350 |       97923
            344 |           111596 |          6695780 |  3840000184 |  6308719415392 |         353 |       94907
            345 |            87637 |          5258212 |  3839998720 | 28114974894072 |         338 |       75195
            346 |           111622 |          6697320 |  3840005316 |  7788967391580 |         350 |       93278
            347 |           111122 |          6667292 |  3839957360 |  7102960842072 |         358 |       89734
            348 |           110510 |          6630596 |  3840039512 |  6969812330368 |         354 |       86453
            349 |           110788 |          6647300 |  3839973896 |  7058939547272 |         345 |       91022
            350 |           110867 |          6652004 |  3840024004 |  6762789422060 |         344 |       90144
            351 |           110653 |          6639184 |  3840002392 |  5989765803072 |         345 |       51916
            352 |           110809 |          6648536 |  3839992064 |  6431001985232 |         348 |       85803
            353 |           110621 |          6637252 |  3840006244 |  7320130289140 |         354 |       91137
            354 |           110624 |          6637448 |  3839998376 |  6707505367688 |         347 |       89968
            355 |           111124 |          6667468 |  3839997356 |  6241287740084 |         351 |       57655
            356 |           110630 |          6637788 |  3840006824 |  6293158117528 |         349 |       59412
            357 |           110242 |          6614516 |  3839987800 |  6479699108680 |         355 |       60336
            358 |           110695 |          6641696 |  3840011456 |  7519277070736 |         352 |      103309
            359 |           111507 |          6690404 |  3839994540 |  6264906098764 |         344 |       69980
(360 rows)

