 interval_start | avg_transactions | num_transactions | sum_latency | sum_latency_2  | min_latency | max_latency 
----------------+------------------+------------------+-------------+----------------+-------------+-------------
              0 |            87121 |          5227268 |  3788151436 |  3155972098932 |         293 |       33828
              1 |            93583 |          5614984 |  3839992996 |  3141547610460 |         289 |       20603
              2 |           102809 |          6168532 |  3840024508 |  2901262966708 |         291 |       26284
              3 |           110401 |          6624056 |  3839986468 |  2770483767068 |         294 |       48580
              4 |            92851 |          5571080 |  3839995680 |  2976784622976 |         293 |       24211
              5 |            98094 |          5885624 |  3840017040 |  3496233253072 |         286 |       22725
              6 |            87819 |          5269124 |  3839987756 | 19088679455532 |         281 |       40105
              7 |            95120 |          5707212 |  3839998004 | 18045659278404 |         276 |       34479
              8 |           103614 |          6216856 |  3839996132 |  2808411016860 |         289 |       36795
              9 |           100283 |          6016968 |  3839993584 |  2759475469624 |         283 |       44213
             10 |           104845 |          6290704 |  3840026376 |  2693882048440 |         294 |       26803
             11 |           108545 |          6512688 |  3839999232 |  2786858955112 |         293 |       30806
             12 |           111006 |          6660332 |  3839985400 |  3024892166984 |         271 |       33931
             13 |           105757 |          6345432 |  3840018164 |  2553582888820 |         290 |       16992
             14 |           107590 |          6455388 |  3839971152 |  2604740968192 |         284 |       38361
             15 |           110537 |          6632228 |  3840023508 |  2676060522892 |         294 |       45414
             16 |           114338 |          6860276 |  3839998800 |  3091231107512 |         299 |       47863
             17 |           107660 |          6459612 |  3839996796 |  2549624281948 |         302 |       25639
             18 |           107238 |          6434288 |  3839990608 |  2789877138552 |         295 |       84305
             19 |           111393 |          6683596 |  3840005912 |  2746770648632 |         289 |       58604
             20 |           115302 |          6918124 |  3840001676 |  2402572242860 |         301 |       23422
             21 |           117689 |          7061356 |  3840001104 |  2795914845160 |         285 |       52455
             22 |           106915 |          6414904 |  3839987372 |  2881295990492 |         294 |       64185
             23 |           110078 |          6604664 |  3840012776 |  3077892172704 |         294 |       72388
             24 |           114017 |          6841020 |  3839997600 |  3141635141552 |         293 |       72778
             25 |           117221 |          7033252 |  3839994136 |  2436826798408 |         288 |       45577
             26 |           118878 |          7132700 |  3840001904 |  2729142305344 |         285 |       33615
             27 |           106488 |          6389304 |  3839996392 |  2657643714040 |         288 |       54520
             28 |           111203 |          6672204 |  3840015416 |  2847331823432 |         305 |       73566
             29 |           115139 |          6908312 |  3839994944 |  2548937155632 |         303 |       47275
             30 |           117488 |          7049276 |  3840002248 |  2397309488512 |         288 |       53322
             31 |           119100 |          7146024 |  3839991252 |  2801789971100 |         288 |       82753
             32 |           109975 |          6598528 |  3840008020 |  2630311956108 |         298 |       84526
             33 |           112191 |          6731488 |  3839993784 |  2497259725864 |         299 |       46406
             34 |           113889 |          6833332 |  3840004744 |  3097003813648 |         299 |      136130
             35 |           116627 |          6997596 |  3839999848 |  2774977289120 |         303 |       94773
             36 |           118837 |          7130200 |  3840000748 |  2958807456132 |         296 |       87160
             37 |           112595 |          6755708 |  3840001456 |  2533950046224 |         294 |       29605
             38 |           110656 |          6639384 |  3839999164 |  2871934405612 |         298 |       99866
             39 |           114468 |          6868056 |  3840000916 |  3131045135348 |         298 |       99346
             40 |           117719 |          7063112 |  3839995628 |  3040819426860 |         290 |      105902
             41 |           119113 |          7146772 |  3840005944 |  2378760252296 |         299 |       29008
             42 |           117508 |          7050508 |  3839974204 |  3081891141916 |         291 |       83136
             43 |           109513 |          6570796 |  3840022712 |  3130266000704 |         304 |      102273
             44 |           112277 |          6736632 |  3840003308 |  2771161898244 |         298 |      104049
             45 |           115887 |          6953204 |  3839984304 |  2888290689008 |         284 |       94828
             46 |           118285 |          7097120 |  3840007928 |  2370839164728 |         299 |       18652
             47 |           119940 |          7196376 |  3839996504 |  3032089339488 |         296 |       55152
             48 |           111440 |          6686400 |  3840008632 |  2424294010928 |         300 |       23856
             49 |           112428 |          6745652 |  3839999396 |  3599098085324 |         288 |      164437
             50 |           116812 |          7008708 |  3839995668 |  2390170693220 |         289 |       28331
             51 |           118782 |          7126936 |  3839998904 |  2461795301576 |         283 |       59202
             52 |           118244 |          7094620 |  3839999896 |  2741967763224 |         286 |       28689
             53 |           116438 |          6986296 |  3840000472 |  2415755587936 |         284 |       69652
             54 |           111516 |          6690960 |  3840005900 |  2479945251956 |         290 |       34456
             55 |           112990 |          6779388 |  3840001104 |  2692423149592 |         310 |       69861
             56 |           117648 |          7058852 |  3839998848 |  3018271257544 |         290 |      110745
             57 |           119643 |          7178556 |  3839994884 |  2335266621204 |         277 |       31643
             58 |           116045 |          6962692 |  3839991460 |  2640854578492 |         296 |       34089
             59 |           111669 |          6700168 |  3840003020 |  2447179580204 |         295 |       63656
             60 |           113914 |          6834856 |  3840010708 |  2909133730292 |         296 |       82647
             61 |           116531 |          6991832 |  3839996684 |  2569924681988 |         290 |       78252
             62 |           118937 |          7136228 |  3839999532 |  2509511370396 |         294 |      100674
             63 |           120413 |          7224784 |  3839997616 |  2423952615680 |         290 |       21948
             64 |           107350 |          6440972 |  3840004264 |  3275694518112 |         295 |      105302
             65 |           115260 |          6915628 |  3839997972 |  2378720619604 |         290 |       33725
             66 |           114896 |          6893784 |  3840007300 |  2617032569108 |         298 |      104757
             67 |           117529 |          7051724 |  3839989184 |  3317228699952 |         292 |       99892
             68 |           119763 |          7185776 |  3840004052 |  2887660257788 |         283 |       40768
             69 |           112215 |          6732912 |  3840006360 |  2632316110704 |         292 |      129401
             70 |           111882 |          6712912 |  3839968016 |  2694703666816 |         303 |       69719
             71 |           115089 |          6905312 |  3840026984 |  3076733939208 |         304 |      111143
             72 |           117758 |          7065488 |  3839991132 |  2437939978524 |         286 |       44318
             73 |           119194 |          7151620 |  3840006604 |  2729916580548 |         297 |       72552
             74 |           117036 |          7022172 |  3840000124 |  3143978426020 |         278 |       77403
             75 |           109294 |          6557648 |  3839994308 |  2969842984724 |         287 |       81687
             76 |           112501 |          6750064 |  3840008548 |  2798217065548 |         295 |      104513
             77 |           116545 |          6992692 |  3840009852 |  2512642236972 |         299 |       40593
             78 |           118471 |          7108272 |  3839984256 |  2482300393960 |         285 |       91134
             79 |           121723 |          7303368 |  3840000552 |  2362492659224 |         290 |       23702
             80 |           108738 |          6524268 |  3840006824 |  2541345012112 |         288 |       22364
             81 |           111793 |          6707588 |  3839993904 |  2559043492920 |         299 |       73097
             82 |           118134 |          7088048 |  3839988064 |  2679170360576 |         301 |       80544
             83 |           118292 |          7097512 |  3840002508 |  2756019126100 |         292 |       77744
             84 |           118211 |          7092672 |  3840014460 |  2713800025388 |         297 |      108630
             85 |           114791 |          6887440 |  3839994508 |  2634784034340 |         291 |       94721
             86 |           110737 |          6644232 |  3839996960 |  2564875884904 |         285 |       51087
             87 |           112850 |          6770992 |  3840009116 |  2556504814708 |         296 |       47888
             88 |           119666 |          7179968 |  3839991036 |  2431695511756 |         292 |       49767
             89 |           119328 |          7159700 |  3840002244 |  3127129406860 |         299 |       93080
             90 |           116632 |          6997900 |  3840001040 |  2934001309624 |         286 |       99943
             91 |           108655 |          6519292 |  3840007448 |  2949639459192 |         289 |       60040
             92 |           113460 |          6807620 |  3839996752 |  2510931556360 |         285 |       22420
             93 |           116887 |          7013200 |  3839998260 |  2563069199924 |         305 |       89591
             94 |           118035 |          7082084 |  3839998156 |  2559314541276 |         305 |       95276
             95 |           119753 |          7185156 |  3840006700 |  2575253606140 |         296 |      100733
             96 |           112212 |          6732716 |  3839995840 |  2433627438504 |         291 |       41834
             97 |           111280 |          6676808 |  3840006040 |  2701750622224 |         291 |       95661
             98 |           119364 |          7161816 |  3839983112 |  2416929159776 |         290 |       48812
             99 |           118069 |          7084140 |  3840004764 |  2447164540492 |         298 |       37290
            100 |           119547 |          7172792 |  3840002940 |  3021871646804 |         280 |       85273
            101 |           113452 |          6807100 |  3839997644 |  2507432153564 |         291 |       75467
            102 |           111256 |          6675372 |  3839994688 |  2966131333152 |         293 |      106243
            103 |           117399 |          7043932 |  3840011292 |  2443270053868 |         306 |       66809
            104 |           117714 |          7062848 |  3840008660 |  3204898102140 |         290 |      126845
            105 |           119292 |          7157500 |  3839992500 |  2387419808900 |         293 |       41466
            106 |           115550 |          6932972 |  3839981636 |  2929564470884 |         293 |       40687
            107 |           109023 |          6541388 |  3840009320 |  2728642722472 |         301 |       98447
            108 |           112963 |          6777760 |  3840008368 |  2578537617800 |         301 |       83483
            109 |           116756 |          7005340 |  3839993316 |  2432233859268 |         292 |       35776
            110 |           118449 |          7106944 |  3840002156 |  2836721830396 |         288 |       98017
            111 |           119508 |          7170476 |  3840002792 |  3337125427184 |         286 |      109654
            112 |           109369 |          6562116 |  3840007108 |  2610416640972 |         300 |       69582
            113 |           113942 |          6836508 |  3840001772 |  2466629527116 |         297 |      103552
            114 |           115274 |          6916420 |  3839997872 |  3087486308472 |         300 |      100896
            115 |           117738 |          7064300 |  3840002264 |  2398818276216 |         300 |       19378
            116 |           119657 |          7179428 |  3839989948 |  2620512837372 |         288 |       75248
            117 |           113401 |          6804064 |  3840011152 |  2469931122936 |         293 |       33388
            118 |           109521 |          6571272 |  3839982620 |  2702833104732 |         295 |       38087
            119 |           114401 |          6864080 |  3840005500 |  2525549007596 |         298 |       61026
            120 |           115086 |          6905168 |  3840002364 |  2667438184916 |         293 |       92194
            121 |           116631 |          6997860 |  3839992544 |  2735928759928 |         299 |       48598
            122 |           115748 |          6944856 |  3840012884 |  2653900245516 |         284 |       58553
            123 |           107276 |          6436588 |  3839988888 |  3089549356984 |         294 |       56000
            124 |           114985 |          6899092 |  3839990268 |  2359585620268 |         296 |       30968
            125 |           114417 |          6865048 |  3840010340 |  2868285966676 |         289 |       52095
            126 |           117166 |          7029980 |  3840001740 |  2436449396844 |         291 |       75760
            127 |           115201 |          6912044 |  3840003956 |  3058321269076 |         296 |       34621
            128 |           107044 |          6422660 |  3839995944 |  2974346873944 |         310 |      101587
            129 |           113417 |          6805036 |  3839982760 |  2839547602680 |         296 |       83630
            130 |           114716 |          6882988 |  3840018928 |  3115685823824 |         296 |       88442
            131 |           115774 |          6946432 |  3839995064 |  2936928057000 |         295 |       81951
            132 |           117456 |          7047376 |  3839991616 |  3068895209528 |         297 |       63156
            133 |           108539 |          6512348 |  3840012624 |  2601547151400 |         304 |       45358
            134 |           111503 |          6690196 |  3840003516 |  2672882914100 |         295 |       67478
            135 |           113862 |          6831700 |  3839997492 |  2876937391508 |         298 |       58340
            136 |           116480 |          6988820 |  3839994812 |  2631904797628 |         290 |       95797
            137 |           119307 |          7158440 |  3839999880 |  2949360456048 |         288 |       55947
            138 |           109015 |          6540920 |  3839986824 |  2675676806784 |         294 |       56153
            139 |           111432 |          6685896 |  3840033008 |  2698666336512 |         299 |       68523
            140 |           113823 |          6829368 |  3839847548 |  2518925229724 |         299 |       53106
            141 |           118705 |          7122316 |  3840132868 |  2483970920228 |         296 |       48970
            142 |           116693 |          7001592 |  3840006032 |  2834511759528 |         293 |       54386
            143 |           113420 |          6805220 |  3840009364 |  2560700689460 |         289 |       72260
            144 |           109090 |          6545420 |  3839986656 |  2938216611488 |         292 |       66558
            145 |           115502 |          6930100 |  3839993540 |  2591045345780 |         302 |       74039
            146 |           116551 |          6993040 |  3840008780 |  2622830150852 |         294 |       57118
            147 |           118464 |          7107820 |  3840001240 |  2903082824784 |         301 |       80558
            148 |           117688 |          7061304 |  3839997828 |  2523111474260 |         294 |       77870
            149 |           109761 |          6585660 |  3839990324 |  2552626705428 |         293 |       73565
            150 |           111541 |          6692468 |  3840010180 |  2710470659108 |         289 |      106473
            151 |           118909 |          7134556 |  3839991960 |  2481123502472 |         306 |      113533
            152 |           117759 |          7065532 |  3840008588 |  2578249137540 |         289 |       74671
            153 |           119063 |          7143788 |  3839999432 |  2982086662840 |         284 |       90762
            154 |           108836 |          6530136 |  3840004384 |  2731604737816 |         296 |      128433
            155 |           110850 |          6650984 |  3840001904 |  3382426005232 |         295 |      104645
            156 |           113479 |          6808744 |  3839998252 |  2461874798836 |         283 |       39934
            157 |           119175 |          7150500 |  3839999928 |  2266514858088 |         303 |       47751
            158 |           117120 |          7027220 |  3839992472 |  2854919078512 |         297 |       65662
            159 |           109657 |          6579424 |  3839992324 |  2551786747676 |         299 |       84916
            160 |           108613 |          6516780 |  3840010412 |  2577324152828 |         301 |       37656
            161 |           113963 |          6837804 |  3839987312 |  2631165964512 |         298 |       70092
            162 |           116898 |          7013888 |  3840000728 |  2499610659616 |         294 |       88948
            163 |           117231 |          7033844 |  3840013240 |  2610796116128 |         299 |       63381
            164 |           109383 |          6562968 |  3839991636 |  2834835272724 |         291 |       73566
            165 |           108945 |          6536724 |  3840006740 |  2619398032876 |         299 |       79023
            166 |           115273 |          6916388 |  3839997604 |  2378986773804 |         277 |       26220
            167 |           115346 |          6920756 |  3840008612 |  2606809025036 |         296 |      133703
            168 |           116197 |          6971836 |  3839991108 |  3666829726236 |         294 |       89051
            169 |           109579 |          6574720 |  3840000516 |  2614694391804 |         296 |       66906
            170 |           111279 |          6676720 |  3840007464 |  2558163596424 |         298 |       92446
            171 |           112459 |          6747516 |  3840000416 |  3386092007584 |         297 |      103653
            172 |           115334 |          6920036 |  3839998164 |  3529809634756 |         292 |      108528
            173 |           116381 |          6982888 |  3839786156 |  3174433599420 |         296 |       65778
            174 |           112529 |          6751764 |  3840219704 |  2455705970936 |         297 |      111912
            175 |           109566 |          6573964 |  3840005132 |  2590458394588 |         284 |       57470
            176 |           111193 |          6671556 |  3839986344 |  2849429787176 |         307 |       94532
            177 |           114661 |          6879656 |  3840006148 |  2546102719076 |         304 |       83209
            178 |           116722 |          7003340 |  3840001740 |  2938652306620 |         292 |       62842
            179 |           111464 |          6687848 |  3839978304 |  2572544159136 |         302 |       69050
            180 |           111418 |          6685092 |  3840015008 |  2418530337248 |         299 |       22787
            181 |           112396 |          6743732 |  3840004340 |  2490803096052 |         292 |       28126
            182 |           116376 |          6982576 |  3839995324 |  2477301479348 |         298 |       34114
            183 |           118271 |          7096280 |  3840001204 |  2736609183052 |         293 |       26225
            184 |           114695 |          6881716 |  3840002412 |  2398527452724 |         289 |       38030
            185 |           107974 |          6478432 |  3839984832 |  2611966598440 |         302 |       45321
            186 |           112384 |          6743060 |  3840021472 |  2531769167472 |         297 |       60254
            187 |           117717 |          7063008 |  3839971696 |  2383811930808 |         298 |       33704
            188 |           118958 |          7137468 |  3840018212 |  2496800448468 |         293 |       37844
            189 |           114154 |          6849260 |  3839989244 |  3188296498004 |         296 |       77216
            190 |           107908 |          6474484 |  3840009412 |  2561934634700 |         299 |       29518
            191 |           112389 |          6743328 |  3840005072 |  2650122846888 |         302 |       42392
            192 |           117797 |          7067832 |  3839998860 |  2438798867276 |         308 |       46450
            193 |           117006 |          7020336 |  3839997704 |  2596835968056 |         294 |       84039
            194 |           115977 |          6958636 |  3839995360 |  3149877357640 |         287 |       53271
            195 |           106962 |          6417700 |  3840001684 |  2717534237548 |         309 |       82565
            196 |           113672 |          6820344 |  3839991428 |  2394630197892 |         306 |       50992
            197 |           114223 |          6853372 |  3840008464 |  2599396627992 |         303 |       60924
            198 |           116436 |          6986176 |  3840005336 |  2825204697304 |         289 |       82397
            199 |           117992 |          7079520 |  3839995580 |  3005829994156 |         296 |       86684
            200 |           109893 |          6593572 |  3840006292 |  2573917452436 |         302 |       95091
            201 |           109440 |          6566376 |  3840006804 |  3131447830812 |         305 |       90490
            202 |           118257 |          7095404 |  3839987052 |  2524819812244 |         292 |       63867
            203 |           116864 |          7011816 |  3840004192 |  2880987663840 |         299 |       82202
            204 |           118271 |          7096280 |  3840004368 |  3042644458808 |         285 |       81185
            205 |           106066 |          6363980 |  3840005800 |  3221784176040 |         305 |       95888
            206 |           112469 |          6748148 |  3839983856 |  2589890833128 |         298 |       47819
            207 |           113090 |          6785400 |  3840004936 |  2719206406640 |         295 |       75896
            208 |           115024 |          6901436 |  3839996360 |  2964093494744 |         294 |       79840
            209 |           119024 |          7141460 |  3839987144 |  2517610519640 |         291 |       64418
            210 |           109089 |          6545324 |  3840020360 |  2653355716288 |         307 |       57057
            211 |           108997 |          6539836 |  3839991504 |  3028208560984 |         305 |       59422
            212 |           112496 |          6749752 |  3839990448 |  2978070254720 |         288 |       68370
            213 |           114920 |          6895220 |  3840007372 |  2990805649836 |         308 |       79558
            214 |           118383 |          7102980 |  3840005380 |  3562912371156 |         296 |       78330
            215 |           106548 |          6392872 |  3839987484 |  3092224591900 |         302 |       93489
            216 |           108079 |          6484756 |  3840002356 |  3018925483756 |         300 |       74709
            217 |           114950 |          6896972 |  3839991256 |  2395453829216 |         300 |       39296
            218 |           114807 |          6888436 |  3840022180 |  2625982089860 |         291 |       64509
            219 |           116259 |          6975532 |  3840000376 |  3208861810072 |         295 |       45979
            220 |           108226 |          6493580 |  3839985508 |  2701935341980 |         311 |       79493
            221 |           108545 |          6512700 |  3840013976 |  2638882080792 |         301 |       37873
            222 |           114710 |          6882592 |  3840007348 |  2478609377412 |         302 |       46413
            223 |           114575 |          6874516 |  3839995488 |  2703112076600 |         300 |       43674
            224 |           116264 |          6975864 |  3839985356 |  2918222349116 |         295 |       76234
            225 |           108416 |          6504956 |  3839998092 |  2586135156556 |         300 |       22518
            226 |           107884 |          6473044 |  3840019652 |  2689035949532 |         303 |       44667
            227 |           115145 |          6908724 |  3839994680 |  2455421109032 |         290 |       81988
            228 |           115901 |          6954056 |  3839995936 |  2469377119312 |         305 |       57665
            229 |           116815 |          7008920 |  3840006952 |  2602248418224 |         293 |       79034
            230 |           110736 |          6644172 |  3839994532 |  2632101162996 |         292 |       47327
            231 |           109860 |          6591612 |  3839998256 |  2599822800304 |         281 |       34921
            232 |           111399 |          6683932 |  3840010004 |  2677094179220 |         298 |       55075
            233 |           113844 |          6830628 |  3839991936 |  2588057193128 |         309 |       63116
            234 |           116522 |          6991344 |  3840005968 |  2918038377712 |         298 |       35682
            235 |           112994 |          6779648 |  3839990716 |  2720971978212 |         286 |      113054
            236 |           108283 |          6496952 |  3839998900 |  3286427787420 |         306 |      136400
            237 |           117547 |          7052832 |  3840004464 |  2427995476816 |         295 |       97068
            238 |           112921 |          6775272 |  3840005964 |  2978255158356 |         302 |       81869
            239 |           116454 |          6987228 |  3839993144 |  3375498648584 |         305 |       87313
            240 |           113692 |          6821536 |  3839989612 |  2404948642748 |         303 |       55590
            241 |           107438 |          6446272 |  3840023444 |  2783068591028 |         305 |      115088
            242 |           110779 |          6646716 |  3839978284 |  2983099615668 |         298 |       58604
            243 |           115184 |          6911044 |  3840009104 |  2548780903312 |         299 |      105668
            244 |           117645 |          7058696 |  3839985248 |  2625358487048 |         293 |      103128
            245 |           114400 |          6864000 |  3840000216 |  3105627930312 |         299 |      108946
            246 |           106762 |          6405696 |  3840024176 |  3143289481176 |         302 |      130267
            247 |           110711 |          6642672 |  3839980028 |  2617435102732 |         306 |       87273
            248 |           114400 |          6863996 |  3840008440 |  2541481287624 |         303 |       23221
            249 |           116956 |          7017388 |  3839998944 |  2718172827112 |         295 |       59342
            250 |           114883 |          6892968 |  3839999648 |  2508450416120 |         292 |      104634
            251 |           107686 |          6461168 |  3839990100 |  2625404186908 |         298 |       83218
            252 |           109989 |          6599360 |  3840017060 |  2718837157676 |         308 |       79130
            253 |           114279 |          6856732 |  3839995668 |  3585676773148 |         304 |      133003
            254 |           118369 |          7102140 |  3840003484 |  2553917333540 |         281 |       55252
            255 |           115323 |          6919388 |  3840008376 |  2380685942608 |         281 |      100095
            256 |           105851 |          6351072 |  3839991120 |  2970622364600 |         294 |      109375
            257 |           111267 |          6676000 |  3839991488 |  2528697900808 |         286 |       46094
            258 |           114167 |          6850028 |  3840010236 |  2736545622236 |         300 |       67652
            259 |           115815 |          6948920 |  3839988184 |  3012620723888 |         291 |       77970
            260 |           114018 |          6841108 |  3839996012 |  2526281389076 |         298 |       97302
            261 |           106693 |          6401584 |  3840004320 |  2925018004408 |         301 |      185850
            262 |           111164 |          6669820 |  3840011632 |  2912324497680 |         298 |      123313
            263 |           114324 |          6859436 |  3839994244 |  3463897105348 |         302 |      106339
            264 |           115962 |          6957692 |  3840001940 |  3189483741412 |         306 |       88939
            265 |           112292 |          6737504 |  3839999520 |  2497238733056 |         293 |       61893
            266 |           105201 |          6312036 |  3839997428 |  2902819529308 |         313 |       97815
            267 |           112631 |          6757836 |  3840009060 |  2500053981388 |         301 |       37902
            268 |           114619 |          6877112 |  3839993168 |  2443988864168 |         296 |       37970
            269 |           116086 |          6965132 |  3839993912 |  2795907611888 |         297 |      131112
            270 |           111094 |          6665664 |  3839999656 |  2543578540824 |         304 |       51909
            271 |           109624 |          6577452 |  3840019104 |  2628225392544 |         301 |       52382
            272 |           110212 |          6612696 |  3839985512 |  2576702595496 |         302 |       57739
            273 |           113800 |          6827984 |  3840004096 |  2562260483384 |         298 |       44757
            274 |           115123 |          6907356 |  3839998824 |  3483930780184 |         298 |      112837
            275 |           111613 |          6696768 |  3839994800 |  2501500003608 |         299 |       99958
            276 |           106116 |          6366956 |  3840016676 |  2855996969004 |         304 |      103472
            277 |           110933 |          6655972 |  3839968756 |  2880821574316 |         306 |       78469
            278 |           113620 |          6817228 |  3840025724 |  2561320520492 |         309 |      100324
            279 |           116292 |          6977496 |  3839996784 |  2883893234944 |         289 |       74570
            280 |           111970 |          6718220 |  3839965804 |  2576835152244 |         282 |       94383
            281 |           108443 |          6506568 |  3840032256 |  2640516679744 |         305 |       40812
            282 |           110691 |          6641472 |  3840004220 |  2985398664060 |         298 |       81553
            283 |           113824 |          6829452 |  3839997848 |  2576301392840 |         303 |       59320
            284 |           115991 |          6959452 |  3839991720 |  3531304806496 |         285 |      107293
            285 |           108989 |          6539332 |  3840004364 |  2731703138548 |         296 |       62708
            286 |           109737 |          6584192 |  3840002148 |  2692652623364 |         302 |       64339
            287 |           109921 |          6595288 |  3839996468 |  2924472075156 |         307 |       84280
            288 |           115081 |          6904852 |  3840000132 |  3036092645588 |         296 |      102754
            289 |           116549 |          6992928 |  3840006680 |  2706872210872 |         299 |       30384
            290 |           107548 |          6452880 |  3840000888 |  3390032418896 |         296 |      116938
            291 |           108182 |          6490932 |  3839989192 |  2878541898136 |         303 |       72768
            292 |           111464 |          6687852 |  3840002184 |  2728576059304 |         304 |       53787
            293 |           114353 |          6861184 |  3840012092 |  3716084155164 |         291 |      113258
            294 |           115525 |          6931508 |  3839996508 |  2757314632140 |         300 |       38531
            295 |           108004 |          6480248 |  3839982504 |  2799901774496 |         298 |       58207
            296 |           106595 |          6395692 |  3840011452 |  2812016007980 |         304 |       76242
            297 |           110295 |          6617700 |  3839994276 |  2761185178460 |         307 |       77892
            298 |           113577 |          6814628 |  3839992724 |  2739870223316 |         295 |       60479
            299 |           116229 |          6973724 |  3840015444 |  2931741745748 |         291 |       38354
            300 |           103937 |          6236216 |  3839993604 |  3134112119556 |         300 |       58548
            301 |           107719 |          6463156 |  3839992396 |  2684635196220 |         307 |       32893
            302 |           111266 |          6675948 |  3840021812 |  2968369399796 |         302 |       75266
            303 |           114093 |          6845600 |  3839999276 |  2838193616788 |         305 |       58455
            304 |           116536 |          6992136 |  3839991692 |  2777476515644 |         283 |       36747
            305 |           104416 |          6264964 |  3840003504 |  2763054597096 |         306 |       36894
            306 |           106810 |          6408604 |  3839983528 |  3166023396952 |         313 |       93746
            307 |           111152 |          6669092 |  3839999108 |  2740728192420 |         288 |       67853
            308 |           113878 |          6832684 |  3839996948 |  2884786579420 |         296 |       53650
            309 |           112903 |          6774172 |  3840015932 |  2980998458436 |         290 |       50248
            310 |           105979 |          6358712 |  3840006512 |  2698959296856 |         298 |       51768
            311 |           107334 |          6440052 |  3839995708 |  2848228452804 |         300 |       47557
            312 |           110530 |          6631788 |  3839978500 |  2911558732412 |         306 |       56730
            313 |           114705 |          6882308 |  3840021244 |  2618482443156 |         295 |       45833
            314 |           111940 |          6716400 |  3839987588 |  2909753434164 |         301 |       58587
            315 |           105598 |          6335908 |  3840001444 |  3156805552668 |         311 |       77534
            316 |           108949 |          6536940 |  3840008896 |  2712904883688 |         303 |       71516
            317 |           111991 |          6719432 |  3840001540 |  2660860135764 |         300 |       52811
            318 |           114057 |          6843436 |  3839847068 |  2711131680708 |         297 |       39720
            319 |           111057 |          6663412 |  3840146004 |  2886122940836 |         301 |       50007
            320 |           107227 |          6433620 |  3839985948 |  2756456692684 |         307 |       55869
            321 |           109269 |          6556120 |  3840019732 |  2747348421052 |         301 |       60063
            322 |           111724 |          6703460 |  3839986472 |  2866382998096 |         283 |       88952
            323 |           115125 |          6907520 |  3840018212 |  2401239324988 |         291 |       16651
            324 |           112193 |          6731580 |  3839983384 |  2855128887856 |         305 |       58254
            325 |           104294 |          6257612 |  3840003608 |  2820651851824 |         314 |      106615
            326 |           109005 |          6540304 |  3840007592 |  2736789565080 |         297 |       95532
            327 |           114088 |          6845300 |  3839997040 |  3060406616136 |         295 |       96328
            328 |           114216 |          6852932 |  3840003972 |  3727195469028 |         302 |      100442
            329 |           113084 |          6785036 |  3839988560 |  2409346349232 |         303 |       24022
            330 |           106534 |          6392020 |  3840000392 |  2783515320728 |         298 |       91214
            331 |           109688 |          6581292 |  3839995008 |  2724080978344 |         301 |      129400
            332 |           113785 |          6827120 |  3840011888 |  2615624422920 |         307 |       36912
            333 |           115669 |          6940168 |  3840008256 |  3185261751120 |         295 |      102452
            334 |           109161 |          6549632 |  3839997408 |  2906427866384 |         295 |       45523
            335 |           109015 |          6540920 |  3839999852 |  2636795629468 |         307 |       54835
            336 |           110114 |          6606848 |  3840006724 |  3345854146252 |         300 |      110704
            337 |           113692 |          6821512 |  3839998404 |  2610757854548 |         298 |       96412
            338 |           115654 |          6939232 |  3839986440 |  3393451093928 |         299 |      113061
            339 |           108575 |          6514484 |  3839988028 |  2673615270908 |         306 |       49556
            340 |           107807 |          6468412 |  3840020168 |  2617424026736 |         312 |       42033
            341 |           109352 |          6561104 |  3839978528 |  2637476522120 |         294 |       49462
            342 |           113322 |          6799308 |  3840016160 |  2620184628968 |         301 |       52802
            343 |           115192 |          6911544 |  3839995400 |  3035721780648 |         303 |       51904
            344 |           107684 |          6461052 |  3840014244 |  2547228333692 |         299 |       25123
            345 |           108632 |          6517896 |  3839995036 |  2515617858460 |         303 |       16427
            346 |           110930 |          6655828 |  3839998544 |  2586363425672 |         304 |       43425
            347 |           114019 |          6841112 |  3839995648 |  2548729262328 |         294 |       62716
            348 |           115705 |          6942308 |  3840004464 |  2947199600232 |         290 |       48882
            349 |           105547 |          6332816 |  3839982760 |  2629947661976 |         301 |       23492
            350 |           107739 |          6464368 |  3840018576 |  2690900060128 |         308 |       89910
            351 |           113894 |          6833632 |  3839999748 |  2366293000804 |         306 |       34095
            352 |           114022 |          6841328 |  3839928868 |  2597906145620 |         308 |       78156
            353 |           115366 |          6921972 |  3840010104 |  3159859669656 |         291 |       86745
            354 |           104719 |          6283120 |  3839984432 |  2645500179080 |         310 |       26057
            355 |           107530 |          6451820 |  3840000720 |  2673668238736 |         308 |       94254
            356 |           111664 |          6699844 |  3839981076 |  2604650760428 |         305 |       82310
            357 |           113827 |          6829592 |  3839756416 |  2613445553752 |         289 |       42292
            358 |           116743 |          7004584 |  3840269596 |  3125052324628 |         298 |       60409
            359 |           106635 |          6398124 |  3839991760 |  2604580440408 |         298 |       50072
(360 rows)

