 interval_start | avg_transactions | num_transactions | sum_latency | sum_latency_2  | min_latency | max_latency 
----------------+------------------+------------------+-------------+----------------+-------------+-------------
              0 |           110364 |          6621868 |  3809917496 |  2688435851816 |         294 |       34246
              1 |           127357 |          7641436 |  3839999880 |  2686323194096 |         283 |       24916
              2 |           135977 |          8158608 |  3840004740 |  2137118904140 |         280 |       22059
              3 |           135343 |          8120584 |  3839988056 |  2443370523736 |         280 |       32571
              4 |           133906 |          8034360 |  3840005880 |  3758030870048 |         281 |       42076
              5 |           136629 |          8197724 |  3840006608 |  4140442646776 |         274 |       64257
              6 |           135623 |          8137376 |  3839996136 |  3482093170248 |         282 |       46575
              7 |           137025 |          8221488 |  3840000232 |  3198636352352 |         276 |       27775
              8 |           137502 |          8250104 |  3840002296 |  3421427633544 |         278 |       85169
              9 |           137825 |          8269500 |  3839999772 |  2837691840196 |         281 |       21009
             10 |           137381 |          8242888 |  3839996608 |  3309037451752 |         280 |       64728
             11 |           138427 |          8305600 |  3840004096 |  3115363978288 |         277 |       60429
             12 |           137691 |          8261468 |  3839999480 |  3692397542480 |         281 |       89196
             13 |           137788 |          8267304 |  3839996676 |  3232865858028 |         285 |       83381
             14 |           135382 |          8122900 |  3839999336 |  4250301902816 |         280 |       80898
             15 |           100613 |          6036796 |  3840003972 | 18246384013516 |         281 |       28648
             16 |           116639 |          6998356 |  3839996256 | 14065000733304 |         285 |      103833
             17 |           129281 |          7756868 |  3840004572 |  8811510150196 |         280 |       46989
             18 |           127293 |          7637552 |  3839997416 |  7180263836384 |         286 |       72253
             19 |           134173 |          8050352 |  3840001668 |  4863141626876 |         264 |       46523
             20 |           134718 |          8083064 |  3839997296 |  3960926105840 |         285 |       24404
             21 |           134243 |          8054580 |  3839997492 |  4293757568484 |         277 |       85065
             22 |           135265 |          8115892 |  3839938220 |  3230235035380 |         284 |       30883
             23 |           138622 |          8317300 |  3839620952 |  3237961844888 |         278 |       56371
             24 |           135998 |          8159860 |  3840396872 |  3939110548648 |         268 |       79437
             25 |           134703 |          8082188 |  3840032644 |  3756098974076 |         282 |       59314
             26 |           136545 |          8192704 |  3840016480 |  3005996747728 |         281 |       40184
             27 |           136079 |          8164732 |  3839998704 |  3193551068008 |         284 |       20926
             28 |           137770 |          8266176 |  3840002788 |  2906283744668 |         286 |       63218
             29 |           136957 |          8217404 |  3839997204 |  2729408005492 |         285 |       91799
             30 |           122640 |          7358412 |  3840003048 |  2843161477696 |         281 |       47617
             31 |           129949 |          7796952 |  3839992420 |  2432871657668 |         292 |       39652
             32 |           135440 |          8126380 |  3840001680 |  2562931149200 |         286 |       86684
             33 |           136165 |          8169896 |  3840003176 |  2509341587312 |         281 |       79073
             34 |           137646 |          8258732 |  3840000648 |  2311990871368 |         277 |       50958
             35 |           135024 |          8101412 |  3839997752 |  2362658111504 |         282 |       41355
             36 |           135281 |          8116880 |  3839989772 |  2577716578068 |         285 |       46606
             37 |           134880 |          8092780 |  3840011268 |  2490621455972 |         291 |       57836
             38 |           136524 |          8191448 |  3840000984 |  2301311502304 |         287 |       44997
             39 |           137931 |          8275852 |  3840000460 |  2140141497068 |         280 |       20627
             40 |           136554 |          8193212 |  3839991564 |  2292797348540 |         289 |       25882
             41 |           136569 |          8194152 |  3840007604 |  2308005335060 |         283 |       34389
             42 |           137390 |          8243384 |  3839992480 |  2299413223176 |         286 |       37666
             43 |           140737 |          8444216 |  3839997540 |  2381805670580 |         280 |       56410
             44 |           135543 |          8132588 |  3840062624 |  2496060778944 |         280 |       63931
             45 |           123528 |          7411688 |  3840003044 |  3042198797580 |         300 |       79444
             46 |           128537 |          7712216 |  3840006488 |  2970292660024 |         295 |       57013
             47 |           131621 |          7897256 |  3840004204 |  2705052914932 |         289 |       57071
             48 |           133712 |          8022704 |  3839994164 |  3165496475212 |         290 |       88271
             49 |           135233 |          8114008 |  3840005004 |  2756843917108 |         288 |       86936
             50 |           135254 |          8115220 |  3840000868 |  2644167070172 |         282 |       81564
             51 |           136300 |          8178028 |  3839998932 |  2552773846636 |         290 |       83120
             52 |           137661 |          8259684 |  3839999752 |  2167481245512 |         285 |       17235
             53 |           136863 |          8211792 |  3839996096 |  2296858219680 |         286 |       46655
             54 |           136811 |          8208640 |  3839999292 |  2371111059068 |         288 |       57379
             55 |           137794 |          8267652 |  3840003820 |  2627973367020 |         287 |       82040
             56 |           135537 |          8132208 |  3839995684 |  2444136839932 |         289 |       46797
             57 |           134499 |          8069956 |  3840003608 |  3638608185776 |         267 |       58978
             58 |           136350 |          8181012 |  3840000988 |  2635684536428 |         287 |       26592
             59 |           136573 |          8194392 |  3839997720 |  2094614938248 |         292 |       17874
             60 |           117125 |          7027472 |  3839994884 |  3627913458892 |         301 |       90546
             61 |           129858 |          7791500 |  3839984664 |  2321667051336 |         302 |       38665
             62 |           130561 |          7833660 |  3839747156 |  2963650039260 |         295 |       77263
             63 |           132126 |          7927576 |  3840271564 |  2259170117572 |         289 |       24003
             64 |           135158 |          8109468 |  3840004484 |  2682691695764 |         288 |       86687
             65 |           135640 |          8138412 |  3840000376 |  2830505976856 |         285 |       75662
             66 |           136366 |          8181972 |  3839997672 |  2224252953840 |         291 |       35344
             67 |           136321 |          8179256 |  3840001700 |  2914417697884 |         284 |      106042
             68 |           136787 |          8207228 |  3839997012 |  2368272203372 |         282 |       48275
             69 |           136717 |          8203024 |  3839999932 |  2043767827940 |         291 |       17805
             70 |           137006 |          8220372 |  3840004040 |  2334628543816 |         279 |       61391
             71 |           136022 |          8161344 |  3839995796 |  2438480803556 |         291 |       67496
             72 |           137271 |          8236256 |  3840003756 |  2134284580644 |         286 |       35562
             73 |           138017 |          8280996 |  3839993320 |  2333043695888 |         280 |       44603
             74 |           133779 |          8026724 |  3840014140 |  2470116530180 |         284 |       67667
             75 |           116226 |          6973552 |  3839996744 |  3188259463888 |         298 |      112838
             76 |           127063 |          7623776 |  3839976076 |  2696579482660 |         283 |       58422
             77 |           130618 |          7837052 |  3840017068 |  2565157803972 |         283 |       60555
             78 |           130839 |          7850328 |  3839997124 |  2391639988596 |         291 |       48540
             79 |           132561 |          7953672 |  3840001080 |  2512975194672 |         292 |       66756
             80 |           133159 |          7989516 |  3840002856 |  2764246593048 |         292 |       79911
             81 |           134089 |          8045340 |  3840000276 |  2619298240860 |         296 |       87376
             82 |           134074 |          8044440 |  3839996812 |  2269657319172 |         280 |       18062
             83 |           134766 |          8085940 |  3839971640 |  2514732922344 |         281 |       50518
             84 |           135890 |          8153376 |  3840029344 |  2059972149872 |         286 |       12943
             85 |           134584 |          8075044 |  3839998128 |  3277615685352 |         284 |       99784
             86 |           134902 |          8094136 |  3840003752 |  2918009761608 |         275 |       26365
             87 |           133268 |          7996076 |  3840000372 |  3390041235300 |         277 |       27431
             88 |           133999 |          8039944 |  3839997256 |  2799727483968 |         285 |       51639
             89 |           134867 |          8092020 |  3839989680 |  2312527039736 |         284 |       29746
             90 |           118314 |          7098824 |  3840010744 |  2855464105720 |         281 |       51115
             91 |           131450 |          7887020 |  3839994560 |  2575972728672 |         293 |       82092
             92 |           132715 |          7962888 |  3840007648 |  2096649046984 |         290 |       27454
             93 |           134203 |          8052156 |  3839996820 |  2772248387380 |         285 |      105662
             94 |           133552 |          8013124 |  3839999448 |  3080470388904 |         281 |       97380
             95 |           134798 |          8087876 |  3840001416 |  2423914349944 |         282 |       57413
             96 |           134868 |          8092084 |  3840000328 |  2834642255464 |         287 |       95600
             97 |           134996 |          8099752 |  3839998336 |  2224267000968 |         279 |       38775
             98 |           135845 |          8150672 |  3840000924 |  2162396554820 |         287 |       38443
             99 |           136016 |          8160940 |  3840003400 |  2633885750136 |         286 |       90143
            100 |           134438 |          8066264 |  3839997864 |  2261205040400 |         289 |       15182
            101 |           134639 |          8078344 |  3839999620 |  2618981375428 |         283 |       62699
            102 |           134647 |          8078840 |  3840002512 |  2566965360776 |         280 |       47758
            103 |           134351 |          8061036 |  3839999040 |  2270016088640 |         285 |       33941
            104 |           133850 |          8030996 |  3840010788 |  2262847717604 |         291 |       20205
            105 |           117243 |          7034556 |  3839992272 |  2876916091080 |         300 |       60509
            106 |           129769 |          7786164 |  3840000460 |  2167428407108 |         296 |       17427
            107 |           130530 |          7831808 |  3839993484 |  2460628482620 |         292 |       53519
            108 |           131255 |          7875312 |  3840001852 |  2572425037796 |         292 |       58019
            109 |           131953 |          7917156 |  3840003424 |  2926610218728 |         285 |       58249
            110 |           132828 |          7969696 |  3839996228 |  2298019405612 |         289 |       25953
            111 |           132234 |          7934064 |  3839999964 |  3141642192764 |         282 |       77345
            112 |           133414 |          8004860 |  3840003416 |  2669065505160 |         289 |       47204
            113 |           134065 |          8043896 |  3839997552 |  2318252856288 |         288 |       70192
            114 |           133109 |          7986552 |  3840000608 |  2814799697160 |         291 |       62306
            115 |           134189 |          8051360 |  3839998656 |  2418767301984 |         289 |       64006
            116 |           134566 |          8073944 |  3840003684 |  2286235480892 |         287 |       34122
            117 |           132800 |          7968000 |  3839993628 |  3357683778388 |         256 |       48629
            118 |           132592 |          7955516 |  3840003788 |  3055716458740 |         280 |       59096
            119 |           133707 |          8022436 |  3840009000 |  2537373611808 |         283 |       45758
            120 |           117448 |          7046860 |  3839986900 |  2762376447652 |         295 |       60524
            121 |           126341 |          7580484 |  3840006128 |  2635512405448 |         291 |       42698
            122 |           131987 |          7919200 |  3839995888 |  2162916125416 |         290 |       16387
            123 |           133420 |          8005192 |  3840003184 |  2462438983768 |         289 |       44565
            124 |           134186 |          8051184 |  3839990336 |  2321698833216 |         288 |       33762
            125 |           132527 |          7951648 |  3840003572 |  2558383696036 |         292 |       42654
            126 |           133534 |          8012048 |  3840004060 |  2362046297844 |         291 |       39613
            127 |           134620 |          8077196 |  3840001540 |  2142889667980 |         288 |       32021
            128 |           133887 |          8033204 |  3840003920 |  2487874111352 |         287 |       34312
            129 |           134156 |          8049372 |  3839997144 |  2710399164808 |         284 |       54772
            130 |           135961 |          8157680 |  3840002160 |  2238669033088 |         282 |       53006
            131 |           132882 |          7972936 |  3839992240 |  3490209081864 |         289 |       52401
            132 |           137054 |          8223228 |  3840003264 |  3177558420256 |         292 |       63230
            133 |           138803 |          8328176 |  3840001680 |  2697330140512 |         285 |       52360
            134 |           137350 |          8240972 |  3840002788 |  2081254722324 |         284 |       28184
            135 |           118478 |          7108688 |  3839996100 |  2908990291860 |         293 |       48504
            136 |           128933 |          7735964 |  3840000364 |  2742424696916 |         288 |       52101
            137 |           131545 |          7892700 |  3840001428 |  2782125282916 |         290 |       44756
            138 |           135944 |          8156612 |  3839997112 |  2313530337624 |         288 |       40752
            139 |           132939 |          7976368 |  3840004148 |  2887159453284 |         290 |       42390
            140 |           136049 |          8162936 |  3839996392 |  2082441687592 |         295 |       15418
            141 |           136704 |          8202268 |  3839995736 |  2123112305192 |         291 |       34732
            142 |           136537 |          8192208 |  3840000636 |  2221649547684 |         280 |       48134
            143 |           136126 |          8167544 |  3840000932 |  2324594268116 |         292 |       38529
            144 |           134513 |          8070788 |  3840006900 |  2608528803316 |         288 |       51400
            145 |           136447 |          8186828 |  3839995076 |  2639778832140 |         295 |       48296
            146 |           136922 |          8215332 |  3840000076 |  2377069523276 |         290 |       49063
            147 |           136950 |          8217016 |  3840001376 |  2232802524752 |         290 |       44002
            148 |           135754 |          8145248 |  3840000100 |  2370243119452 |         287 |       46207
            149 |           134570 |          8074176 |  3839989252 |  2341724715980 |         294 |       39639
            150 |           117935 |          7076088 |  3840008424 |  2726100005744 |         281 |       47353
            151 |           130338 |          7820268 |  3839977472 |  2216816844768 |         295 |       29666
            152 |           133068 |          7984076 |  3840021140 |  2300702643452 |         298 |       40179
            153 |           134360 |          8061628 |  3840002936 |  2891844806792 |         280 |       73073
            154 |           134262 |          8055744 |  3840003144 |  2648064401328 |         293 |       65754
            155 |           136110 |          8166620 |  3839994632 |  2300721487040 |         288 |       39114
            156 |           135127 |          8107632 |  3840000216 |  2804335853120 |         291 |       63170
            157 |           135593 |          8135600 |  3840000052 |  2444583212516 |         287 |       45309
            158 |           136712 |          8202728 |  3840001436 |  2324804233828 |         287 |       43697
            159 |           135852 |          8151116 |  3840005460 |  2108430516652 |         287 |       12373
            160 |           134089 |          8045348 |  3839998180 |  2284211542644 |         291 |       22910
            161 |           136464 |          8187836 |  3839996752 |  2051889591040 |         290 |       29848
            162 |           134071 |          8044232 |  3840003752 |  2793246176488 |         280 |       64513
            163 |           135477 |          8128596 |  3839995192 |  2203219474792 |         288 |       49006
            164 |           133014 |          7980812 |  3840005996 |  2944566483212 |         294 |       92989
            165 |           118990 |          7139428 |  3839995680 |  2797759046720 |         297 |       73741
            166 |           130687 |          7841200 |  3839999836 |  2385623789980 |         295 |       70599
            167 |           130159 |          7809548 |  3840000484 |  2497869637228 |         292 |       56818
            168 |           132768 |          7966056 |  3839996344 |  2142520930128 |         289 |       13302
            169 |           133461 |          8007664 |  3839988064 |  2329924101688 |         292 |       51044
            170 |           136839 |          8210364 |  3840016180 |  1967423388772 |         289 |       11534
            171 |           134179 |          8050724 |  3839997044 |  2200538726764 |         288 |       29572
            172 |           134371 |          8062256 |  3840007132 |  2361439518292 |         291 |       59118
            173 |           134014 |          8040860 |  3839993588 |  2122593492572 |         289 |       13144
            174 |           135670 |          8140212 |  3839996604 |  2764532557108 |         284 |       94235
            175 |           136969 |          8218112 |  3840007852 |  2024178770804 |         294 |       24442
            176 |           135128 |          8107656 |  3839994256 |  3279138814608 |         280 |       93171
            177 |           133228 |          7993696 |  3839995032 |  2488715983216 |         283 |       46695
            178 |           133285 |          7997092 |  3840008352 |  2213511291048 |         282 |       25819
            179 |           132293 |          7937556 |  3840002700 |  2905324262716 |         294 |       72835
            180 |           116042 |          6962520 |  3839992632 |  3143143062648 |         297 |       56523
            181 |           128639 |          7718344 |  3840006032 |  2439783025432 |         301 |       47640
            182 |           128917 |          7735044 |  3839995916 |  2614473363604 |         303 |       50817
            183 |           131408 |          7884460 |  3840002676 |  2464955219644 |         293 |       41387
            184 |           131917 |          7915044 |  3840000388 |  2495094038076 |         292 |       44850
            185 |           132138 |          7928300 |  3839993816 |  2880480719576 |         292 |       69094
            186 |           135474 |          8128448 |  3840001260 |  2208971501596 |         287 |       33886
            187 |           132621 |          7957236 |  3840007696 |  2604417488808 |         290 |       55319
            188 |           133233 |          7993964 |  3839994976 |  2653993790856 |         291 |       48753
            189 |           133876 |          8032588 |  3840003608 |  2289619148240 |         286 |       30784
            190 |           133795 |          8027700 |  3839999840 |  2230926155440 |         288 |       20249
            191 |           134142 |          8048520 |  3839995484 |  2458773007580 |         291 |       49122
            192 |           133889 |          8033344 |  3840006180 |  2462747089084 |         285 |       50708
            193 |           132939 |          7976348 |  3839993072 |  2306597085744 |         293 |       47474
            194 |           134573 |          8074372 |  3839968604 |  2242781839604 |         279 |       35201
            195 |           120729 |          7243736 |  3840019588 |  2610230351740 |         302 |       57804
            196 |           125861 |          7551664 |  3840008788 |  2692255381340 |         305 |       68162
            197 |           131024 |          7861420 |  3840008840 |  2150971202736 |         287 |       14416
            198 |           131234 |          7874020 |  3839993484 |  2799728365732 |         294 |       58969
            199 |           135277 |          8116604 |  3840005256 |  2226908060712 |         283 |       40663
            200 |           132823 |          7969356 |  3839996560 |  2937821049768 |         292 |       63703
            201 |           133862 |          8031704 |  3839997980 |  2688774201300 |         288 |       56696
            202 |           134414 |          8064832 |  3840005636 |  2403771764372 |         286 |       57434
            203 |           133622 |          8017292 |  3840005176 |  2450327856776 |         279 |       61633
            204 |           133767 |          8026000 |  3839995732 |  2375991317988 |         284 |       41373
            205 |           134732 |          8083924 |  3839999596 |  2762804115924 |         289 |       53006
            206 |           134597 |          8075812 |  3839998500 |  3059980472604 |         293 |      110843
            207 |           136115 |          8166892 |  3839993948 |  2084767283148 |         288 |       25728
            208 |           136737 |          8204212 |  3840005304 |  2074111995240 |         280 |       36147
            209 |           136713 |          8202800 |  3839992836 |  2550467716820 |         292 |       97716
            210 |           118670 |          7120224 |  3840008292 |  3214923240548 |         300 |      101685
            211 |           127453 |          7647160 |  3839996092 |  2382276066972 |         297 |       34872
            212 |           130017 |          7801044 |  3840002460 |  2657947848996 |         294 |       62698
            213 |           135730 |          8143776 |  3839998452 |  2013047639684 |         295 |       18652
            214 |           133506 |          8010344 |  3840002840 |  3091694873752 |         288 |       94328
            215 |           133340 |          8000412 |  3839995232 |  3001824404792 |         290 |       87248
            216 |           132895 |          7973692 |  3840003388 |  2520034496044 |         293 |       28208
            217 |           134629 |          8077728 |  3839998528 |  2448154699880 |         290 |       47523
            218 |           134754 |          8085244 |  3839998276 |  2329110127772 |         286 |       29857
            219 |           134991 |          8099452 |  3840001780 |  2178463263580 |         293 |       17949
            220 |           138730 |          8323772 |  3840003292 |  1976244263596 |         291 |       22257
            221 |           136439 |          8186348 |  3839997676 |  2155776141580 |         290 |       16875
            222 |           135974 |          8158448 |  3839999396 |  2241925865628 |         283 |       15578
            223 |           135409 |          8124544 |  3840002908 |  2388679852260 |         286 |       19163
            224 |           134432 |          8065892 |  3839985108 |  2244512740500 |         295 |       20301
            225 |           117497 |          7049792 |  3840013980 |  2390055563636 |         302 |       17118
            226 |           130167 |          7810044 |  3839752828 |  2182082253836 |         299 |       13884
            227 |           133117 |          7987024 |  3840247992 |  2151493096712 |         290 |       16070
            228 |           133513 |          8010756 |  3839998848 |  2203676127848 |         287 |       27012
            229 |           131986 |          7919160 |  3839998456 |  2916074402552 |         297 |       94457
            230 |           135094 |          8105628 |  3840005172 |  2270014325364 |         289 |       41612
            231 |           135802 |          8148132 |  3839998020 |  2107066338076 |         292 |       17442
            232 |           133715 |          8022904 |  3840000832 |  2690869088216 |         292 |       73405
            233 |           133632 |          8017900 |  3839999816 |  2759881562640 |         293 |       80734
            234 |           134673 |          8080384 |  3839985484 |  2516269131188 |         294 |       56879
            235 |           137098 |          8225892 |  3840012040 |  2055078066488 |         285 |       16980
            236 |           134153 |          8049208 |  3839998180 |  2407708053220 |         292 |       37708
            237 |           133977 |          8038620 |  3840001100 |  2253766828004 |         294 |       25820
            238 |           136431 |          8185852 |  3839999584 |  2163602701856 |         287 |       45527
            239 |           133356 |          8001352 |  3840001960 |  2570257785232 |         280 |       32663
            240 |           119510 |          7170600 |  3839997856 |  2887637169760 |         307 |       90840
            241 |           127595 |          7655716 |  3839996456 |  2765159825840 |         302 |       82005
            242 |           130781 |          7846888 |  3839997260 |  2196487062268 |         298 |       21609
            243 |           132793 |          7967552 |  3840007904 |  2141657974336 |         291 |       13957
            244 |           136858 |          8211492 |  3840000832 |  1988581268328 |         289 |       19900
            245 |           132462 |          7947748 |  3840001172 |  2785092748060 |         291 |       70655
            246 |           134561 |          8073672 |  3839993212 |  2549481125588 |         290 |       80839
            247 |           133948 |          8036884 |  3839994936 |  3056179648416 |         285 |       78304
            248 |           135618 |          8137104 |  3840010528 |  2383215035880 |         291 |       67883
            249 |           134137 |          8048216 |  3839997072 |  2363654529336 |         297 |       43602
            250 |           134568 |          8074076 |  3840001784 |  2497179373984 |         283 |       69451
            251 |           134941 |          8096472 |  3840001604 |  2215440432484 |         288 |       23992
            252 |           133382 |          8002924 |  3839998908 |  2630445085604 |         290 |       56513
            253 |           133608 |          8016492 |  3839998392 |  2481721288616 |         292 |       62286
            254 |           133971 |          8038244 |  3839998780 |  2388421705932 |         296 |       52403
            255 |           118832 |          7129948 |  3839999272 |  2737985918904 |         308 |       55891
            256 |           126154 |          7569220 |  3840001832 |  2842057953880 |         300 |       62463
            257 |           129207 |          7752432 |  3839995660 |  2719356030348 |         295 |       48313
            258 |           131231 |          7873880 |  3840003684 |  2278998628580 |         282 |       37059
            259 |           135202 |          8112100 |  3839986276 |  2231017494788 |         291 |       48490
            260 |           132318 |          7939052 |  3840017440 |  2460957926688 |         298 |       55801
            261 |           134096 |          8045756 |  3839996352 |  2542588048304 |         292 |       48611
            262 |           132394 |          7943628 |  3840005416 |  3049226567832 |         297 |       62049
            263 |           133207 |          7992412 |  3839992756 |  2506735278044 |         293 |       47460
            264 |           133860 |          8031604 |  3840000132 |  2311843586988 |         289 |       43271
            265 |           135658 |          8139508 |  3840002640 |  2306919184272 |         295 |       50342
            266 |           133769 |          8026128 |  3839997752 |  2404748805640 |         290 |       45295
            267 |           132553 |          7953168 |  3839995856 |  3015032783512 |         293 |       65975
            268 |           136036 |          8162136 |  3840009572 |  2117834306172 |         284 |       16697
            269 |           132973 |          7978388 |  3839996336 |  2430164432944 |         286 |       59926
            270 |           117883 |          7072960 |  3840002848 |  2893225107296 |         297 |       46554
            271 |           129345 |          7760716 |  3839997124 |  2368867249148 |         295 |       56861
            272 |           129310 |          7758588 |  3839996028 |  2802904185612 |         293 |       59740
            273 |           132807 |          7968448 |  3840002496 |  2076059910280 |         291 |       12723
            274 |           133344 |          8000660 |  3839999204 |  2273556398932 |         293 |       23171
            275 |           133290 |          7997416 |  3840001620 |  2613825996836 |         290 |       49324
            276 |           134845 |          8090700 |  3840001164 |  2714406407140 |         288 |       60378
            277 |           134744 |          8084624 |  3839999180 |  2763648433844 |         297 |       99821
            278 |           133580 |          8014792 |  3840000440 |  2757631368096 |         289 |       54596
            279 |           134095 |          8045704 |  3840002452 |  2495642985604 |         283 |       48042
            280 |           134485 |          8069104 |  3839998336 |  2183319453976 |         282 |       26153
            281 |           134555 |          8073272 |  3839998980 |  2212687746556 |         292 |       23321
            282 |           135157 |          8109420 |  3839998648 |  2402935452312 |         292 |       56464
            283 |           135709 |          8142552 |  3840000448 |  2796723381024 |         289 |       87709
            284 |           135112 |          8106708 |  3840010296 |  2376717950552 |         288 |       46804
            285 |           120666 |          7239932 |  3839990484 |  2273744609844 |         306 |       14964
            286 |           130569 |          7834124 |  3840001456 |  2397755552040 |         279 |       23858
            287 |           131693 |          7901592 |  3840006180 |  2147529681308 |         297 |       12426
            288 |           132095 |          7925696 |  3839985844 |  2356580175148 |         290 |       15943
            289 |           137307 |          8238436 |  3840007652 |  1966431713420 |         293 |       15671
            290 |           135364 |          8121832 |  3839998612 |  2197126675916 |         287 |       37262
            291 |           133881 |          8032848 |  3840002268 |  2235143882708 |         291 |       31973
            292 |           132949 |          7976920 |  3839994168 |  3037699476840 |         290 |       87761
            293 |           135232 |          8113948 |  3840004996 |  2205025010780 |         286 |       13540
            294 |           137660 |          8259580 |  3840002848 |  1926624811984 |         289 |       12970
            295 |           133672 |          8020320 |  3839995908 |  2676243882492 |         292 |       77517
            296 |           134411 |          8064672 |  3840003564 |  2773108397892 |         291 |       84066
            297 |           133704 |          8022240 |  3839994136 |  2967463477552 |         286 |       94886
            298 |           136345 |          8180728 |  3840007200 |  2424738016120 |         288 |       71749
            299 |           134770 |          8086204 |  3839993660 |  2133512287612 |         290 |       13586
            300 |           116609 |          6996540 |  3840004144 |  2898413648120 |         304 |       67371
            301 |           127397 |          7643848 |  3839992604 |  2761154854612 |         292 |       83411
            302 |           132780 |          7966824 |  3840008804 |  2790280805588 |         297 |       98452
            303 |           132250 |          7934976 |  3839999896 |  2191095451024 |         296 |       23764
            304 |           133575 |          8014492 |  3839997400 |  2655234336016 |         290 |       85951
            305 |           133929 |          8035764 |  3839985676 |  2409113260780 |         282 |       47370
            306 |           136247 |          8174812 |  3840015168 |  2056993402760 |         295 |       36894
            307 |           134773 |          8086376 |  3840004832 |  2591300387576 |         285 |       54321
            308 |           135172 |          8110336 |  3839991996 |  2383729765340 |         286 |       60041
            309 |           134867 |          8092004 |  3840001624 |  2541662207448 |         291 |       82206
            310 |           134495 |          8069700 |  3840001204 |  2942175973004 |         286 |       63189
            311 |           136873 |          8212396 |  3839803720 |  2512953830272 |         287 |       82076
            312 |           135671 |          8140264 |  3840193408 |  2575486442240 |         290 |       84538
            313 |           134557 |          8073400 |  3840004944 |  2704204613416 |         296 |       81609
            314 |           133847 |          8030816 |  3839980848 |  2696707439840 |         290 |       79787
            315 |           118532 |          7111912 |  3840011200 |  3465870841464 |         298 |       80580
            316 |           130056 |          7803368 |  3840009392 |  2132616065600 |         296 |       23040
            317 |           130694 |          7841616 |  3839999836 |  2428531271388 |         298 |       41399
            318 |           132372 |          7942300 |  3839991324 |  2277691691620 |         291 |       38860
            319 |           133718 |          8023056 |  3840005324 |  2739063671052 |         291 |       72128
            320 |           135865 |          8151904 |  3839996584 |  2460281629440 |         291 |       58047
            321 |           133508 |          8010456 |  3840002952 |  2441690923936 |         295 |       40570
            322 |           134481 |          8068876 |  3840003908 |  2765460314860 |         296 |       79577
            323 |           135068 |          8104100 |  3839998008 |  2958554429384 |         283 |       95407
            324 |           135549 |          8132952 |  3839997904 |  2236798344328 |         280 |       32469
            325 |           137359 |          8241540 |  3840002404 |  2173262758588 |         290 |       38738
            326 |           135120 |          8107220 |  3839997484 |  2681497919612 |         293 |       95399
            327 |           132871 |          7972268 |  3840002916 |  2499611039428 |         285 |       47460
            328 |           132795 |          7967680 |  3839997388 |  2570907087124 |         290 |       48097
            329 |           133158 |          7989460 |  3839998688 |  2337061509376 |         293 |       20857
            330 |           118586 |          7115160 |  3840002204 |  2686356024060 |         305 |       48569
            331 |           128328 |          7699676 |  3839977072 |  2496097410664 |         296 |       67145
            332 |           133910 |          8034572 |  3840023172 |  2234534569540 |         287 |       38413
            333 |           131357 |          7881424 |  3840001244 |  2687260648452 |         295 |       63238
            334 |           131873 |          7912364 |  3839991528 |  2703349689352 |         285 |       56898
            335 |           132171 |          7930288 |  3840009576 |  2530087767176 |         289 |       36877
            336 |           132455 |          7947304 |  3839995580 |  3042137180956 |         290 |       94519
            337 |           134797 |          8087844 |  3840003748 |  2225479488084 |         288 |       37946
            338 |           134708 |          8082508 |  3839999032 |  2235777503448 |         296 |       43907
            339 |           133088 |          7985272 |  3839997176 |  2838033285384 |         289 |       60178
            340 |           134420 |          8065192 |  3839999000 |  2533282545528 |         288 |       55118
            341 |           133719 |          8023132 |  3840001632 |  2382167743784 |         288 |       17950
            342 |           135276 |          8116588 |  3839995000 |  2128765769232 |         285 |       23824
            343 |           133613 |          8016792 |  3840004732 |  2307494447972 |         284 |       34211
            344 |           133560 |          8013616 |  3840004520 |  2297004024320 |         280 |       20942
            345 |           120770 |          7246228 |  3839998120 |  2688577832720 |         302 |       64635
            346 |           127849 |          7670964 |  3839998332 |  2901588292124 |         302 |       89264
            347 |           130314 |          7818816 |  3840001420 |  2853018492756 |         284 |       78274
            348 |           132603 |          7956204 |  3839999008 |  2130783490072 |         286 |       16234
            349 |           133357 |          8001436 |  3839994244 |  2267135551276 |         290 |       30921
            350 |           135546 |          8132752 |  3839999008 |  2342306166248 |         290 |       54324
            351 |           132754 |          7965268 |  3840005396 |  2357191889620 |         296 |       31984
            352 |           132957 |          7977392 |  3840000976 |  2535788325480 |         297 |       44098
            353 |           133825 |          8029512 |  3840000168 |  2653180776344 |         291 |       60465
            354 |           133465 |          8007888 |  3839996132 |  2366189028684 |         293 |       42921
            355 |           134188 |          8051296 |  3840001992 |  2194210941160 |         283 |       28944
            356 |           133259 |          7995528 |  3840000316 |  2652021968524 |         292 |       62274
            357 |           138221 |          8293256 |  3840002096 |  1962381303400 |         292 |        9834
            358 |           136224 |          8173432 |  3839995452 |  2038700857620 |         287 |       23792
            359 |           133591 |          8015444 |  3840003672 |  2219833731672 |         294 |       23339
(360 rows)

