 interval_start | avg_transactions | num_transactions | sum_latency | sum_latency_2  | min_latency | max_latency 
----------------+------------------+------------------+-------------+----------------+-------------+-------------
              0 |            78345 |          4700712 |  3786822660 |  4766727822836 |         419 |       59693
              1 |            82320 |          4939204 |  3839997512 |  4659105437016 |         412 |       73344
              2 |            81437 |          4886212 |  3839994952 |  4114652185592 |         427 |       73435
              3 |            81341 |          4880480 |  3840000872 |  3984312667648 |         406 |       88516
              4 |            81745 |          4904680 |  3840001976 |  4839773434832 |         407 |      146119
              5 |            80693 |          4841556 |  3840002452 |  5438568159108 |         414 |      142435
              6 |            81314 |          4878860 |  3839996360 |  3637702395648 |         404 |       44541
              7 |            81057 |          4863392 |  3840007984 |  3558663380880 |         445 |       20617
              8 |            80158 |          4809508 |  3839989624 |  5354003356760 |         421 |      167430
              9 |            81266 |          4875968 |  3840004556 |  3868562250396 |         438 |       70295
             10 |            80957 |          4857412 |  3839994332 |  5481859198572 |         418 |      174353
             11 |            81722 |          4903320 |  3840010364 |  3595702332804 |         428 |       27134
             12 |            81682 |          4900928 |  3839998936 |  3541463445808 |         451 |       20625
             13 |            81357 |          4881412 |  3839992928 |  6403582947336 |         416 |      212156
             14 |            80578 |          4834684 |  3839521444 |  5192889275316 |         410 |      159575
             15 |            73180 |          4390804 |  3840462488 | 11164246468136 |         413 |      151581
             16 |            79794 |          4787668 |  3840015324 |  6254553310860 |         405 |      179939
             17 |            76380 |          4582772 |  3839995624 | 10601896426056 |         403 |      189602
             18 |            80192 |          4811508 |  3840007048 |  4038562689208 |         454 |       55265
             19 |            80372 |          4822340 |  3839995060 |  3652729555844 |         453 |       24171
             20 |            81453 |          4887204 |  3840008452 |  6697369503316 |         416 |      222447
             21 |            81350 |          4881000 |  3840004844 |  5774077128980 |         422 |      189862
             22 |            81606 |          4896376 |  3839988580 |  3574596690972 |         463 |       20157
             23 |            80860 |          4851604 |  3840004092 |  6687034051260 |         416 |      222751
             24 |            81395 |          4883680 |  3839999128 |  6692668751760 |         414 |      223588
             25 |            80799 |          4847948 |  3840005424 |  4566835603232 |         418 |      126239
             26 |            80546 |          4832736 |  3839990396 |  7565159432220 |         435 |      248883
             27 |            80705 |          4842296 |  3840006556 |  5505617327636 |         430 |      163569
             28 |            79006 |          4740364 |  3839998828 |  4298633812332 |         429 |       87549
             29 |            81054 |          4863256 |  3840008000 |  4518871071832 |         424 |      145207
             30 |            76623 |          4597368 |  3839982216 |  8695501199432 |         421 |      278028
             31 |            82296 |          4937736 |  3840005504 |  3184496583816 |         429 |       33787
             32 |            82238 |          4934284 |  3840010420 |  3197919817492 |         427 |       34706
             33 |            82460 |          4947584 |  3839992820 |  3264811902300 |         426 |       39578
             34 |            81528 |          4891692 |  3839998668 |  3720293510988 |         413 |       97090
             35 |            82411 |          4944644 |  3840000284 |  3216588518828 |         430 |       39523
             36 |            82081 |          4924840 |  3839993352 |  3295774489368 |         428 |       46034
             37 |            82670 |          4960180 |  3840008924 |  4216594335372 |         430 |      133009
             38 |            81868 |          4912088 |  3840002760 |  8395719852616 |         431 |      288237
             39 |            82963 |          4977808 |  3839982504 |  4097780794992 |         431 |      128753
             40 |            82786 |          4967188 |  3840011100 |  3107330547612 |         436 |       26014
             41 |            83381 |          5002864 |  3840007508 |  3077918520364 |         429 |       23741
             42 |            82961 |          4977632 |  3839992024 |  7498492704688 |         409 |      264597
             43 |            80043 |          4802604 |  3839997396 | 10046630811620 |         416 |      312640
             44 |            85006 |          5100340 |  3840003048 |  3930394137936 |         411 |      122394
             45 |            78928 |          4735684 |  3840014464 |  8269000364792 |         447 |      280195
             46 |            84757 |          5085444 |  3839983352 |  3074347352432 |         412 |       31516
             47 |            85015 |          5100900 |  3839995000 |  3034686054728 |         435 |       29260
             48 |            84006 |          5040360 |  3840007016 |  3317067048752 |         424 |       59551
             49 |            84547 |          5072816 |  3840003996 |  4058203477828 |         432 |      126012
             50 |            84314 |          5058860 |  3840004404 |  3077788594084 |         405 |       29001
             51 |            85575 |          5134472 |  3840003052 |  2961648245316 |         422 |       23778
             52 |            85050 |          5102976 |  3839983872 |  3034169948584 |         426 |       28671
             53 |            84756 |          5085356 |  3840016472 |  3075627451888 |         414 |       35246
             54 |            87253 |          5235204 |  3839987432 |  2955848411672 |         423 |       28582
             55 |            84877 |          5092636 |  3840006460 |  8083037016940 |         425 |      284532
             56 |            84378 |          5062704 |  3839986644 |  3055336245164 |         422 |       28142
             57 |            83350 |          5000972 |  3840010944 |  4643989876464 |         421 |      144841
             58 |            80921 |          4855268 |  3840001968 |  4171795636960 |         419 |       72769
             59 |            84656 |          5079360 |  3840014420 |  3042033368628 |         428 |       25989
             60 |            77526 |          4651568 |  3839989208 |  5707728640952 |         438 |      157292
             61 |            84289 |          5057344 |  3840004068 |  3092246240708 |         425 |       32909
             62 |            86904 |          5214232 |  3839983256 |  2928375445064 |         435 |       28770
             63 |            85269 |          5116164 |  3840006640 |  3073818464600 |         427 |       33435
             64 |            84591 |          5075436 |  3840009524 |  3127654827556 |         409 |       41487
             65 |            84300 |          5057984 |  3839990540 |  3120839971828 |         424 |       35033
             66 |            84141 |          5048448 |  3840004748 |  4953072835172 |         423 |      166479
             67 |            84570 |          5074228 |  3840002240 |  3264736915920 |         430 |       38813
             68 |            84140 |          5048420 |  3840001008 |  8223109422568 |         417 |      287986
             69 |            84596 |          5075764 |  3839985128 |  3078127995544 |         430 |       35090
             70 |            84635 |          5078124 |  3840002832 |  5046496684872 |         434 |      178722
             71 |            84788 |          5087260 |  3840009436 |  3025570947292 |         424 |       27025
             72 |            84259 |          5055540 |  3840001388 |  3044241509228 |         420 |       26438
             73 |            81489 |          4889360 |  3839989280 |  6599644506264 |         421 |      178134
             74 |            85213 |          5112776 |  3839995404 |  2978918754156 |         421 |       18707
             75 |            77198 |          4631904 |  3839993436 |  7075305926324 |         439 |      254694
             76 |            84774 |          5086428 |  3840021908 |  3196828355436 |         432 |       55655
             77 |            84620 |          5077172 |  3839989312 |  3118700350400 |         418 |       38383
             78 |            84567 |          5074008 |  3840005432 |  4228930743008 |         419 |      135404
             79 |            84656 |          5079352 |  3840001076 |  3063921994452 |         430 |       31293
             80 |            84373 |          5062408 |  3839995372 |  4702050185964 |         428 |      172976
             81 |            84974 |          5098448 |  3840004144 |  3050029328904 |         418 |       29477
             82 |            84772 |          5086328 |  3840003952 |  3072229644032 |         423 |       29084
             83 |            84391 |          5063480 |  3839995976 |  3141946774416 |         420 |       35552
             84 |            83548 |          5012876 |  3840010964 | 13344342415364 |         421 |      315496
             85 |            84238 |          5054264 |  3839979648 |  3081476215664 |         425 |       30764
             86 |            84317 |          5059036 |  3840004288 |  3047120468008 |         413 |       27525
             87 |            84620 |          5077188 |  3840008532 |  3031648568308 |         433 |       34033
             88 |            81247 |          4874828 |  3839992628 |  8283019939164 |         423 |      267314
             89 |            85205 |          5112292 |  3839984344 |  3014193950048 |         418 |       26277
             90 |            77029 |          4621764 |  3840018392 |  3741401695936 |         440 |       69568
             91 |            84894 |          5093660 |  3840006484 |  3129745607972 |         420 |       46113
             92 |            83176 |          4990532 |  3839989496 |  8543227043640 |         425 |      299257
             93 |            84389 |          5063348 |  3840009208 |  3176687594208 |         427 |       49785
             94 |            84273 |          5056396 |  3839988616 |  4693460486024 |         425 |      161977
             95 |            84526 |          5071564 |  3840017980 |  3073352410388 |         424 |       30903
             96 |            85454 |          5127224 |  3839988656 |  3059687452320 |         426 |       34092
             97 |            84315 |          5058884 |  3840005508 |  3095996296060 |         403 |       34483
             98 |            83466 |          5007976 |  3839992532 |  3813021094060 |         442 |      122123
             99 |            84271 |          5056236 |  3840004056 |  3099564108288 |         427 |       35752
            100 |            85790 |          5147428 |  3840000008 |  3022428738088 |         427 |       30961
            101 |            83549 |          5012912 |  3840005380 |  3093138436516 |         417 |       30256
            102 |            82522 |          4951316 |  3839989520 |  4363559551768 |         433 |      114465
            103 |            81469 |          4888152 |  3840013556 |  8068304495508 |         431 |      182708
            104 |            84032 |          5041908 |  3839974432 |  3075581489984 |         406 |       27277
            105 |            75177 |          4510644 |  3840026628 |  3916550603876 |         445 |       75484
            106 |            82369 |          4942112 |  3839986144 |  3303923637560 |         448 |       54552
            107 |            81470 |          4888228 |  3839997372 |  3261339460900 |         422 |       41715
            108 |            82796 |          4967756 |  3840002780 |  3162219463956 |         416 |       34881
            109 |            82292 |          4937492 |  3839990248 |  3897138267144 |         407 |      107241
            110 |            82465 |          4947872 |  3839995520 |  3172552777928 |         417 |       33620
            111 |            82047 |          4922800 |  3840003048 |  3185756036984 |         435 |       33457
            112 |            82106 |          4926332 |  3840012416 |  3167532439552 |         407 |       31807
            113 |            80821 |          4849232 |  3839998296 |  8916591708328 |         429 |      216658
            114 |            82826 |          4969572 |  3840003300 |  3470322883316 |         415 |       78412
            115 |            82335 |          4940092 |  3839996840 |  3148400768432 |         420 |       32656
            116 |            82900 |          4973996 |  3840001084 |  3072038527324 |         424 |       27238
            117 |            82206 |          4932344 |  3839981180 |  3202559327692 |         441 |       40688
            118 |            79802 |          4788132 |  3840025900 |  8331882405228 |         416 |      266500
            119 |            82858 |          4971500 |  3839988816 |  3157377091872 |         414 |       35934
            120 |            75074 |          4504412 |  3840000844 |  4001452550524 |         450 |       84292
            121 |            82035 |          4922080 |  3840007836 |  5302168607532 |         428 |      178444
            122 |            81627 |          4897620 |  3839992952 |  3239277807096 |         428 |       38300
            123 |            81854 |          4911236 |  3839997288 |  3134913880608 |         442 |       35125
            124 |            82811 |          4968676 |  3840014364 |  3172117628180 |         424 |       36793
            125 |            82270 |          4936204 |  3839994208 |  3192404291944 |         432 |       34222
            126 |            80259 |          4815564 |  3839991360 |  5630146338408 |         429 |      134391
            127 |            82224 |          4933432 |  3839998480 |  3332127398968 |         414 |       57144
            128 |            81979 |          4918764 |  3840006920 |  3184969457576 |         440 |       32240
            129 |            82233 |          4933952 |  3839990864 |  3211393006440 |         445 |       37751
            130 |            82288 |          4937292 |  3840008196 |  3192341345404 |         431 |       40275
            131 |            82755 |          4965276 |  3840000580 |  3271260410916 |         433 |       49434
            132 |            82047 |          4922820 |  3840001468 |  5875907122644 |         427 |      206809
            133 |            78807 |          4728408 |  3840000296 |  6665302898576 |         420 |      189117
            134 |            82640 |          4958396 |  3839991868 |  3155896677940 |         433 |       32411
            135 |            75158 |          4509500 |  3840019736 |  4028019260648 |         458 |       81136
            136 |            82415 |          4944884 |  3839984140 |  3279630086068 |         425 |       50603
            137 |            82598 |          4955888 |  3840009652 |  3551741250604 |         428 |       77989
            138 |            81863 |          4911756 |  3839987980 |  3237573723876 |         423 |       39317
            139 |            82396 |          4943748 |  3839998032 |  3182396873752 |         441 |       32877
            140 |            80017 |          4801048 |  3840004232 |  7104224292144 |         441 |      155534
            141 |            82624 |          4957436 |  3840000228 |  3154385087548 |         428 |       33224
            142 |            82730 |          4963772 |  3839996940 |  3121408684100 |         425 |       27337
            143 |            82500 |          4950028 |  3840011420 |  3139948116468 |         411 |       29031
            144 |            82703 |          4962196 |  3839982044 |  3160675191716 |         431 |       34629
            145 |            82462 |          4947728 |  3840013644 |  3139429847788 |         441 |       27822
            146 |            82681 |          4960856 |  3839999812 |  3142664102580 |         416 |       29997
            147 |            82497 |          4949824 |  3839997772 |  3332302782908 |         425 |       50678
            148 |            79389 |          4763364 |  3839995680 |  8410061811344 |         437 |      269604
            149 |            83116 |          4986960 |  3839993324 |  3117992986356 |         421 |       30447
            150 |            74669 |          4480168 |  3840006552 |  4131068636184 |         455 |       97870
            151 |            82160 |          4929576 |  3840011496 |  3286290121864 |         423 |       52160
            152 |            82754 |          4965228 |  3839998220 |  3175184595092 |         417 |       35813
            153 |            82273 |          4936388 |  3840011636 |  3198011930356 |         421 |       35374
            154 |            82176 |          4930548 |  3839977292 |  6135307261004 |         428 |      218300
            155 |            81002 |          4860132 |  3840011460 |  3256621876284 |         440 |       38355
            156 |            80858 |          4851504 |  3839996004 |  9936331594996 |         440 |      243526
            157 |            82134 |          4928016 |  3840001204 |  3193543289252 |         435 |       34574
            158 |            82351 |          4941040 |  3839991144 |  3232122891392 |         429 |       39213
            159 |            81997 |          4919800 |  3840011660 |  3191273303588 |         433 |       33286
            160 |            82206 |          4932380 |  3839997004 |  3174641633140 |         427 |       31642
            161 |            81923 |          4915380 |  3839990484 |  3131522290364 |         427 |       24104
            162 |            82397 |          4943808 |  3839996008 |  3249842832000 |         431 |       46139
            163 |            76697 |          4601812 |  3840013872 | 13443558126392 |         426 |      270570
            164 |            81456 |          4887380 |  3839963768 |  5838120015664 |         436 |      142490
            165 |            74926 |          4495548 |  3840036888 | 11448089773896 |         432 |      312209
            166 |            80730 |          4843788 |  3840001868 |  4829799025652 |         440 |      123018
            167 |            81471 |          4888280 |  3839994104 |  5661141961176 |         430 |      178832
            168 |            81326 |          4879580 |  3840001296 |  3893313802312 |         431 |       73418
            169 |            81156 |          4869332 |  3840000012 |  3445689313868 |         434 |       54699
            170 |            80572 |          4834312 |  3840000552 |  4685079866576 |         416 |       65035
            171 |            79971 |          4798268 |  3840005364 |  9490541397468 |         418 |      281722
            172 |            80152 |          4809096 |  3839992796 |  8853101152940 |         434 |      195554
            173 |            79663 |          4779768 |  3840003740 |  9609833493100 |         403 |      270470
            174 |            79425 |          4765480 |  3839996512 |  8735168506472 |         417 |      237467
            175 |            79878 |          4792676 |  3839994328 |  8579563203744 |         443 |      256344
            176 |            80623 |          4837356 |  3840014388 |  5191142319300 |         459 |      106123
            177 |            79781 |          4786832 |  3839995056 | 13103713402728 |         425 |      295876
            178 |            77762 |          4665712 |  3839994144 |  5146515908144 |         436 |       80159
            179 |            81403 |          4884180 |  3839981536 |  9351649131024 |         423 |      303771
            180 |            74480 |          4468788 |  3840010532 |  4464124058044 |         454 |       86540
            181 |            81632 |          4897948 |  3840010580 |  4033941510180 |         436 |       81064
            182 |            82207 |          4932396 |  3839986904 |  3443106402688 |         420 |       45904
            183 |            81942 |          4916516 |  3840016552 |  5108281609544 |         444 |      170444
            184 |            81710 |          4902572 |  3840006136 |  3422358641920 |         438 |       32235
            185 |            81524 |          4891420 |  3839991760 |  3589320014504 |         441 |       53993
            186 |            82108 |          4926500 |  3835240404 |  3586910212780 |         422 |       90980
            187 |            82352 |          4941108 |  3844752480 |  5836567335440 |         428 |      196925
            188 |            81222 |          4873300 |  3839998592 |  4046402336040 |         429 |       42796
            189 |            80595 |          4835724 |  3840013036 |  3841251138556 |         463 |       25269
            190 |            81332 |          4879900 |  3839989352 |  3626216162184 |         456 |       21570
            191 |            80685 |          4841084 |  3840013132 |  3637740926580 |         461 |       23275
            192 |            80388 |          4823280 |  3839985004 |  3629485789500 |         468 |       22244
            193 |            77056 |          4623376 |  3840001756 |  7128347372428 |         445 |      202881
            194 |            82730 |          4963788 |  3840010264 |  3085884501840 |         419 |       21961
            195 |            75529 |          4531744 |  3839996984 |  3821395228408 |         446 |       69335
            196 |            82039 |          4922352 |  3839995632 |  3206171677328 |         427 |       39947
            197 |            82356 |          4941364 |  3840003568 |  3156322970688 |         429 |       29475
            198 |            83021 |          4981256 |  3839993760 |  3123353048480 |         436 |       27423
            199 |            82526 |          4951556 |  3840006544 |  3150358721296 |         440 |       32162
            200 |            82602 |          4956148 |  3839986644 |  3186219931076 |         433 |       38679
            201 |            82358 |          4941500 |  3840002232 |  3148321277040 |         415 |       31419
            202 |            82126 |          4927564 |  3840015756 |  3168996071316 |         419 |       31655
            203 |            81968 |          4918100 |  3839994152 |  3166156534920 |         425 |       29711
            204 |            82613 |          4956772 |  3839988812 |  3144425614004 |         415 |       30410
            205 |            81936 |          4916140 |  3840017952 |  3147924960008 |         431 |       29922
            206 |            82367 |          4942008 |  3839991928 |  3159109729248 |         416 |       32371
            207 |            82329 |          4939768 |  3840003192 |  3242392738584 |         421 |       49265
            208 |            79689 |          4781364 |  3839996348 |  3960873625564 |         441 |       61974
            209 |            81968 |          4918096 |  3840014384 |  3502013024432 |         438 |       75531
            210 |            75435 |          4526080 |  3839981984 |  3846962705144 |         451 |       64615
            211 |            82284 |          4937040 |  3840018336 |  3218178959216 |         428 |       39944
            212 |            82873 |          4972364 |  3839981164 |  3172991428756 |         420 |       42671
            213 |            82399 |          4943948 |  3839993016 |  3147670770920 |         428 |       32664
            214 |            82223 |          4933360 |  3840014004 |  3217978818988 |         389 |       34415
            215 |            83117 |          4987036 |  3839987112 |  3215034283104 |         438 |       39719
            216 |            82552 |          4953104 |  3840014172 |  3176504351844 |         426 |       34234
            217 |            82973 |          4978388 |  3839997556 |  3159878727716 |         426 |       37133
            218 |            84755 |          5085316 |  3839999136 |  3068032748776 |         422 |       31407
            219 |            84895 |          5093680 |  3840004452 |  3123479261468 |         433 |       32613
            220 |            84550 |          5072996 |  3839992772 |  3070130353324 |         423 |       31230
            221 |            84570 |          5074196 |  3840005248 |  3073248407712 |         429 |       32484
            222 |            84143 |          5048580 |  3839982604 |  3186221712044 |         431 |       50031
            223 |            81248 |          4874896 |  3840020192 |  4313074586584 |         426 |       69713
            224 |            83638 |          5018260 |  3840002064 |  7172162866568 |         441 |      253858
            225 |            76687 |          4601204 |  3839993452 |  4170497657580 |         439 |       93381
            226 |            84314 |          5058812 |  3840004644 |  3128397618972 |         421 |       42416
            227 |            84058 |          5043488 |  3839985000 |  3107717969608 |         425 |       34680
            228 |            84495 |          5069720 |  3840008308 |  3102407112388 |         439 |       35255
            229 |            84324 |          5059420 |  3840005160 |  3119440153752 |         426 |       37086
            230 |            84327 |          5059592 |  3840005712 |  3149486128552 |         423 |       37147
            231 |            84028 |          5041684 |  3839994868 |  3936198635476 |         417 |      109654
            232 |            83739 |          5024332 |  3839999848 |  3121334193584 |         434 |       38867
            233 |            83693 |          5021604 |  3839995532 |  3130718080900 |         421 |       36785
            234 |            84195 |          5051696 |  3839998380 |  3274443860308 |         416 |       50987
            235 |            84139 |          5048364 |  3840011116 |  3099536677764 |         440 |       33319
            236 |            84722 |          5083344 |  3839992612 |  3066914686244 |         424 |       31812
            237 |            84087 |          5045224 |  3840000204 |  3115622836012 |         435 |       36437
            238 |            83996 |          5039784 |  3839989152 |  4038184604272 |         424 |       59678
            239 |            85549 |          5132912 |  3840008048 |  3101994360360 |         417 |       41316
            240 |            75922 |          4555328 |  3839999572 |  4388908540596 |         442 |      114026
            241 |            84182 |          5050912 |  3840004072 |  4673884549096 |         414 |      149471
            242 |            83663 |          5019752 |  3839997548 |  3173842371820 |         417 |       41571
            243 |            84261 |          5055676 |  3840001964 |  3123668137804 |         419 |       35715
            244 |            83993 |          5039604 |  3839987572 |  3135942154908 |         430 |       37673
            245 |            83646 |          5018764 |  3840012048 |  3180963812640 |         423 |       41352
            246 |            84437 |          5066244 |  3839999284 |  3123344089460 |         438 |       34564
            247 |            83866 |          5031976 |  3840001652 |  3086424699596 |         443 |       39474
            248 |            83805 |          5028280 |  3840005364 |  3106802374468 |         407 |       35982
            249 |            84655 |          5079288 |  3839992604 |  3144464132172 |         416 |       39790
            250 |            84520 |          5071200 |  3840000612 |  3054279467316 |         434 |       30742
            251 |            84902 |          5094124 |  3839991484 |  3047704016460 |         431 |       33404
            252 |            84358 |          5061472 |  3840018948 |  3106146981084 |         423 |       41061
            253 |            80848 |          4850864 |  3839986936 |  6885892047064 |         419 |      213212
            254 |            83927 |          5035608 |  3840001432 |  3199920064536 |         423 |       41112
            255 |            76928 |          4615660 |  3840005900 |  7832720772708 |         436 |      232154
            256 |            84389 |          5063332 |  3840003992 |  3210179215512 |         428 |       44135
            257 |            84357 |          5061412 |  3839986312 |  3125884479512 |         415 |       36034
            258 |            84638 |          5078272 |  3840003368 |  3253848686024 |         429 |       47196
            259 |            84217 |          5053028 |  3839996848 |  3168548371368 |         425 |       40432
            260 |            84323 |          5059408 |  3840011776 |  3202917583528 |         420 |       43907
            261 |            84210 |          5052628 |  3839996776 |  3186791756184 |         448 |       42837
            262 |            83874 |          5032460 |  3840002996 |  3185202656924 |         422 |       42176
            263 |            84007 |          5040408 |  3839988112 |  3163018297104 |         414 |       36523
            264 |            83509 |          5010568 |  3839986176 |  3153667938544 |         419 |       37401
            265 |            84090 |          5045384 |  3840015148 |  3055387972252 |         442 |       35092
            266 |            83796 |          5027748 |  3840004732 |  3101544008748 |         444 |       33824
            267 |            84328 |          5059680 |  3839999532 |  3129418631020 |         413 |       35538
            268 |            80342 |          4820512 |  3839995976 |  8881117997864 |         421 |      276505
            269 |            84195 |          5051708 |  3839980364 |  3117103919868 |         410 |       38667
            270 |            76573 |          4594400 |  3840022428 |  4309121221604 |         465 |      105597
            271 |            83866 |          5031988 |  3840004752 |  3234389086720 |         442 |       50451
            272 |            82799 |          4967944 |  3840002208 |  9155920757064 |         420 |      308820
            273 |            83835 |          5030128 |  3839983224 |  3132381759968 |         424 |       37332
            274 |            83403 |          5004156 |  3840001400 |  3185355526648 |         426 |       44620
            275 |            84270 |          5056220 |  3840011784 |  3157858326056 |         427 |       42727
            276 |            82782 |          4966916 |  3839992356 |  3198707154740 |         414 |       38018
            277 |            82011 |          4920648 |  3840005572 |  3225866667292 |         439 |       36966
            278 |            81963 |          4917808 |  3839994036 |  3232575320684 |         421 |       38771
            279 |            82136 |          4928168 |  3839999300 |  3230876179572 |         427 |       35116
            280 |            81422 |          4885336 |  3839994868 |  3210129379580 |         421 |       33080
            281 |            81095 |          4865696 |  3840006236 |  5742543451396 |         423 |      215844
            282 |            81448 |          4886904 |  3840006364 |  3315018962924 |         425 |       53083
            283 |            80508 |          4830508 |  3839995844 |  4240984942284 |         417 |       78298
            284 |            81409 |          4884544 |  3840003896 |  3299025344392 |         428 |       47060
            285 |            73620 |          4417204 |  3840000456 | 10628231911528 |         428 |      284882
            286 |            81054 |          4863232 |  3839973772 |  3802240192404 |         425 |       62402
            287 |            81452 |          4887100 |  3840014780 |  3575237645700 |         426 |       52909
            288 |            81516 |          4890968 |  3840006496 |  4038146808416 |         441 |       75670
            289 |            81738 |          4904276 |  3840005792 |  3428043723792 |         427 |       44160
            290 |            81683 |          4900984 |  3840002732 |  3683525564372 |         407 |       73589
            291 |            80889 |          4853364 |  3840001496 |  3682165378120 |         433 |       63583
            292 |            80379 |          4822744 |  3839988792 |  6742724090352 |         423 |      230296
            293 |            80903 |          4854176 |  3840007584 |  3832148504568 |         441 |       68664
            294 |            81239 |          4874332 |  3840000820 |  4090126454356 |         433 |       74442
            295 |            81192 |          4871532 |  3839999376 |  8487939308272 |         433 |      280594
            296 |            80755 |          4845304 |  3839999200 |  3808982454768 |         424 |       58375
            297 |            80785 |          4847072 |  3839993640 |  7422340007472 |         450 |      237045
            298 |            77588 |          4655296 |  3839991516 |  8316667792892 |         437 |      249547
            299 |            80796 |          4847760 |  3840024564 |  4088402293076 |         419 |       72836
            300 |            73694 |          4421632 |  3839979760 |  6821608292728 |         431 |      175020
            301 |            81231 |          4873876 |  3839998556 |  3587145082540 |         438 |       56970
            302 |            81348 |          4880904 |  3839998932 |  3684534008180 |         443 |       54324
            303 |            81206 |          4872368 |  3840014620 |  7727800727788 |         433 |      263441
            304 |            81517 |          4891036 |  3840005192 |  4087337687704 |         429 |       78256
            305 |            81482 |          4888916 |  3839990872 |  3333231483288 |         441 |       32718
            306 |            81231 |          4873856 |  3840003116 |  3922504143668 |         431 |       97095
            307 |            81741 |          4904460 |  3839994616 |  3407598031144 |         434 |       37170
            308 |            80850 |          4851000 |  3839635636 |  8273203202012 |         432 |      277187
            309 |            81463 |          4887772 |  3840364280 |  3471168091328 |         410 |       36533
            310 |            80986 |          4859136 |  3839993920 |  3775400233552 |         438 |       29101
            311 |            80291 |          4817452 |  3840014736 |  3726265093472 |         476 |       23461
            312 |            79869 |          4792156 |  3839993040 |  3845646317184 |         459 |       25769
            313 |            76456 |          4587344 |  3839999312 |  6173374713280 |         409 |      147051
            314 |            81784 |          4907064 |  3839999024 |  3121411716192 |         421 |       20985
            315 |            75714 |          4542848 |  3840005796 |  4104052681564 |         436 |       81517
            316 |            83306 |          4998384 |  3839985632 |  3119108019432 |         416 |       30132
            317 |            82712 |          4962692 |  3840015824 |  3139887488216 |         432 |       31487
            318 |            82021 |          4921288 |  3839995152 |  3144879646000 |         429 |       31734
            319 |            82200 |          4932016 |  3840000044 |  3158063692092 |         436 |       30791
            320 |            82107 |          4926448 |  3840005988 |  3172873022796 |         419 |       37299
            321 |            82007 |          4920428 |  3839988280 |  3137347531576 |         416 |       30645
            322 |            82375 |          4942528 |  3839998828 |  3168276194316 |         431 |       36755
            323 |            82066 |          4923972 |  3839994368 |  3149129643376 |         436 |       31980
            324 |            81720 |          4903176 |  3840014708 |  3164293914876 |         420 |       28404
            325 |            82785 |          4967080 |  3839995684 |  3116592027012 |         420 |       26827
            326 |            81813 |          4908772 |  3840006692 |  3144957448764 |         429 |       26291
            327 |            82024 |          4921416 |  3839988844 |  3263475096980 |         430 |       44234
            328 |            79225 |          4753508 |  3840008712 |  4487164987136 |         422 |       89894
            329 |            81494 |          4889640 |  3839986464 |  3209238069464 |         431 |       32394
            330 |            76572 |          4594308 |  3839999188 |  4249508661956 |         429 |       87481
            331 |            82737 |          4964220 |  3840008376 |  3127372003864 |         430 |       28458
            332 |            82068 |          4924100 |  3840002000 |  3165982857568 |         429 |       30898
            333 |            81522 |          4891312 |  3839991676 |  3173867400436 |         430 |       27937
            334 |            82217 |          4933008 |  3840013888 |  3144362154392 |         433 |       28394
            335 |            81591 |          4895464 |  3839997836 |  3161968264420 |         436 |       28465
            336 |            81629 |          4897732 |  3839994376 |  3158592799624 |         423 |       27918
            337 |            81987 |          4919208 |  3839999312 |  3152839106440 |         426 |       30026
            338 |            81582 |          4894900 |  3839996316 |  3155030580724 |         425 |       30512
            339 |            82289 |          4937324 |  3840013360 |  3119679189456 |         439 |       27016
            340 |            82142 |          4928548 |  3839984700 |  3190385194756 |         430 |       34394
            341 |            82360 |          4941596 |  3840015068 |  3152375009684 |         429 |       34786
            342 |            81618 |          4897080 |  3839991828 |  3191127132796 |         421 |       31221
            343 |            79202 |          4752092 |  3839989968 |  4288275485648 |         406 |       82967
            344 |            82445 |          4946672 |  3840005240 |  3154421673960 |         431 |       29575
            345 |            76148 |          4568896 |  3840016572 |  4556902179924 |         428 |       99221
            346 |            81335 |          4880124 |  3839992172 |  4182230106188 |         438 |      122840
            347 |            82031 |          4921868 |  3840005808 |  3182383106096 |         415 |       32817
            348 |            82445 |          4946712 |  3839985212 |  3173542214084 |         419 |       34372
            349 |            81952 |          4917148 |  3840007568 |  3215492182568 |         416 |       35170
            350 |            81511 |          4890664 |  3839988792 |  3225769533024 |         412 |       35675
            351 |            81760 |          4905608 |  3840002464 |  3231866473304 |         440 |       40591
            352 |            81845 |          4910700 |  3840005576 |  3225509716600 |         427 |       38141
            353 |            82112 |          4926720 |  3840007900 |  3181005908460 |         423 |       32865
            354 |            82047 |          4922792 |  3839991320 |  3195037857568 |         435 |       34700
            355 |            82033 |          4921996 |  3839997512 |  3162748536968 |         423 |       29307
            356 |            82513 |          4950804 |  3840003292 |  3116451208620 |         426 |       26847
            357 |            82471 |          4948288 |  3839991516 |  3143877243132 |         417 |       30798
            358 |            82900 |          4974000 |  3840009116 |  4031030606732 |         400 |       67378
            359 |            87365 |          5241872 |  3839978080 |  3357025166952 |         414 |       79994
(360 rows)

