 interval_start | avg_transactions | num_transactions | sum_latency |  sum_latency_2   | min_latency | max_latency 
----------------+------------------+------------------+-------------+------------------+-------------+-------------
              0 |            35775 |          2146492 |  3725358204 |  278298013878204 |         508 |      895041
              1 |            27270 |          1636196 |  3892878620 |  501056824018716 |         481 |      993508
              2 |            25623 |          1537376 |  3840986520 |  465835246114712 |           0 |     1547338
              3 |            27141 |          1628444 |  3839692996 |  200698887404892 |         493 |      472497
              4 |            26039 |          1562340 |  3837421040 |  235946056664944 |         488 |      707698
              5 |            25735 |          1544128 |  3842893224 |  248645880521824 |         489 |      643257
              6 |            25563 |          1533776 |  3803859576 |  351048992480312 |         448 |      946646
              7 |            25616 |          1536948 |  3876141672 |  356298921771696 |         484 |     1242878
              8 |            24457 |          1467392 |  3840028228 |  441485762601180 |         500 |     1069876
              9 |            24625 |          1477488 |  3839962592 |  518372144991248 |         495 |     1098375
             10 |            25267 |          1515992 |  3839780940 |  404286347349172 |         455 |      776447
             11 |            23261 |          1395640 |  3839591032 |  637974388693800 |           0 |     1928786
             12 |            22390 |          1276244 |  3642600444 | 1198298642889164 |           0 |     1918593
(13 rows)

