transaction type: <builtin: simple update>
scaling factor: 200
query mode: simple
number of clients: 16
number of threads: 4
duration: 21600 s
number of transactions actually processed: 593313191
latency average = 0.582 ms
tps = 27468.202562 (including connections establishing)
tps = 27468.205113 (excluding connections establishing)
